,iteration,test_start,test_end,auc,rank
0,0,2017-04-19 00:00:00,2017-04-26 00:00:00,,
1,1,2017-04-26 00:00:00,2017-05-03 00:00:00,,
2,2,2017-05-03 00:00:00,2017-05-10 00:00:00,0.75,1.0
3,3,2017-05-10 00:00:00,2017-05-17 00:00:00,,
4,4,2017-05-17 00:00:00,2017-05-24 00:00:00,,
5,5,2017-05-24 00:00:00,2017-05-31 00:00:00,0.6666666666666666,2.0
6,6,2017-05-31 00:00:00,2017-06-07 00:00:00,,
7,7,2017-06-07 00:00:00,2017-06-14 00:00:00,0.7349537037037037,5.333333333333333
8,8,2017-06-14 00:00:00,2017-06-21 00:00:00,0.5375,2.5
9,9,2017-06-21 00:00:00,2017-06-28 00:00:00,,
10,10,2017-06-28 00:00:00,2017-07-05 00:00:00,,
11,11,2017-07-05 00:00:00,2017-07-12 00:00:00,,
12,12,2017-07-12 00:00:00,2017-07-19 00:00:00,,
13,13,2017-07-19 00:00:00,2017-07-26 00:00:00,,
14,14,2017-07-26 00:00:00,2017-08-02 00:00:00,0.625,3.0
15,15,2017-08-02 00:00:00,2017-08-09 00:00:00,,
16,16,2017-08-09 00:00:00,2017-08-16 00:00:00,,
17,17,2017-08-16 00:00:00,2017-08-23 00:00:00,,
18,18,2017-08-23 00:00:00,2017-08-30 00:00:00,,
19,19,2017-08-30 00:00:00,2017-09-06 00:00:00,,
20,20,2017-09-06 00:00:00,2017-09-13 00:00:00,,
21,21,2017-09-13 00:00:00,2017-09-20 00:00:00,,
22,22,2017-09-20 00:00:00,2017-09-27 00:00:00,,
23,23,2017-09-27 00:00:00,2017-10-04 00:00:00,,
24,24,2017-10-04 00:00:00,2017-10-11 00:00:00,,
25,25,2017-10-11 00:00:00,2017-10-18 00:00:00,,
26,26,2017-10-18 00:00:00,2017-10-25 00:00:00,,
27,27,2017-10-25 00:00:00,2017-11-01 00:00:00,,
28,28,2017-11-01 00:00:00,2017-11-08 00:00:00,,
29,29,2017-11-08 00:00:00,2017-11-15 00:00:00,,
30,30,2017-11-15 00:00:00,2017-11-22 00:00:00,,
31,31,2017-11-22 00:00:00,2017-11-29 00:00:00,,
32,32,2017-11-29 00:00:00,2017-12-06 00:00:00,,
