,y_true,y_pred,y_pred_top_k,y_pred_top_percentage,label_id,timestamp_min,timestamp_max,nb,freq_temp,max_freq_pressure,min_freq_pressure
0,0.0,0.14449549614126564,0.03612498192135811,0.02425843008731281,,2017-07-05 10:17:04.865999937,2017-07-05 10:28:12.044000149,67,0.0,0,0
1,0.0,0.06098633799670839,0.060985982519583856,0.0609857002386204,,2017-07-07 19:16:32.457000017,2017-07-07 19:27:39.644999981,67,0.0,0,0
2,0.0,0.2045435854742412,0.08548825988209427,0.08004076164521529,,2017-07-07 22:34:40.697000027,2017-07-07 22:45:47.880000114,67,0.0,0,0
3,0.0,0.13851389934501895,0.018003264183222432,0.012488978184568874,,2017-07-08 00:16:46.358000040,2017-07-08 00:27:53.544000149,67,0.0,0,0
4,0.0,0.03967229283630309,0.024161292691622444,0.03967229283630309,,2017-07-08 00:28:01.546000004,2017-07-08 01:19:01.394000053,4,0.0,0,0
5,0.0,0.03316000996001863,0.021819026266646068,0.03316000996001863,,2017-07-08 01:30:43.582000017,2017-07-08 02:46:08.798000097,5,0.0,0,0
6,0.0,0.03383500578333601,0.033832333549898466,0.033829557167900315,,2017-07-08 03:31:36.525000095,2017-07-08 03:54:42.910000086,138,0.0,0,0
7,0.0,0.03149250961798637,0.03149250961798637,0.03149250961798637,,2017-07-08 03:57:43.960000038,2017-07-08 04:23:05.384999990,1,0.0,0,0
8,0.0,0.14694485112478983,0.02389268781249975,0.018261847008709996,,2017-07-08 06:32:30.479000092,2017-07-08 06:43:37.657999992,67,0.0,0,0
9,0.0,0.033170523132040906,0.033170523132040906,0.033170523132040906,,2017-07-08 07:03:00.975000143,2017-07-08 07:37:15.542999983,1,0.0,0,0
10,0.0,0.17627176652864995,0.05158682823464239,0.04588095549068956,,2017-07-08 09:43:39.578000069,2017-07-08 09:54:46.763000011,67,0.0,0,0
11,0.0,0.04120552980134666,0.04119704802389506,0.041200371562743185,,2017-07-08 10:36:31.444999933,2017-07-08 11:16:41.085000038,15,0.0,0,0
12,0.0,0.1369036127180969,0.01750290085068676,0.011017268030236808,,2017-07-09 00:49:10.302000046,2017-07-09 01:00:17.486000061,67,0.0,0,0
13,0.0,0.0548739250010546,0.03220974923232603,0.054872075823114534,,2017-07-09 01:14:08.710999966,2017-07-09 02:19:07.750999928,12,0.0,0,0
14,0.0,0.03579034422810774,0.02996048536717674,0.0357886728771164,,2017-07-09 03:08:19.552999973,2017-07-09 03:31:48.934999943,9,0.0,0,0
15,0.0,0.14143673424987396,0.025607476466983768,0.017317614833024443,,2017-07-09 04:44:34.123000145,2017-07-09 04:55:41.305999994,67,0.0,0,0
16,0.0,0.02327735738495109,0.022882772473711586,0.02327735738495109,,2017-07-09 05:12:16.572000027,2017-07-09 06:38:36.973999977,2,0.0,0,0
17,0.0,0.1518786534250871,0.03187664646750691,0.026386190210037342,,2017-07-09 08:06:30.401999950,2017-07-09 08:17:37.584000111,67,0.0,0,0
18,0.0,0.028869834760336766,0.02632878112369914,0.028868437931701584,,2017-07-09 08:19:30.615999937,2017-07-09 09:12:18.476000071,13,0.0,0,0
19,0.0,0.22724375712176106,0.10250905901620413,0.0968016517176621,,2017-07-09 12:17:43.489000082,2017-07-09 12:28:50.676000118,67,0.0,0,0
20,0.0,0.028876960823384118,0.028869080851247324,0.028873886643024413,,2017-07-09 13:17:57.479000092,2017-07-09 14:12:27.355000019,12,0.0,0,0
21,0.0,0.01854580639204547,0.018544859770165765,0.018544331743845142,,2017-07-09 17:20:20.417999983,2017-07-09 17:31:27.600000143,67,0.0,0,0
22,0.0,0.0145781950916876,0.014569161388210494,0.0145781950916876,,2017-07-09 17:33:01.625000,2017-07-09 17:52:06.933000088,4,0.0,0,0
23,0.0,0.1518783169967037,0.031876493455835334,0.02638600894427596,,2017-07-09 21:22:05.345000029,2017-07-09 21:33:12.526999950,67,0.0,0,0
24,0.0,0.026525322982811253,0.024489303692802444,0.026525322982811253,,2017-07-09 21:33:25.531000137,2017-07-09 22:09:37.125000,3,0.0,0,0
25,0.0,0.17360339298220176,0.08881090334965108,0.08492953001196897,,2017-07-10 02:59:26.832999945,2017-07-10 03:10:34.016999960,67,0.0,0,0
26,0.0,0.020422717703885485,0.015154779232570673,0.01603414896036154,,2017-07-10 03:26:03.269999981,2017-07-10 04:23:47.222000122,15,0.0,0,0
27,0.0,0.17965959616817082,0.059107216007037965,0.053591256687202285,,2017-07-10 13:39:55.253999949,2017-07-10 13:51:02.431999922,67,0.0,0,0
28,0.0,0.09017895099848755,0.04122506852093281,0.04355680256587103,,2017-07-10 14:09:33.725000143,2017-07-10 18:05:49.541000128,27,0.0,0,0
29,0.0,0.135985769124721,0.015257942852911321,0.009733764301744285,,2017-07-10 18:40:22.097000122,2017-07-10 18:51:29.282000065,67,0.0,0,0
30,0.0,0.02652632675559306,0.016560140571429953,0.0205516960437537,,2017-07-10 18:54:50.332000017,2017-07-10 21:04:26.430999994,6,0.0,0,0
31,0.0,0.06843026548210455,0.06843018344490263,0.06843014451214761,,2017-07-10 23:08:45.450000048,2017-07-10 23:19:52.634000063,67,0.0,0,0
32,0.0,0.1359891511211991,0.030090362458842685,0.02039750066795006,,2017-07-11 00:35:45.861999989,2017-07-11 00:46:53.046000004,67,0.0,0,0
33,0.0,0.026537040129064618,0.0185556940750408,0.026537040129064618,,2017-07-11 00:51:07.115000010,2017-07-11 01:39:27.901999950,3,0.0,0,0
34,0.0,0.15336641725702335,0.03349410587955283,0.028009281693762118,,2017-07-11 03:06:12.298000097,2017-07-11 03:17:19.480999947,67,0.0,0,0
35,0.0,0.0740150931162204,0.04345976064505883,0.0740150931162204,,2017-07-11 03:40:11.855999947,2017-07-11 04:27:13.640000105,3,0.0,0,0
36,0.0,0.16695955508691654,0.0461764624840945,0.03658984269767996,,2017-07-11 06:50:32.952000141,2017-07-11 07:13:39.345999956,139,0.0,0,0
37,0.0,0.06485056108343674,0.04743017908122112,0.06484890865470586,,2017-07-11 07:14:05.354000092,2017-07-11 08:12:06.288000107,17,0.0,0,0
38,0.0,0.006101276659281001,0.006100473059671064,0.006099817490670672,,2017-07-11 11:56:31.949000120,2017-07-11 12:07:39.134000063,67,0.0,0,0
39,0.0,1.0,0.262452504786017,0.40644403721865036,,2017-07-11 12:07:52.138000011,2017-07-11 16:18:40.217999935,26,0.0,0,0
40,0.0,0.2577450973268252,0.15559402100547787,0.13734350183348523,,2017-07-11 16:20:51.253999949,2017-07-11 16:31:58.436000109,67,0.0,0,0
41,0.0,0.7085284806289881,0.33926744584589913,0.43500730424880446,,2017-07-11 16:32:11.439000130,2017-07-11 17:23:03.263999939,24,0.0,0,0
42,0.0,0.2152250031267175,0.18716599147532847,0.11957754235751941,,2017-07-11 17:58:18.839999914,2017-07-11 18:21:25.229000092,139,0.0,0,0
43,0.0,0.1566437448970207,0.03857637750500527,0.032813459718931536,,2017-07-11 20:29:04.306999922,2017-07-11 20:40:11.490999937,67,0.0,0,0
44,0.0,0.14217089813556127,0.022610640767353214,0.015786040451005554,,2017-07-11 22:25:51.202000141,2017-07-11 22:36:58.375999928,67,0.0,0,0
45,0.0,0.03953131162744577,0.0395250723555003,0.03953131162744577,,2017-07-11 22:37:13.380000114,2017-07-11 22:57:05.699000120,3,0.0,0,0
