,y_true,y_pred,y_pred_top_k,y_pred_top_percentage,label_id,timestamp_min,timestamp_max,nb,freq_temp,max_freq_pressure,min_freq_pressure
0,0.0,0.0021271334480025723,0.0003672911276044548,0.0002759575814084272,,2017-06-07 00:58:12.255000114,2017-06-07 01:09:19.440000057,67,0.0,0,0
1,0.0,0.0014348228001001917,0.001097906575594208,0.0010832716066283598,,2017-06-07 01:09:32.443000078,2017-06-07 03:57:12.169000149,43,0.0,0,0
2,0.0,0.002121614038356005,0.00028616475572620286,0.00020160481197951453,,2017-06-07 06:10:00.328999996,2017-06-07 06:21:07.506000042,67,0.0,0,0
3,0.0,0.0033408408133998105,0.0019393385778343063,0.0018795735070731554,,2017-06-07 06:30:38.651000023,2017-06-07 11:47:12.791000128,45,0.0,0,0
4,0.0,0.0020516816535755614,0.0009172951120890907,0.0007772706490021082,,2017-06-07 14:45:30.661000013,2017-06-07 14:56:37.844000101,67,0.0,0,0
5,0.0,0.004051791332247916,0.0027664717357043294,0.0027664717357043294,,2017-06-07 14:56:50.848000050,2017-06-07 18:14:14.044000149,41,0.0,0,0
6,0.0,0.002050801736596483,0.0005599372363641319,0.00046815472698418225,,2017-06-07 21:28:33.196000099,2017-06-07 21:39:40.380000114,67,0.0,0,0
7,0.0,0.0026170812430018203,0.0020861742647522085,0.001991383656586481,,2017-06-07 21:39:53.383000135,2017-06-07 23:40:35.332999945,46,0.0,0,0
8,0.0,0.0020287803598390557,0.0002477075513626321,0.00015815818126231024,,2017-06-08 03:04:33.666000128,2017-06-08 03:15:40.851000071,67,0.0,0,0
9,0.0,0.0018833582260778423,0.0012124407987508066,0.0014594133024089136,,2017-06-08 03:15:53.854000092,2017-06-08 04:47:10.355999947,20,0.0,0,0
10,0.0,0.002022989096080504,0.0005252995065170785,0.0004236602246866421,,2017-06-08 07:47:48.296999931,2017-06-08 07:58:55.477999926,67,0.0,0,0
11,0.0,0.0025551493172273824,0.001753720045644637,0.0012942270119722472,,2017-06-08 07:59:08.482000113,2017-06-08 16:56:27.223000050,100,0.0,0,0
12,0.0,0.002332402267299336,0.000572142053378337,0.0004371938421974504,,2017-06-10 05:50:18.253000021,2017-06-10 06:01:25.440000057,67,0.0,0,0
13,0.0,0.0012919331415176762,0.001029763744560595,0.0012919331415176762,,2017-06-10 06:01:38.444000006,2017-06-10 07:28:06.845000029,4,0.0,0,0
14,0.0,0.0002749666352695108,0.00023482358844394884,0.00021750078831896287,,2017-06-10 07:30:17.881000042,2017-06-10 07:41:25.062999964,67,0.0,0,0
15,0.0,0.00014433330967460756,0.00011944385400930638,0.00010765524065463589,,2017-06-10 09:19:28.669000149,2017-06-10 09:30:35.850000143,67,0.0,0,0
16,0.0,0.001541288423125884,0.0011060252267386435,0.0011901083702253277,,2017-06-10 09:33:03.891999960,2017-06-10 11:10:28.464999914,29,0.0,0,0
17,0.0,0.0020273788422280723,0.0003105451182630058,0.0002203436578714843,,2017-06-10 14:31:24.726999998,2017-06-10 14:42:31.911000013,67,0.0,0,0
18,0.0,0.0027155527980738904,0.0019730511524003293,0.0021715089666298217,,2017-06-10 14:51:09.052999973,2017-06-10 15:15:42.457999945,20,0.0,0,0
19,0.0,0.0021115715946425713,0.00040648876310468344,0.0003037284724144523,,2017-06-10 18:13:22.355999947,2017-06-10 18:24:29.542999983,67,0.0,0,0
20,0.0,0.0021705839149540425,0.001283651508578792,0.0014920582173767944,,2017-06-10 18:25:43.562999964,2017-06-10 19:30:56.627000093,23,0.0,0,0
21,0.0,0.0021240404480382326,0.0003877463381565318,0.0002954060455489499,,2017-06-10 21:39:39.719000101,2017-06-10 21:50:46.898000002,67,0.0,0,0
22,0.0,0.0034507949720091646,0.0019299740180886676,0.00259526230783441,,2017-06-10 21:50:59.901000023,2017-06-10 23:19:49.345000029,21,0.0,0,0
23,0.0,0.002299854265447835,0.0004638452898743212,0.0003659136740549319,,2017-06-11 02:21:40.306999922,2017-06-11 02:32:47.487999916,67,0.0,0,0
24,0.0,0.003336183476990268,0.0015703780794232875,0.0014016989804408553,,2017-06-11 02:33:00.490999937,2017-06-11 06:10:16.021000147,58,0.0,0,0
25,0.0,0.0020225887940162586,0.0005685026614897319,0.00046530311984274974,,2017-06-11 08:58:09.737999916,2017-06-11 09:09:16.921000004,67,0.0,0,0
26,0.0,0.0009582199185975345,0.0009075260325653465,0.000920070780765594,,2017-06-11 09:09:29.926000118,2017-06-11 13:45:35.407000065,28,0.0,0,0
27,0.0,0.002002365938652478,0.0002423523647659169,0.00015473446755046824,,2017-06-11 13:49:10.467000008,2017-06-11 14:00:17.646000147,67,0.0,0,0
28,0.0,0.0026014717434207557,0.001436031391640859,0.0020915380820931634,,2017-06-11 14:01:01.657999992,2017-06-11 14:55:10.545000076,14,0.0,0,0
29,0.0,0.03852402886269295,0.004286696456970041,0.0025633520951368915,,2017-06-11 16:53:25.476000071,2017-06-11 17:04:32.657999992,67,0.0,0,0
30,0.0,0.002552670489919121,0.0018056145413745833,0.0019728486106071535,,2017-06-11 17:07:39.710999966,2017-06-11 18:37:13.180999994,31,0.0,0,0
31,0.0,0.002108661442306452,0.00036698565570111115,0.00028037007652830865,,2017-06-11 20:24:16.914000034,2017-06-11 20:35:24.095000029,67,0.0,0,0
32,0.0,0.0009576844992488324,0.0009101153646235826,0.0009388793944257586,,2017-06-11 20:39:28.158999920,2017-06-11 21:03:48.552000046,6,0.0,0,0
33,0.0,0.0036030905611570564,0.0019509435609343744,0.0036030905611570564,,2017-06-11 22:17:56.763000011,2017-06-11 22:41:53.144999981,3,0.0,0,0
34,0.0,0.0009821610491631539,0.0008682644810276106,0.0008980122159873379,,2017-06-11 23:56:33.357000113,2017-06-12 02:21:04.684999943,26,0.0,0,0
35,0.0,0.0020184057215199575,0.0002763125389614267,0.00018685398274200052,,2017-06-12 03:47:47.101999998,2017-06-12 03:58:54.286000013,67,0.0,0,0
36,0.0,0.0028600072237954994,0.001392535125742128,0.0022458069272218296,,2017-06-12 04:01:53.334000111,2017-06-12 04:25:16.716000080,12,0.0,0,0
37,0.0,0.0020402547259479524,0.00026530709100958165,0.00018055472086206013,,2017-06-12 07:04:24.271000147,2017-06-12 07:15:31.457999945,67,0.0,0,0
38,0.0,0.0009664312937766147,0.0009172580850925604,0.0009567133230218395,,2017-06-12 07:15:44.460999966,2017-06-12 08:46:30.927999973,11,0.0,0,0
39,0.0,0.0020449059718506937,0.0005913797128984268,0.00048490455071419173,,2017-06-12 12:19:32.388999939,2017-06-12 12:30:39.559999943,67,0.0,0,0
40,0.0,0.0009678804890656425,0.0008699776960775514,0.0008972532050876987,,2017-06-12 13:19:45.365000010,2017-06-12 16:33:24.500999928,21,0.0,0,0
41,0.0,0.002478826783329818,0.0005617628359496972,0.00035336158783279465,,2017-06-12 21:34:04.360000134,2017-06-12 21:45:11.544000149,67,0.0,0,0
42,0.0,0.0011091182379550318,0.0009159567848763064,0.00100932339182765,,2017-06-12 21:50:35.634999990,2017-06-12 22:57:06.727999926,17,0.0,0,0
43,0.0,0.0020168550099474688,0.0002543921748522968,0.00017349010395034466,,2017-06-13 00:30:20.230000019,2017-06-13 00:41:27.407000065,67,0.0,0,0
44,0.0,0.0009106170907554954,0.0008510012534736639,0.0008829543877796201,,2017-06-13 01:06:21.811000109,2017-06-13 01:46:35.469000101,12,0.0,0,0
45,0.0,0.0021456778163196403,0.0003338828462224327,0.0002509052376178676,,2017-06-13 20:58:01.171000004,2017-06-13 21:09:08.355000019,67,0.0,0,0
46,1.0,1.0,0.10062182702609909,0.046001433695988726,2365487,2017-06-08 17:08:55.427000046,2017-06-09 13:16:43.097000122,424,0.0,0,0
47,1.0,0.002401736342030716,0.0005347544806419245,0.0004120618057541329,2365505,2017-06-09 13:20:47.164999962,2017-06-09 13:31:54.355000019,67,0.0,0,0
48,1.0,0.19655708075865494,0.020464650471078587,0.033519822126457946,2366745,2017-06-09 15:16:25.052000046,2017-06-10 02:33:59.055999994,293,0.0,0,0
