,y_true,y_pred,y_pred_top_k,y_pred_top_percentage,label_id,timestamp_min,timestamp_max,nb,freq_temp,max_freq_pressure,min_freq_pressure
0,0.0,0.006180630078232583,0.005546595742834619,0.004922971856352355,,2017-10-18 08:42:53.446000099,2017-10-18 09:06:00.831000090,139,0.0,0,0
1,0.0,0.06099430371090157,0.033072207506444136,0.04617567230049957,,2017-10-18 09:24:13.130000114,2017-10-18 10:09:07.871999979,18,0.0,0,0
2,0.0,0.2597675581388977,0.10361657426439985,0.04652376988406485,,2017-10-18 19:29:22.920000076,2017-10-18 19:52:29.305999994,139,0.0,0,0
3,0.0,0.05031099552616114,0.040714544928342415,0.04220166810002059,,2017-10-18 20:11:40.623000145,2017-10-18 23:08:04.512000083,36,0.0,0,0
4,0.0,0.003288463968847183,0.002483116228582523,0.0016510799015020568,,2017-10-19 12:56:00.952000141,2017-10-19 13:19:07.342000008,139,0.0,0,0
5,0.0,0.039213819514809914,0.030857810174665774,0.038979149171469524,,2017-10-19 13:32:32.559000015,2017-10-19 14:26:26.440000057,18,0.0,0,0
6,0.0,0.21791331355637292,0.029156092873093842,0.013953577024433603,,2017-10-19 16:34:04.515000105,2017-10-19 16:57:11.901000023,139,0.0,0,0
7,0.0,1.0,0.1449373436044504,0.08756516870631986,,2017-10-19 17:59:26.908999920,2017-10-19 18:10:34.095000029,67,0.0,0,0
8,0.0,0.06383484455375564,0.03947643365977889,0.05437075478921115,,2017-10-19 18:40:10.571000099,2017-10-19 19:24:46.296000004,19,0.0,0,0
9,0.0,0.22583689302073118,0.031187137757564216,0.012148039301556657,,2017-10-20 09:50:52.404999971,2017-10-20 10:13:59.792999983,139,0.0,0,0
10,0.0,0.05166430068599622,0.033030302532843656,0.038700697240646446,,2017-10-20 10:14:09.796000004,2017-10-20 11:20:58.887000084,25,0.0,0,0
11,0.0,0.21514882741172825,0.02384320819567065,0.008001084834784575,,2017-10-20 23:45:50.003999949,2017-10-21 00:08:56.391999960,139,0.0,0,0
12,0.0,0.09679013963619604,0.05784808311173369,0.08275158158766215,,2017-10-21 00:18:01.539000034,2017-10-21 00:57:06.180999994,18,0.0,0,0
13,0.0,0.016908061068804447,0.016261066797592753,0.013059178808345772,,2017-10-21 03:29:31.661999941,2017-10-21 03:52:38.048000097,139,0.0,0,0
14,0.0,0.13894371275496825,0.0756483898582285,0.0932749162610983,,2017-10-21 04:04:57.252000092,2017-10-21 04:52:59.041000128,20,0.0,0,0
15,0.0,0.21365600162572979,0.1107275189705362,0.06358904173850702,,2017-10-21 21:57:06.628000021,2017-10-21 22:20:14.012000084,139,0.0,0,0
16,0.0,0.05605333084502668,0.038183076558310505,0.05202377525281175,,2017-10-21 22:38:18.308000088,2017-10-21 23:16:39.939000130,19,0.0,0,0
17,0.0,0.21502518439418358,0.02972359321794201,0.013689632157858036,,2017-10-22 11:46:24.104000092,2017-10-22 12:09:30.486000061,139,0.0,0,0
18,0.0,0.21766905968834482,0.028230878875217247,0.019142081798312224,,2017-10-22 13:59:31.286999941,2017-10-22 14:10:38.467000008,67,0.0,0,0
19,0.0,0.07161810657150593,0.04705655726523134,0.060220542326417915,,2017-10-22 14:17:42.578999996,2017-10-22 15:14:00.493999958,20,0.0,0,0
20,0.0,0.21775148441475822,0.029558221112355947,0.013689095889045497,,2017-10-22 15:57:18.207000017,2017-10-22 16:20:24.597000122,139,0.0,0,0
21,0.0,0.054414773291549486,0.0456828647444673,0.049689490587325615,,2017-10-22 16:31:00.771000147,2017-10-22 17:14:59.480000019,22,0.0,0,0
22,0.0,0.21317461111485306,0.02980239802881441,0.014546008277562557,,2017-10-23 07:31:25.347000122,2017-10-23 07:54:31.736999989,139,0.0,0,0
23,0.0,0.06577074527121346,0.03837128923349108,0.0429699885587304,,2017-10-23 08:12:24.033999920,2017-10-23 09:57:09.730999947,23,0.0,0,0
24,0.0,0.22216666388497955,0.031540964249359524,0.015526899875463051,,2017-10-23 13:31:52.203999996,2017-10-23 13:54:58.588999987,139,0.0,0,0
25,0.0,0.016933939441307194,0.014886752542793582,0.013817441834198299,,2017-10-23 16:01:23.635999918,2017-10-23 16:12:30.815999985,67,0.0,0,0
26,0.0,0.059395331514044386,0.04403158690824428,0.04477451378104404,,2017-10-23 16:14:37.848999977,2017-10-23 19:04:47.605999947,37,0.0,0,0
27,0.0,0.23454173408325152,0.04204111787131281,0.024501374272455863,,2017-10-23 20:12:01.700000048,2017-10-23 20:35:08.085999966,139,0.0,0,0
28,0.0,0.05421049292049855,0.04181645384243024,0.04336931855507879,,2017-10-23 20:50:35.332000017,2017-10-23 22:52:29.292999983,32,0.0,0,0
29,0.0,0.22403894762739207,0.03685253276219015,0.020843187163989838,,2017-10-24 15:12:53.115999937,2017-10-24 15:35:59.490999937,139,0.0,0,0
30,0.0,0.054776839439789164,0.04195435346024624,0.04806967325520311,,2017-10-24 15:40:02.556999922,2017-10-24 16:55:06.782999992,21,0.0,0,0
