,y_true,y_pred,y_pred_top_k,y_pred_top_percentage,label_id,timestamp_min,timestamp_max,nb,freq_temp,max_freq_pressure,min_freq_pressure
0,0.0,0.7746886228646118,0.1930107834182843,0.13488453878215242,,2017-10-11 00:15:36.184999943,2017-10-11 00:38:42.577000141,139,0.0,0,0
1,0.0,0.16051034469182213,0.13375936703908914,0.14281985183078405,,2017-10-11 00:55:02.851000071,2017-10-11 01:35:20.513999938,20,0.0,0,0
2,0.0,1.0,0.38181838835043874,0.1996764975501827,,2017-10-11 02:29:37.388999939,2017-10-11 02:52:44.772000074,139,0.0,0,0
3,0.0,0.6013058930485912,0.25009344273064726,0.38120993545034504,,2017-10-11 03:02:47.937000036,2017-10-11 03:43:55.604000092,20,0.0,0,0
4,0.0,0.1688611035049159,0.16584198907115436,0.15418525261080943,,2017-10-11 04:43:25.572999954,2017-10-11 05:06:32.950999975,139,0.0,0,0
5,0.0,0.17143152593857308,0.15513668096124691,0.1639618606917171,,2017-10-11 05:07:48.970000029,2017-10-11 06:10:03.986000061,22,0.0,0,0
6,0.0,0.7830128219496043,0.21657783340416542,0.16887485894030427,,2017-10-12 02:13:04.552999973,2017-10-12 02:36:11.929000139,139,0.0,0,0
7,0.0,0.28858225037210433,0.17202100647578655,0.20377333750421378,,2017-10-12 02:49:06.137000084,2017-10-12 05:23:33.651999950,13,0.0,0,0
8,0.0,0.8352309964166115,0.2684331981534518,0.24154042108575122,,2017-10-12 07:55:19.101999998,2017-10-12 08:06:25.286000013,67,0.0,0,0
9,0.0,0.5445081679181337,0.3271915773917648,0.291402661785454,,2017-10-12 08:16:54.453000069,2017-10-12 13:41:49.726999998,70,0.0,0,0
10,0.0,0.8698928111422415,0.5934101318122635,0.3408652389009242,,2017-10-12 16:43:43.697999954,2017-10-12 17:06:51.088999987,139,0.0,0,0
11,0.0,0.5453536783203918,0.2710272347824372,0.38154271892477104,,2017-10-12 17:17:05.255000114,2017-10-12 18:26:21.381000042,16,0.0,0,0
12,0.0,0.9399935247423195,0.36853219691902356,0.3231690360252761,,2017-10-13 03:05:33.814000130,2017-10-13 03:28:40.197000027,139,0.0,0,0
13,0.0,0.2772677914809319,0.2591564228297644,0.2772370103523779,,2017-10-13 03:48:03.513000011,2017-10-13 09:19:40.898999929,10,0.0,0,0
14,0.0,0.8737109691930706,0.30269072266717745,0.27656237410850465,,2017-10-13 09:21:51.936000109,2017-10-13 09:32:59.115000010,67,0.0,0,0
15,0.0,0.2774379998195774,0.2774348996069887,0.2774368305430454,,2017-10-13 09:33:15.118999958,2017-10-13 10:13:51.779000044,20,0.0,0,0
16,0.0,0.9394338687376572,0.3696420531607551,0.3433956864878826,,2017-10-13 15:37:27.016000032,2017-10-13 15:48:34.196000099,67,0.0,0,0
17,0.0,0.8437843344473885,0.2731776293492388,0.24706889061652906,,2017-10-13 16:56:37.289999962,2017-10-13 17:07:43.476999998,67,0.0,0,0
18,0.0,0.48064182737317374,0.3018372124295804,0.31781110438984744,,2017-10-13 17:30:16.851000071,2017-10-13 18:49:31.125999928,22,0.0,0,0
19,0.0,0.8146462934379167,0.2493150304718253,0.19932247744162088,,2017-10-14 09:39:23.533999919,2017-10-14 10:02:30.916000128,139,0.0,0,0
20,0.0,0.19760320198318007,0.1784399502176676,0.18464732411028853,,2017-10-14 10:06:17.976000071,2017-10-14 10:51:57.719000101,25,0.0,0,0
21,0.0,0.18180205709932581,0.17818973990865636,0.17530716409811625,,2017-10-15 05:04:09.490000010,2017-10-15 05:27:16.874000072,139,0.0,0,0
22,0.0,0.14761340935461947,0.14594390778667343,0.14523770267261338,,2017-10-15 06:58:16.375999928,2017-10-15 07:09:23.565000057,67,0.0,0,0
23,0.0,0.17363441934622909,0.16364270510571052,0.16687807461431758,,2017-10-15 07:25:37.831000090,2017-10-15 08:12:54.602999926,20,0.0,0,0
24,0.0,0.7055934349721377,0.13577058452047397,0.08410548137517627,,2017-10-15 16:06:26.291000128,2017-10-15 16:29:32.671000004,139,0.0,0,0
25,0.0,0.10160761517652014,0.09404960478688522,0.09182597147769805,,2017-10-15 18:20:05.470999956,2017-10-15 18:31:12.657000065,67,0.0,0,0
26,0.0,0.6691007106459522,0.23480606582552185,0.27408688459245495,,2017-10-15 18:59:01.101999998,2017-10-15 20:01:12.114000082,22,0.0,0,0
27,0.0,0.18479053849711977,0.1831472163492403,0.1799688383211592,,2017-10-15 20:29:56.585000038,2017-10-15 20:53:02.973999977,138,0.0,0,0
28,0.0,0.28881322145364346,0.19853305900520454,0.2265952926596549,,2017-10-15 21:08:44.227999926,2017-10-15 22:09:45.223999977,18,0.0,0,0
29,0.0,0.19290804133392353,0.18497391063252616,0.1800084816089581,,2017-10-16 12:42:09.417000055,2017-10-16 13:05:15.806999922,138,0.0,0,0
30,0.0,0.7791971591306595,0.2105367771538738,0.1833654998967711,,2017-10-16 15:17:39.966000080,2017-10-16 15:28:47.156000137,67,0.0,0,0
31,0.0,0.6931564575697535,0.28440093531241967,0.4508185760277616,,2017-10-16 15:34:22.245000124,2017-10-16 16:25:16.074000120,18,0.0,0,0
32,0.0,0.7322214003586028,0.17097947115131537,0.12456691824113754,,2017-10-17 05:50:04.213999987,2017-10-17 06:13:11.602999926,139,0.0,0,0
33,0.0,0.16928716744384706,0.14985020428859155,0.15611923720898777,,2017-10-17 06:24:41.796000004,2017-10-17 07:20:00.694999933,20,0.0,0,0
34,0.0,0.768148228674895,0.19583574137935247,0.14669807050549005,,2017-10-17 21:31:32.539000034,2017-10-17 21:54:38.923000097,138,0.0,0,0
35,0.0,0.16034002427934127,0.13483042593564468,0.15359550686206103,,2017-10-17 21:58:14.980000019,2017-10-17 22:45:38.756999969,18,0.0,0,0
