,y_true,y_pred,y_pred_top_k,y_pred_top_percentage,label_id,timestamp_min,timestamp_max,nb,freq_temp,max_freq_pressure,min_freq_pressure
0,0.0,0.9867931198956895,0.22544216335211842,0.19324201133681063,,2018-10-12 02:16:36.795000076,2018-10-12 02:27:03.964999914,63,0,0,0
1,0.0,0.005253053275588527,0.0016367606451403508,0.003230455297495628,,2018-10-12 02:29:25.003999949,2018-10-12 02:50:43.345999956,7,0,0,0
2,0.0,0.14153864943654035,0.14073557745327464,0.14000687452161667,,2018-10-12 06:34:53.933000088,2018-10-12 06:45:21.098000050,63,0,0,0
3,0.0,0.001128270043249969,0.0010211257203388419,0.001097578150416357,,2018-10-12 06:47:58.138000011,2018-10-12 07:12:39.539000034,8,0,0,0
4,0.0,0.14139743840806057,0.14045278575804127,0.14025894327965488,,2018-10-12 09:12:27.460999966,2018-10-12 09:22:53.627000093,62,0,0,0
5,0.0,0.001384568502766837,0.0011130264678718808,0.0013641235933899605,,2018-10-12 09:25:18.666000128,2018-10-12 09:45:58.999000072,7,0,0,0
6,0.0,0.9862126875445202,0.22489989108189964,0.1924735953181474,,2018-10-12 13:53:08.920000076,2018-10-12 14:03:36.088999987,63,0,0,0
7,0.0,0.004268748584064603,0.0014786444432514274,0.00271799803672298,,2018-10-12 14:05:55.125000,2018-10-12 14:36:36.602999926,8,0,0,0
8,0.0,1.0,0.22665939622703862,0.1936086783512777,,2018-10-12 18:17:49.118000031,2018-10-12 18:28:16.288000107,63,0,0,0
9,0.0,0.0013366396097582863,0.001152319758804227,0.0013130341832008228,,2018-10-12 18:31:23.337000132,2018-10-12 19:01:46.824000120,11,0,0,0
10,0.0,0.9849328524689824,0.22526501605830243,0.19338630314616662,,2018-10-12 23:07:04.746999979,2018-10-12 23:17:31.917000055,63,0,0,0
11,0.0,0.0017967867746677196,0.0013316436253973526,0.0015870568612053571,,2018-10-12 23:18:07.926000118,2018-10-12 23:43:39.332999945,14,0,0,0
12,0.0,0.9840338845981503,0.22504261485035726,0.19261513023927662,,2018-10-13 02:49:23.311000109,2018-10-13 02:59:50.480999947,63,0,0,0
13,0.0,0.0010985724011410068,0.0010442226529217295,0.0010944631792004981,,2018-10-13 03:02:17.519999981,2018-10-13 03:16:22.746000051,7,0,0,0
14,0.0,0.9837380832319044,0.22374990222465946,0.1918935789632383,,2018-10-13 06:03:07.411000013,2018-10-13 06:13:34.579999924,63,0,0,0
15,0.0,0.0013046562027087098,0.0010960457699278744,0.0012542322333008317,,2018-10-13 06:16:14.623000145,2018-10-13 07:00:09.321000099,10,0,0,0
16,0.0,0.9885465589677087,0.22595666609368031,0.19318823414509467,,2018-10-13 10:38:34.817000151,2018-10-13 10:49:01.985000134,63,0,0,0
17,0.0,0.0013667517883384868,0.0010207252217574398,0.0012702063148345587,,2018-10-13 10:51:30.026000023,2018-10-13 11:13:53.384999990,8,0,0,0
18,0.0,0.9847889449753596,0.2245380092628751,0.19248698000204895,,2018-10-13 14:07:50.170000076,2018-10-13 14:18:17.338999987,63,0,0,0
19,0.0,0.005761075788813047,0.002807723069222467,0.005022229982676813,,2018-10-13 14:20:36.377000093,2018-10-13 14:35:26.615000010,8,0,0,0
20,0.0,0.9863756564012556,0.22482072159459313,0.1927240441871647,,2018-10-13 18:27:42.324000120,2018-10-13 18:38:09.490000010,63,0,0,0
21,0.0,0.0015350208837486242,0.0013885322063574845,0.0013123890524647666,,2018-10-13 19:12:40.046000004,2018-10-14 00:31:46.130000114,76,0,0,0
22,0.0,0.9836305572394617,0.2251677666287019,0.19294387869164092,,2018-10-14 05:56:09.308000088,2018-10-14 06:06:36.475000143,63,0,0,0
23,0.0,0.0014540080164505275,0.0011940071083970827,0.0012115269164636297,,2018-10-14 06:06:49.479000092,2018-10-14 07:33:51.878999949,33,0,0,0
24,0.0,0.14244848907356547,0.14126339189865683,0.14090803713743447,,2018-10-14 11:14:25.417999983,2018-10-14 11:24:52.588999987,63,0,0,0
25,0.0,0.0013133271581531728,0.0010236666133044117,0.0012124558717969683,,2018-10-14 11:27:19.628000021,2018-10-14 12:01:56.190000057,9,0,0,0
26,0.0,0.14075618620814231,0.13988848083296584,0.13972961895162403,,2018-10-14 15:26:50.513999938,2018-10-14 15:37:16.680000067,62,0,0,0
27,0.0,0.0011749577004629079,0.001016929525290213,0.0011640894865788832,,2018-10-14 15:39:35.717000008,2018-10-14 16:45:49.789000034,9,0,0,0
28,0.0,0.14144461979386497,0.14047343974336446,0.13964520064695302,,2018-10-14 19:37:16.552999973,2018-10-14 19:47:43.726000071,63,0,0,0
29,0.0,0.0014324413136105297,0.0012828681962754028,0.0013171476163896729,,2018-10-14 20:14:23.148999929,2018-10-14 21:32:00.404000044,26,0,0,0
30,0.0,0.9822350321338876,0.22492972072025652,0.16806427972208482,,2018-10-14 22:21:43.197999954,2018-10-14 22:41:19.519000052,118,0,0,0
31,0.0,0.012198962095466512,0.0024570480069045645,0.005112055348368804,,2018-10-14 23:12:03.023000002,2018-10-15 00:13:47.010999918,12,0,0,0
32,0.0,0.9924127741803661,0.2254816061920383,0.1933135279549006,,2018-10-15 01:51:32.588000059,2018-10-15 02:01:59.756000042,63,0,0,0
33,0.0,0.001738049885225809,0.0014340055491282734,0.0013627332635512532,,2018-10-15 02:04:17.794000149,2018-10-15 04:50:48.452000141,85,0,0,0
34,0.0,0.9837189520797834,0.2257573365584181,0.16830261084503428,,2018-10-15 05:29:12.072999954,2018-10-15 05:48:48.394999981,118,0,0,0
35,0.0,0.14207470525894042,0.14113323060173938,0.14047701143328853,,2018-10-16 05:53:31.525000095,2018-10-16 06:03:57.694000006,62,0,0,0
36,0.0,0.001600702674461568,0.0011523712326750864,0.0013573457749217652,,2018-10-16 06:46:46.378000021,2018-10-16 07:34:06.141000032,19,0,0,0
37,0.0,0.9892794682799407,0.22872583411159483,0.17151173631576316,,2018-10-16 10:59:29.419000149,2018-10-16 11:19:05.742000103,117,0,0,0
38,0.0,0.002362107528019092,0.0012165723935318906,0.001391697028282819,,2018-10-16 11:21:16.776999950,2018-10-16 12:03:54.463999987,22,0,0,0
39,0.0,0.9872997070406317,0.22724325126542427,0.17043546814814003,,2018-10-17 04:05:27.868000031,2018-10-17 04:25:04.196000099,118,0,0,0
40,0.0,0.0022653080609960027,0.0018476116131438507,0.001926400424364226,,2018-10-17 04:27:33.236000061,2018-10-17 05:11:38.947999954,23,0,0,0
41,0.0,0.14705340603204192,0.14463400108758867,0.14348845907564375,,2018-10-17 18:12:35.407999992,2018-10-17 18:32:11.727999926,117,0,0,0
42,0.0,0.986739286260592,0.22553251429708165,0.1935943185344248,,2018-10-17 19:39:23.799000025,2018-10-17 19:49:50.970999956,63,0,0,0
43,0.0,0.003475022432399167,0.0025103650525202395,0.002638192795362667,,2018-10-17 19:52:10.006999969,2018-10-17 21:43:45.789999962,31,0,0,0
44,0.0,0.983105218503135,0.2272235557477862,0.18251664861944056,,2018-10-18 13:40:37.148999929,2018-10-18 14:00:13.476000071,83,0,0,0
45,0.0,0.0026209534018201168,0.002364806742289204,0.002396537058352832,,2018-10-18 14:03:13.523999929,2018-10-18 15:10:09.597000122,31,0,0,0
