,y_true,y_pred,y_pred_top_k,y_pred_top_percentage,label_id,timestamp_min,timestamp_max,nb,freq_temp,max_freq_pressure,min_freq_pressure
0,0.0,0.7221412676757074,0.6959605390185662,0.6924698801951691,,2018-11-09 03:32:21.844000101,2018-11-09 03:51:58.171000004,118,0,0,0
1,0.0,0.002575700431997679,0.0016713112578764329,0.0022413178772501723,,2018-11-09 03:54:07.207000017,2018-11-09 04:43:51.013999939,8,0,0,0
2,0.0,0.7262792937267226,0.6966045037490809,0.6917702179879193,,2018-11-09 09:00:20.167000055,2018-11-09 09:19:56.492000103,118,0,0,0
3,0.0,0.0057825915252357075,0.002926873398060553,0.004034027842295999,,2018-11-09 09:22:36.535000086,2018-11-09 10:39:04.765000105,15,0,0,0
4,0.0,0.7200058142948255,0.7061875773708586,0.6940850094438902,,2018-11-09 14:07:03.123000145,2018-11-09 14:26:39.453000069,118,0,0,0
5,0.0,0.006866900906653064,0.001770362354802549,0.004488896678661921,,2018-11-09 14:28:48.483000040,2018-11-09 15:03:39.051000118,9,0,0,0
6,0.0,0.7292124846829222,0.6939857247461534,0.6895460867261821,,2018-11-09 15:49:56.805000067,2018-11-09 16:09:33.127000093,118,0,0,0
7,0.0,0.002220646372467875,0.001913761175813411,0.0021394476830134904,,2018-11-09 16:17:03.248000145,2018-11-09 16:48:01.753999949,11,0,0,0
8,0.0,0.8174379081694457,0.7642319759614222,0.738554410669181,,2018-11-09 18:10:41.091000080,2018-11-09 18:30:17.416000128,118,0,0,0
9,0.0,0.0019155896829420537,0.001343666054054268,0.0018857914758601915,,2018-11-09 18:37:54.538000107,2018-11-09 19:05:03.986000061,7,0,0,0
10,0.0,0.7766472799403378,0.7586433079408502,0.7382765323418069,,2018-11-09 20:05:32.976999998,2018-11-09 20:25:09.306999922,118,0,0,0
11,0.0,0.005959476742471721,0.002527355419037658,0.0029520098333047505,,2018-11-09 20:33:57.452000141,2018-11-09 22:28:39.301000118,24,0,0,0
12,0.0,0.7230269469468941,0.7103326534900387,0.7061145762942005,,2018-11-10 03:45:32.449000120,2018-11-10 03:55:59.621000051,63,0,0,0
13,0.0,0.0052155173204263645,0.0025892921913781867,0.002926344619039042,,2018-11-10 03:59:23.674999952,2018-11-10 12:59:16.452000141,22,0,0,0
14,0.0,0.7249937410395527,0.6941189427408714,0.691900817517181,,2018-11-10 13:01:27.486999989,2018-11-10 13:11:54.656000137,63,0,0,0
15,0.0,0.002629241417723692,0.0020683599175509914,0.0022458667535839322,,2018-11-10 13:13:41.684000015,2018-11-10 14:54:51.335000038,21,0,0,0
16,0.0,0.7255649491554164,0.6985844853064431,0.6926350011428953,,2018-11-10 21:34:10.811000109,2018-11-10 21:53:47.138999939,118,0,0,0
17,0.0,0.0026423738773515945,0.002191696929254891,0.0023283266420737426,,2018-11-10 22:08:07.368999958,2018-11-11 00:00:11.190000057,23,0,0,0
18,0.0,0.7884900072902493,0.7791845849302153,0.729724820783775,,2018-11-11 06:39:25.653000116,2018-11-11 06:59:01.976000071,117,0,0,0
19,0.0,0.04456035924943369,0.025821881673810616,0.02247097305775297,,2018-11-11 07:02:14.029000044,2018-11-11 10:05:47.990999937,46,0,0,0
20,0.0,1.0,0.8967652450164504,0.7790646954406202,,2018-11-11 15:00:45.785000086,2018-11-11 15:20:22.112999916,115,0,0,0
21,0.0,0.03708048170029459,0.011381018838452477,0.01010654084651192,,2018-11-11 15:27:53.236000061,2018-11-11 18:18:57.021000147,47,0,0,0
22,0.0,0.814356413970168,0.8002227869056636,0.7820544499502291,,2018-11-12 01:49:38.348000050,2018-11-12 02:09:14.674000025,117,0,0,0
23,0.0,0.005239831727080017,0.004522000810057542,0.004155929123557513,,2018-11-12 02:17:53.814000130,2018-11-12 05:56:36.365999937,63,0,0,0
24,0.0,0.8717521423125261,0.8016837332692983,0.7679969104508714,,2018-11-12 13:54:43.120000124,2018-11-12 14:14:19.450000048,118,0,0,0
25,0.0,0.006222393102624232,0.00450440724928264,0.004975669968080581,,2018-11-12 14:16:27.485000134,2018-11-12 15:43:21.901000023,31,0,0,0
26,0.0,0.008639032236647587,0.004506466154161201,0.004075853302700057,,2018-11-12 16:19:07.483000040,2018-11-12 18:18:18.443000078,51,0,0,0
27,0.0,0.9874765189620848,0.9859149747712028,0.9237842767263452,,2018-11-13 02:53:53.832000017,2018-11-13 03:13:30.157000065,118,0,0,0
28,0.0,0.006757115283059033,0.005748682726657397,0.005433036544542132,,2018-11-13 03:22:22.299999952,2018-11-13 05:42:23.587000132,51,0,0,0
29,0.0,0.7217832708370585,0.6926519765271724,0.6887212870658616,,2018-11-13 14:07:51.781000137,2018-11-13 14:27:28.107000113,117,0,0,0
30,0.0,0.9859329332376549,0.9830853313696496,0.9663945862833884,,2018-11-13 16:16:51.875999928,2018-11-13 16:27:19.049999952,63,0,0,0
31,0.0,0.007669244698420377,0.0031318849394524457,0.0033634801059819162,,2018-11-13 16:29:42.088999987,2018-11-13 18:14:12.782000065,30,0,0,0
32,0.0,0.9944385419544434,0.9923493381020168,0.9185556508769284,,2018-11-13 22:58:37.423000097,2018-11-13 23:18:13.750999928,117,0,0,0
33,0.0,0.7363477300895149,0.6996469713750423,0.6969538882552528,,2018-11-14 00:35:07.990999937,2018-11-14 00:45:35.161000013,63,0,0,0
34,0.0,0.004100356788167648,0.0029043913319038305,0.0030562244110770623,,2018-11-14 00:45:48.164000034,2018-11-14 04:00:59.358999968,32,0,0,0
35,0.0,0.694320401300577,0.6901144365812668,0.6894513167007115,,2018-11-14 04:03:10.393000126,2018-11-14 04:13:37.568000078,63,0,0,0
36,0.0,0.698380396788141,0.6924363881365728,0.6909489881724316,,2018-11-14 05:18:58.634000063,2018-11-14 05:29:25.808000088,63,0,0,0
37,0.0,0.6994747908693131,0.6964224017814855,0.6952005836239753,,2018-11-14 07:32:59.809000015,2018-11-14 07:43:25.980000019,62,0,0,0
38,0.0,0.7372591543274042,0.6975154780983372,0.6949336261448618,,2018-11-14 08:52:48.121999979,2018-11-14 09:03:15.296000004,63,0,0,0
39,0.0,0.9181634490253051,0.9153368254725922,0.9134708894263617,,2018-11-14 13:18:10.400000095,2018-11-14 13:28:37.569000006,63,0,0,0
40,0.0,0.006260348758961211,0.004524669796524541,0.00441629172590206,,2018-11-14 13:28:50.572999954,2018-11-14 15:30:29.556999922,44,0,0,0
41,0.0,0.7271493136130871,0.698048845697681,0.6929178724974147,,2018-11-14 22:27:03.294000149,2018-11-14 22:46:39.618000031,118,0,0,0
42,0.0,0.007957936185147512,0.006855176759884747,0.007143114173121417,,2018-11-14 22:48:47.654000044,2018-11-15 01:14:55.026999950,29,0,0,0
43,0.0,0.7276826750920542,0.6943000121898436,0.6897097790708542,,2018-11-15 09:30:24.088000059,2018-11-15 09:50:00.414999962,118,0,0,0
44,0.0,0.7258131738814103,0.693428076608013,0.6914803288950835,,2018-11-15 11:15:35.809999943,2018-11-15 11:26:02.976000071,63,0,0,0
45,0.0,0.9339646940992082,0.9235358067866661,0.9167677509905443,,2018-11-15 12:58:36.470000029,2018-11-15 13:09:02.644000053,62,0,0,0
46,0.0,0.7731964019700509,0.7599879399640707,0.7533441466484494,,2018-11-15 14:17:55.756000042,2018-11-15 14:28:22.926000118,63,0,0,0
47,0.0,0.002439825020092462,0.0023019149680900855,0.002439825020092462,,2018-11-15 14:52:59.328999996,2018-11-15 16:13:02.631999969,3,0,0,0
48,0.0,0.7299998754470206,0.6928746085898154,0.690908297877736,,2018-11-15 16:15:13.669000149,2018-11-15 16:25:40.842000008,61,0,0,0
49,0.0,0.0029751304835691802,0.0023335645899335918,0.002360823316724395,,2018-11-15 16:25:53.845999956,2018-11-15 18:20:56.713999987,35,0,0,0
