,y_true,y_pred,y_pred_top_k,y_pred_top_percentage,label_id,timestamp_min,timestamp_max,nb,freq_temp,max_freq_pressure,min_freq_pressure
0,0.0,0.2516046138935359,0.20879471236778588,0.14313577886561635,,2018-11-23 02:58:10.829999924,2018-11-23 03:17:47.153000116,118,0,0,0
1,0.0,0.14737451005608143,0.07658961529707513,0.062099047453990766,,2018-11-23 05:38:57.453999996,2018-11-23 05:49:24.620000124,62,0,0,0
2,0.0,0.137397114100637,0.023339356934562534,0.033729790814105966,,2018-11-23 05:49:37.627000093,2018-11-23 08:14:59.990000010,24,0,0,0
3,0.0,0.06329986596351427,0.024466236284213495,0.012871500029910929,,2018-11-23 17:08:44.667000055,2018-11-23 17:28:20.993999958,117,0,0,0
4,0.0,0.17845844099017882,0.06729756191863848,0.09163614601189356,,2018-11-23 17:30:30.029000044,2018-11-23 18:59:36.475000143,29,0,0,0
5,0.0,0.07880728310681362,0.023597736020665103,0.017394260290294797,,2018-11-24 05:45:45.025000095,2018-11-24 06:05:21.354000092,118,0,0,0
6,0.0,0.003991482359575677,0.003991482359575677,0.003991482359575677,,2018-11-24 06:07:44.394000053,2018-11-24 07:38:57.875999928,1,0,0,0
7,0.0,0.23689596284541914,0.1722370608517338,0.11153467393655156,,2018-11-24 07:41:08.913000107,2018-11-24 07:51:35.085000038,63,0,0,0
8,0.0,0.20714736533449332,0.12733073857213956,0.10436287868897706,,2018-11-24 07:53:29.115000010,2018-11-24 10:36:16.782999992,52,0,0,0
9,0.0,0.333194084764967,0.24584464168946543,0.16581623748452642,,2018-11-24 11:11:27.358999968,2018-11-24 11:31:03.687999964,117,0,0,0
10,0.0,0.21214180135590952,0.04845628306602675,0.0762434111445381,,2018-11-24 11:33:16.726000071,2018-11-24 12:48:58.964999914,26,0,0,0
11,0.0,0.06638948284076063,0.01855025984205421,0.013909772026470844,,2018-11-24 21:54:04.828000069,2018-11-24 22:13:41.157000065,118,0,0,0
12,0.0,0.22097711108700635,0.05200146072618374,0.07972704182076816,,2018-11-24 22:20:56.273000002,2018-11-24 23:31:31.411000013,22,0,0,0
13,0.0,0.11973668597319949,0.045820186936279136,0.026795485630794164,,2018-11-25 08:25:55.115000010,2018-11-25 08:45:31.442000151,118,0,0,0
14,0.0,0.03053172599970741,0.015521612331017029,0.020910590057598533,,2018-11-25 08:47:43.476000071,2018-11-25 10:07:46.769999981,21,0,0,0
15,0.0,0.06444261880451786,0.016921697157709584,0.01068737374879321,,2018-11-25 20:48:07.236000061,2018-11-25 21:07:43.562999964,118,0,0,0
16,0.0,0.06377586085875518,0.019150442312803207,0.015945989710373087,,2018-11-25 23:06:14.493000031,2018-11-25 23:16:41.664000034,63,0,0,0
17,0.0,1.0,0.27648718113279597,0.431214120983831,,2018-11-25 23:23:20.776000023,2018-11-26 00:30:26.896000147,23,0,0,0
18,0.0,0.06847693498246225,0.016531027891140016,0.011871608751371271,,2018-11-26 07:19:29.592000008,2018-11-26 07:39:05.917000055,117,0,0,0
19,0.0,0.2629999366604121,0.22748024125492955,0.14703533990914086,,2018-11-26 13:57:19.092000008,2018-11-26 14:07:45.266999959,63,0,0,0
20,0.0,0.19635382024095024,0.041544321815117066,0.06602061423148943,,2018-11-26 14:29:57.618999958,2018-11-26 16:20:03.400000095,24,0,0,0
21,0.0,0.06362606848032064,0.010435870460943804,0.00545428465623453,,2018-11-26 19:57:58.929000139,2018-11-26 20:17:35.250999927,118,0,0,0
22,0.0,0.17678263142658643,0.03667669622236756,0.0579862159066388,,2018-11-26 20:19:50.289999962,2018-11-26 21:42:45.631999969,24,0,0,0
23,0.0,0.06375890136434667,0.009468349789130928,0.004232965455383097,,2018-11-27 07:30:33.148999929,2018-11-27 07:50:09.477999926,118,0,0,0
24,0.0,0.2248728902988079,0.06036877080976827,0.2248728902988079,,2018-11-27 07:58:43.618000031,2018-11-27 08:37:13.245000124,4,0,0,0
25,0.0,0.004755897324476966,0.0047497724119115615,0.004755897324476966,,2018-11-27 10:00:09.585000038,2018-11-27 10:04:15.651999950,2,0,0,0
26,0.0,0.0048415408250879,0.0046557954053187845,0.004795942991995396,,2018-11-27 10:50:29.404999971,2018-11-27 11:19:10.875000,7,0,0,0
27,0.0,0.010481799376314944,0.005922131167439515,0.004283036550044954,,2018-11-27 19:29:41.857000113,2018-11-27 19:49:18.181999922,118,0,0,0
28,0.0,0.016208878950808622,0.006105159841233823,0.005989255034264698,,2018-11-27 19:52:18.230999947,2018-11-27 22:26:53.746999979,44,0,0,0
29,0.0,0.06399998091418484,0.01675232857694295,0.008588537036371191,,2018-11-28 07:14:36.286999941,2018-11-28 07:34:12.610000134,118,0,0,0
30,0.0,0.22575798533283542,0.04919664934679416,0.07877704463140155,,2018-11-28 07:37:56.671000004,2018-11-28 09:14:01.226000071,23,0,0,0
31,0.0,0.24334334578600503,0.2080830498736089,0.15244159745610175,,2018-11-28 18:37:00.355000019,2018-11-28 18:56:36.683000088,115,0,0,0
32,0.0,0.24146072317948383,0.10922332191470152,0.1307223586939758,,2018-11-28 19:17:27.026000023,2018-11-28 21:26:16.125999928,31,0,0,0
33,0.0,0.2500134436249684,0.20908118370795545,0.14431579482734364,,2018-11-28 22:53:19.559000015,2018-11-28 23:12:55.885999918,117,0,0,0
34,0.0,0.0032895873124631813,0.003113545205962778,0.0031389069421830945,,2018-11-28 23:15:05.921999931,2018-11-29 00:47:48.417000055,31,0,0,0
35,0.0,0.06490638308532275,0.017860912819005346,0.012882946048594208,,2018-11-29 16:58:22.150000095,2018-11-29 17:17:58.473999977,118,0,0,0
36,0.0,0.21151279859713681,0.07622096874166641,0.07622096874166641,,2018-11-29 17:20:10.513000011,2018-11-29 19:42:32.806999922,38,0,0,0
