,y_true,y_pred,y_pred_top_k,y_pred_top_percentage,label_id,timestamp_min,timestamp_max,nb,freq_temp,max_freq_pressure,min_freq_pressure
0,0.0,0.021680446364422047,0.020094849321110643,0.019053802534642537,,2018-06-08 02:25:28.628999949,2018-06-08 02:36:34.809000015,66,0,0,0
1,0.0,0.0201268216897518,0.017644491250088108,0.0201268216897518,,2018-06-08 03:07:24.309000015,2018-06-08 04:47:04.898000002,2,0,0,0
2,0.0,0.2504534102522202,0.04446833893893409,0.034093499327301276,,2018-06-08 04:49:15.934000015,2018-06-08 05:00:22.112999916,67,0,0,0
3,0.0,0.07285484106008179,0.05382509137488219,0.06186407749692291,,2018-06-08 05:00:35.115999937,2018-06-08 06:19:01.375999928,23,0,0,0
4,0.0,0.02454922354899678,0.018926267482383574,0.015262027749498006,,2018-06-08 09:26:07.380000114,2018-06-08 09:47:13.733999968,126,0,0,0
5,0.0,0.2456106497524641,0.05583989190722527,0.032089964925795675,,2018-06-08 17:37:47.294000149,2018-06-08 17:58:53.641999960,127,0,0,0
6,0.0,0.1271731933567456,0.05956366263188778,0.07022250064486162,,2018-06-08 18:11:08.835999966,2018-06-08 19:58:48.568000078,28,0,0,0
7,0.0,0.24426866728238694,0.04123952813674679,0.02019453862738562,,2018-06-09 10:00:13.022000074,2018-06-09 10:21:19.370000124,127,0,0,0
8,0.0,0.24140672649019418,0.03519031280949987,0.02279925326067218,,2018-06-09 11:42:56.690999985,2018-06-09 11:54:03.871999979,67,0,0,0
9,0.0,0.050459283532636554,0.038560328187808905,0.04220336155741737,,2018-06-09 11:54:15.875999928,2018-06-09 13:02:10.946000099,29,0,0,0
10,0.0,0.2470443995731628,0.038081253517046165,0.01922029157167953,,2018-06-10 04:17:24.650000095,2018-06-10 04:38:30.990000010,126,0,0,0
11,0.0,0.059115764222187554,0.03413735934075539,0.040798474540532315,,2018-06-10 04:46:09.115000010,2018-06-10 05:39:22.973999977,23,0,0,0
12,0.0,0.038668895450272876,0.034001674564246576,0.02993815169429386,,2018-06-10 19:51:12.634999990,2018-06-10 20:12:18.975000143,126,0,0,0
13,0.0,0.07929120950526015,0.05094382837158248,0.058871385941741065,,2018-06-10 20:20:23.102999926,2018-06-10 21:10:43.904000044,24,0,0,0
14,0.0,0.24781083257661288,0.03989894226977123,0.020368013477340508,,2018-06-11 12:14:26.447999954,2018-06-11 12:35:32.799000025,126,0,0,0
15,0.0,0.07371598553132754,0.04252208335566725,0.03837068966880725,,2018-06-11 12:44:42.947000027,2018-06-11 15:14:45.385999918,56,0,0,0
16,0.0,0.03562489343842429,0.027767705947008635,0.014777372793931192,,2018-06-11 22:00:29.884000063,2018-06-11 22:21:36.236999989,127,0,0,0
17,0.0,0.0711267081272359,0.04623760243873845,0.050800132025481275,,2018-06-11 22:35:35.464999914,2018-06-11 23:15:04.107000113,24,0,0,0
18,0.0,0.24865499428456422,0.06089387825909827,0.03799008563955923,,2018-06-12 04:31:14.171999931,2018-06-12 04:52:20.523999929,127,0,0,0
19,0.0,0.025000166272100166,0.023163001683695957,0.025000166272100166,,2018-06-12 05:00:13.653000116,2018-06-12 05:46:53.411000013,2,0,0,0
20,0.0,0.24514598170976615,0.05125550526433641,0.026547527949433037,,2018-06-12 16:34:30.772000074,2018-06-12 16:55:37.120000124,127,0,0,0
21,0.0,0.24443492744423986,0.04489293557651032,0.03453773457977083,,2018-06-12 18:25:57.571000099,2018-06-12 18:37:04.752000093,67,0,0,0
22,0.0,0.25690207022005385,0.0426974563441395,0.032132040660238906,,2018-06-12 19:55:34.008000135,2018-06-12 20:06:40.190999985,67,0,0,0
23,0.0,0.24758159726777962,0.05845740430404216,0.04582059092299914,,2018-06-12 21:48:59.839999914,2018-06-12 22:00:07.018000126,67,0,0,0
24,0.0,0.030580675966658692,0.022079748020795466,0.030580675966658692,,2018-06-12 22:00:20.021000147,2018-06-12 23:26:53.416000128,5,0,0,0
25,0.0,0.24083972937451867,0.06231505918494742,0.049737861241257605,,2018-06-13 02:50:45.689000130,2018-06-13 03:01:52.867000103,67,0,0,0
26,0.0,0.02540674694616728,0.018462022848551314,0.021199904760338943,,2018-06-13 03:15:06.078000069,2018-06-13 05:19:16.069999933,14,0,0,0
27,0.0,0.2500015753653072,0.061989194432476226,0.04888137905888147,,2018-06-13 06:39:13.345999956,2018-06-13 06:50:20.528000115,67,0,0,0
28,0.0,0.017759827266084455,0.01748927316853293,0.017759827266084455,,2018-06-13 06:52:36.565999985,2018-06-13 07:22:38.046999931,2,0,0,0
29,0.0,0.017883317168242437,0.01725910224557351,0.017761664103058968,,2018-06-13 07:43:43.380000114,2018-06-13 08:00:14.644000053,6,0,0,0
30,0.0,0.24359684341846044,0.0512123073349419,0.03488431700538818,,2018-06-13 10:18:02.858000040,2018-06-13 10:29:10.036999941,67,0,0,0
31,0.0,0.06984216621495477,0.040979980031570044,0.04641646751976009,,2018-06-13 10:47:23.329999924,2018-06-13 13:53:45.335000038,25,0,0,0
32,0.0,0.3438496383109068,0.12860988997399972,0.06815211599447095,,2018-06-13 15:36:23.996999979,2018-06-13 15:57:30.339999914,127,0,0,0
33,0.0,0.048687010651155375,0.03718635035844205,0.040484758753638016,,2018-06-13 16:02:35.419000149,2018-06-13 17:40:01.982000113,22,0,0,0
34,0.0,1.0,0.16768843994161345,0.5656432665949351,,2018-06-13 18:57:04.230999947,2018-06-13 19:16:49.545000076,9,0,0,0
35,0.0,0.02875142363687954,0.021296001723587317,0.02212772694679284,,2018-06-13 20:38:10.855999947,2018-06-13 22:34:37.736000061,30,0,0,0
36,0.0,0.018810553728960157,0.014615996304178702,0.01558276140290502,,2018-06-13 23:21:20.483000040,2018-06-14 00:07:52.232000113,24,0,0,0
37,0.0,0.23674463673335483,0.03525065070984497,0.02260066295739761,,2018-06-14 01:23:34.463999987,2018-06-14 01:34:41.644000053,67,0,0,0
38,0.0,0.02112871361543636,0.014236462429360868,0.017130377073076793,,2018-06-14 01:34:54.648000002,2018-06-14 03:29:19.472000122,12,0,0,0
39,0.0,0.02041742515346594,0.015837257257193073,0.013287576739326986,,2018-06-14 06:46:11.634000063,2018-06-14 06:57:17.815999985,66,0,0,0
40,0.0,0.01906644537352092,0.017433809071740126,0.01876713914753635,,2018-06-14 07:18:52.167000055,2018-06-14 08:27:20.259999990,12,0,0,0
41,0.0,0.2432548745146143,0.041766269985981055,0.029418434359563875,,2018-06-14 10:15:01.002000093,2018-06-14 10:26:07.184999943,67,0,0,0
42,0.0,0.028882315558434478,0.024553203742685166,0.0223745513892176,,2018-06-14 11:54:52.604000092,2018-06-14 12:05:58.781000137,66,0,0,0
43,0.0,0.017733367605922777,0.017286604441446276,0.017733367605922777,,2018-06-14 12:08:41.824000120,2018-06-14 14:01:34.650000095,2,0,0,0
44,0.0,0.24516836541478057,0.05886274795377665,0.04216028495606698,,2018-06-14 14:03:45.686000109,2018-06-14 14:14:52.865999937,67,0,0,0
45,0.0,0.0296118782555113,0.024490542753157103,0.025156242123921178,,2018-06-14 14:15:04.870000124,2018-06-14 16:38:02.157000065,33,0,0,0
46,0.0,0.029215266286923492,0.02667760393314091,0.02131310871611232,,2018-06-14 18:27:17.900000095,2018-06-14 18:48:24.249000072,127,0,0,0
47,0.0,0.025355994724418872,0.021356741226061824,0.02426735081635932,,2018-06-14 19:45:19.163000107,2018-06-14 20:57:00.317000151,11,0,0,0
48,0.0,0.2454039007629266,0.04601817058868094,0.02560979047332669,,2018-06-14 23:21:37.648999929,2018-06-14 23:42:44,127,0,0,0
