,y_true,y_pred,y_pred_top_k,y_pred_top_percentage,label_id,timestamp_min,timestamp_max,nb,freq_temp,max_freq_pressure,min_freq_pressure
0,0.0,0.23124423047941983,0.08596349255453165,0.062137946220622305,,2018-04-06 02:44:18.423000097,2018-04-06 02:55:24.605000019,66,0,0,0
1,0.0,0.17879942035082017,0.08561782434170118,0.15168282221646537,,2018-04-06 02:56:32.621999979,2018-04-06 06:35:38.134999990,13,0,0,0
2,0.0,0.2938753325657128,0.25481135000508504,0.2116789772676369,,2018-04-06 07:24:00.910000086,2018-04-06 07:35:07.094000101,67,0,0,0
3,0.0,0.2798342919493996,0.18391236701927055,0.1710551755727868,,2018-04-06 08:01:18.513000011,2018-04-06 10:18:13.723999977,43,0,0,0
4,0.0,0.10428088597625196,0.02578501979640877,0.02055764181856619,,2018-04-06 17:03:05.258000135,2018-04-06 17:14:11.442000151,67,0,0,0
5,0.0,0.027079796559548692,0.021606773165605886,0.027079796559548692,,2018-04-06 17:34:35.768000126,2018-04-06 20:30:46.608000040,4,0,0,0
6,0.0,0.10501486906202692,0.03049717387934157,0.026672840668044356,,2018-04-06 21:08:17.210999966,2018-04-06 21:19:24.398000002,67,0,0,0
7,0.0,0.02087462036517685,0.02029514959399513,0.02087462036517685,,2018-04-06 21:39:15.717000008,2018-04-06 22:23:07.427999973,2,0,0,0
8,0.0,0.019563053015975808,0.017042126038435086,0.016527143378131604,,2018-04-06 23:33:12.546999931,2018-04-06 23:44:18.730000019,66,0,0,0
9,0.0,0.01969451682744534,0.01951066995664951,0.01969451682744534,,2018-04-07 00:03:11.032999992,2018-04-07 00:27:51.430000067,2,0,0,0
10,0.0,0.10337708222416656,0.025710492773913362,0.021617290924706385,,2018-04-07 01:22:58.325999975,2018-04-07 01:34:04.506999969,67,0,0,0
11,0.0,0.01902574253996004,0.01902574253996004,0.01902574253996004,,2018-04-07 02:01:59.956000090,2018-04-07 02:11:32.107000113,1,0,0,0
12,0.0,0.021571125052500476,0.020184509297776865,0.019261015108387642,,2018-04-07 03:02:11.921999931,2018-04-07 03:13:18.104000092,67,0,0,0
13,0.0,0.018753775588365156,0.018753775588365156,0.018753775588365156,,2018-04-07 03:37:02.482000113,2018-04-07 03:48:52.674999952,1,0,0,0
14,0.0,0.023855807822357983,0.01821187596112548,0.016456164986317676,,2018-04-07 14:05:33.591000080,2018-04-07 14:16:39.773999929,66,0,0,0
15,0.0,0.02122722066634432,0.014628370608973726,0.012572576229503982,,2018-04-07 14:16:52.776999950,2018-04-07 20:20:47.669000149,79,0,0,0
16,0.0,0.9745614094504642,0.5524186619500329,0.3307094432499341,,2018-04-07 20:22:58.703999996,2018-04-07 20:34:05.893000126,67,0,0,0
17,0.0,1.0,0.8170365306222687,0.28798829265208414,,2018-04-07 20:34:18.896000147,2018-04-08 01:04:20.249000072,126,0,0,0
18,0.0,0.7843877652334812,0.7267058945062551,0.6696182528173085,,2018-04-08 01:06:31.286000013,2018-04-08 01:17:37.469000101,67,0,0,0
19,0.0,0.8535506714817173,0.2907885067649754,0.8535506714817173,,2018-04-08 01:17:50.472000122,2018-04-08 02:30:05.640000105,3,0,0,0
20,0.0,0.998362639148862,0.852418628341059,0.3416378034829757,,2018-04-08 03:26:46.551000118,2018-04-08 03:47:52.890000105,126,0,0,0
21,0.0,0.09459264998251773,0.017815584284578582,0.012828478331746565,,2018-04-08 05:17:29.334000111,2018-04-08 05:28:35.518000126,67,0,0,0
22,0.0,0.8169232210718633,0.09704714924108489,0.22114280960641416,,2018-04-08 05:28:48.521000146,2018-04-08 06:11:36.223000050,18,0,0,0
23,0.0,0.09307457697471723,0.01586278726300632,0.010030344567693727,,2018-04-08 07:26:13.427000046,2018-04-08 07:37:20.611000061,67,0,0,0
24,0.0,0.015778598881470558,0.00952674450518601,0.014894827017400417,,2018-04-08 08:08:20.121000051,2018-04-08 08:33:32.526000023,9,0,0,0
25,0.0,0.09310110943903198,0.015902695010707773,0.010071903692135066,,2018-04-08 09:04:45.036999941,2018-04-08 09:15:51.223000050,67,0,0,0
26,0.0,0.013027290070758075,0.009433090002418355,0.012429034583115981,,2018-04-08 09:42:04.653000116,2018-04-08 09:58:20.917000055,9,0,0,0
27,0.0,0.09305519676993428,0.04567399135997115,0.039197168462415,,2018-04-08 10:37:51.549000025,2018-04-08 10:48:58.732000113,67,0,0,0
28,0.0,0.020660955498614075,0.011900894350014806,0.016270178739506213,,2018-04-08 11:01:22.933000088,2018-04-08 11:22:53.283999920,6,0,0,0
29,0.0,0.09307457697471723,0.015906801142825173,0.010071549611461277,,2018-04-08 12:07:10.990000010,2018-04-08 12:18:18.174000025,67,0,0,0
30,0.0,0.0145785090897182,0.008636740684993318,0.011255197293866537,,2018-04-08 12:32:24.407999992,2018-04-08 12:52:43.736000061,9,0,0,0
31,0.0,0.09499390461998707,0.02309162605003797,0.01593439654473916,,2018-04-08 21:42:32.248000145,2018-04-08 22:03:38.605000019,127,0,0,0
32,0.0,0.09692958946049397,0.024837650575665747,0.01617165107042238,,2018-04-08 23:26:55.944999933,2018-04-08 23:38:03.125999928,67,0,0,0
33,0.0,0.11034625144934827,0.029120275007814268,0.023049391366258998,,2018-04-09 03:43:21.105000019,2018-04-09 03:54:28.289999962,67,0,0,0
34,0.0,0.02509792717066919,0.016919009887290642,0.020803578786167672,,2018-04-09 04:08:10.516999960,2018-04-09 05:41:28.029000044,21,0,0,0
35,0.0,0.09344065034540147,0.01645278260332003,0.012073361046787637,,2018-04-09 06:54:42.207999945,2018-04-09 07:05:49.388000011,67,0,0,0
36,0.0,0.016531584529969168,0.011259072054267644,0.015978453233751078,,2018-04-09 07:08:37.434000015,2018-04-09 09:10:59.404999971,7,0,0,0
37,0.0,0.09539740320446248,0.02162956652182714,0.01644133262480981,,2018-04-09 12:43:27.824000120,2018-04-09 12:54:35.009000063,67,0,0,0
38,0.0,0.1417233102739162,0.050850438806382584,0.050850438806382584,,2018-04-09 13:13:59.319999933,2018-04-10 00:44:24.466000080,39,0,0,0
39,0.0,0.1128773139230022,0.10386375335960411,0.09285049609130105,,2018-04-10 01:17:32.000999928,2018-04-10 01:28:39.184999943,67,0,0,0
40,0.0,0.021488786192687133,0.01778689089758122,0.021488786192687133,,2018-04-10 01:54:47.604000092,2018-04-10 02:06:56.801000118,3,0,0,0
41,0.0,0.1790214115910004,0.14797014001152403,0.12327463947243762,,2018-04-10 02:48:37.490000010,2018-04-10 02:59:43.674000025,66,0,0,0
42,0.0,0.028890130030430457,0.017757288655108627,0.023997965262839243,,2018-04-10 03:16:54.944000006,2018-04-10 03:42:24.354000092,6,0,0,0
43,0.0,0.09470167494766908,0.01621751388057032,0.01073729067520386,,2018-04-10 14:08:49.490000010,2018-04-10 14:19:56.669000149,67,0,0,0
44,0.0,0.015255723246170456,0.010517297232209526,0.014492156019569172,,2018-04-10 14:31:59.865999937,2018-04-10 15:55:25.230999947,7,0,0,0
45,0.0,0.008934921020185829,0.00630787371887747,0.004680815858046302,,2018-04-11 04:50:47.789999962,2018-04-11 05:01:53.964999914,66,0,0,0
46,0.0,0.011091177340345532,0.009854038857402036,0.011091177340345532,,2018-04-11 05:02:06.969000101,2018-04-11 05:40:48.588000059,3,0,0,0
47,0.0,0.12159135362690927,0.09019607013081185,0.05916524493565842,,2018-04-11 06:42:30.595999956,2018-04-11 06:53:36.779000044,66,0,0,0
48,0.0,0.06227056983009337,0.040642628520952795,0.03308639146617531,,2018-04-11 07:14:22.123000145,2018-04-11 15:21:08.041000128,61,0,0,0
49,0.0,0.09405503626434125,0.016356646631517903,0.010610337777193456,,2018-04-11 17:19:06.960999966,2018-04-11 17:30:14.141999960,67,0,0,0
50,0.0,0.01030445784227625,0.009098108904411782,0.01030445784227625,,2018-04-11 17:48:35.436000109,2018-04-11 18:55:05.512000083,2,0,0,0
51,0.0,0.0930488355869014,0.021955304107725622,0.015816600988950595,,2018-04-11 20:29:09.036000013,2018-04-11 20:40:16.214999914,67,0,0,0
52,0.0,0.009335550094183397,0.008590395508348492,0.009335550094183397,,2018-04-11 20:44:10.276000023,2018-04-11 23:42:45.170000076,2,0,0,0
53,0.0,0.09313981110617574,0.01617812910794534,0.011522669578103092,,2018-04-11 23:44:56.204999924,2018-04-11 23:56:02.384999990,67,0,0,0
54,0.0,0.007964875883850768,0.007964875883850768,0.007964875883850768,,2018-04-11 23:56:24.391000032,2018-04-12 00:07:53.575999975,1,0,0,0
55,0.0,0.11753750545644064,0.020833833031527867,0.015768085854942743,,2018-04-12 01:45:29.157999992,2018-04-12 01:56:36.338999987,67,0,0,0
56,0.0,0.009698432965982969,0.009698432965982969,0.009698432965982969,,2018-04-12 02:18:27.699000120,2018-04-12 02:30:58.901999950,1,0,0,0
57,0.0,0.09884387326533224,0.022642477311365587,0.016349471403862798,,2018-04-12 03:48:02.134000063,2018-04-12 03:59:08.317000151,67,0,0,0
58,0.0,0.008043108228636332,0.00798217494337154,0.008043108228636332,,2018-04-12 04:21:07.667999983,2018-04-12 04:31:45.842999935,3,0,0,0
59,0.0,0.0936443084879789,0.03272910704189049,0.024725320089269316,,2018-04-12 06:00:11.282000065,2018-04-12 06:11:17.462000132,67,0,0,0
60,0.0,0.02202956305172035,0.011467786955179759,0.02202956305172035,,2018-04-12 06:26:35.707999945,2018-04-12 07:25:44.664000034,4,0,0,0
61,0.0,0.12517604783455105,0.06997668019766362,0.06433169316790786,,2018-04-12 12:56:56.029999971,2018-04-12 13:08:02.213999987,67,0,0,0
62,0.0,0.062050280838870986,0.049512571172428556,0.0615677745815372,,2018-04-12 13:29:26.562000036,2018-04-12 15:18:10.334000111,10,0,0,0
63,0.0,0.13499626372809806,0.07430925995492085,0.06264007282914578,,2018-04-12 15:20:21.371000051,2018-04-12 15:31:27.548000097,66,0,0,0
64,0.0,0.12577685564878696,0.09115288946156255,0.0896417696308459,,2018-04-12 16:24:33.403000116,2018-04-12 18:36:33.551000118,43,0,0,0
65,0.0,0.1388610085433354,0.12237054734303858,0.09535874203703103,,2018-04-12 19:26:48.357000113,2018-04-12 19:37:55.535000086,67,0,0,0
66,0.0,0.08767891602719591,0.037445408037131735,0.0861930823339872,,2018-04-12 19:41:22.589999914,2018-04-12 20:31:46.407999992,6,0,0,0
67,0.0,0.10115668607154318,0.025884957185950595,0.020941011865571874,,2018-04-12 21:45:33.618000031,2018-04-12 21:56:40.804000139,67,0,0,0
68,0.0,0.019126515799325325,0.013132824659878731,0.0172732744117707,,2018-04-12 22:21:36.196000099,2018-04-12 23:35:59.388999939,12,0,0,0
