,y_true,y_pred,y_pred_top_k,y_pred_top_percentage,label_id,timestamp_min,timestamp_max,nb,freq_temp,max_freq_pressure,min_freq_pressure
0,0.0,0.01552953814041667,0.013314829329179855,0.012063636349749753,,2018-04-13 00:59:17.735000134,2018-04-13 01:10:23.916000128,66,0,0,0
1,0.0,0.007366049193150653,0.007045344029272478,0.007366049193150653,,2018-04-13 01:36:54.335999966,2018-04-13 01:51:02.565000057,2,0,0,0
2,0.0,0.18063301133400395,0.07587035760308283,0.05422581907307623,,2018-04-13 02:53:17.569000006,2018-04-13 03:04:24.753999949,67,0,0,0
3,0.0,0.012395926046116335,0.009266136011681464,0.01137753411504888,,2018-04-13 03:33:20.235000134,2018-04-13 04:10:25.834000111,12,0,0,0
4,0.0,0.08318939862844907,0.019559977790373183,0.015306497442667733,,2018-04-13 10:47:10.239000082,2018-04-13 10:58:17.414999962,67,0,0,0
5,0.0,0.010949569105487568,0.0076664135173768804,0.009662189324546896,,2018-04-13 10:58:30.419000149,2018-04-13 12:35:53.987999916,9,0,0,0
6,0.0,0.013809873554729074,0.012159835368669904,0.011039285568250658,,2018-04-14 04:29:40.388000011,2018-04-14 04:40:47.571000099,67,0,0,0
7,0.0,0.010696378755134742,0.008201521418519398,0.009678947289288803,,2018-04-14 04:47:51.681999922,2018-04-14 05:59:59.848999977,12,0,0,0
8,0.0,0.017192529378902897,0.01529312399472782,0.013358372969449974,,2018-04-14 07:04:03.874000072,2018-04-14 07:15:10.054000139,67,0,0,0
9,0.0,0.08774025101724947,0.021204929229604822,0.016715301148153505,,2018-04-14 08:44:24.496000051,2018-04-14 08:55:31.680000067,67,0,0,0
10,0.0,0.01184035303464648,0.010252737148749441,0.00984800413887323,,2018-04-14 08:55:44.684000015,2018-04-14 13:18:16.888000011,72,0,0,0
11,0.0,0.08488153240224745,0.02181429509507039,0.017760632804280557,,2018-04-14 13:20:27.923000097,2018-04-14 13:31:34.102999926,67,0,0,0
12,0.0,0.011625905683199532,0.010315279940346988,0.009522719405739814,,2018-04-14 13:48:28.368999958,2018-04-14 17:56:12.361000061,191,0,0,0
13,0.0,0.08436285471712038,0.020522924542303533,0.015584885636134785,,2018-04-14 19:28:25.873000145,2018-04-14 19:39:33.052000046,67,0,0,0
14,0.0,0.011428675426656359,0.009229524585903134,0.010345658492261618,,2018-04-14 20:03:43.436000109,2018-04-15 00:19:18.577000141,20,0,0,0
15,0.0,0.018568351720670537,0.014434672265595916,0.013331202483824946,,2018-04-15 00:21:29.611999989,2018-04-15 00:32:35.788000107,66,0,0,0
16,0.0,0.009495228645536993,0.008637168233678702,0.00924793857535561,,2018-04-15 01:23:50.610000134,2018-04-15 02:08:56.355999947,12,0,0,0
17,0.0,0.08432525373738113,0.019571567073575904,0.015094800159981832,,2018-04-15 03:59:52.147000074,2018-04-15 04:10:59.327000141,67,0,0,0
18,0.0,0.011654019929823504,0.008029162352109914,0.010340362498585264,,2018-04-15 04:13:35.368999958,2018-04-15 04:44:44.877000093,12,0,0,0
19,0.0,0.08235329943894987,0.021383036579191488,0.01762625606970506,,2018-04-15 14:10:09.967000008,2018-04-15 14:21:17.148999929,67,0,0,0
20,0.0,0.006593064959826027,0.006114286072908602,0.006341370468437913,,2018-04-15 14:21:30.153000116,2018-04-15 15:32:20.288000107,11,0,0,0
21,0.0,0.07929991652509426,0.016394237738371054,0.011346902658931188,,2018-04-15 20:17:36.839999914,2018-04-15 20:28:44.018000126,67,0,0,0
22,0.0,0.0024495007553791276,0.0023277643302165537,0.002400449646881507,,2018-04-15 20:41:17.222000122,2018-04-15 21:18:24.819999933,11,0,0,0
23,0.0,0.010258226486601,0.007871727244880517,0.006129272615144243,,2018-04-16 03:14:04.500999928,2018-04-16 03:25:10.681999922,66,0,0,0
24,0.0,0.0025453803708704818,0.0022922433400737597,0.00241066017080777,,2018-04-16 03:27:23.719000101,2018-04-16 03:53:05.140000105,9,0,0,0
25,0.0,0.12194339084936522,0.07095276593141284,0.034881767005548875,,2018-04-16 07:00:07.151000023,2018-04-16 07:21:13.506999969,127,0,0,0
26,0.0,0.04832349448434135,0.01721296049089025,0.027535015812681196,,2018-04-16 07:22:13.523000001,2018-04-16 09:27:26.533999919,20,0,0,0
27,0.0,0.07538589908029085,0.05419067596923306,0.026604607618010326,,2018-04-16 12:31:25.505000114,2018-04-16 12:52:31.851999998,126,0,0,0
28,0.0,0.10764011688284239,0.03297945764351355,0.03995223166924161,,2018-04-16 12:57:19.930000067,2018-04-16 18:53:52.680000067,32,0,0,0
29,0.0,0.126828602395032,0.05017167038264327,0.04057199648038887,,2018-04-16 18:56:03.716000080,2018-04-16 19:07:10.897000074,67,0,0,0
30,0.0,0.004111242200568724,0.00337321765049245,0.004111242200568724,,2018-04-16 19:07:23.901000023,2018-04-16 19:40:43.437000036,3,0,0,0
31,0.0,0.011714386135224665,0.01080698295480114,0.007608285060541625,,2018-04-16 22:10:22.847000122,2018-04-16 22:31:29.192000151,127,0,0,0
32,0.0,0.08239256987283562,0.017685998061766833,0.012526179462291561,,2018-04-16 23:27:35.082000017,2018-04-16 23:38:41.265000105,67,0,0,0
33,0.0,0.018906123347756217,0.010370134520365386,0.008723317846611293,,2018-04-17 00:58:17.545000076,2018-04-17 01:09:23.726999998,66,0,0,0
34,0.0,0.0033895951138286297,0.002076329950158636,0.0033895951138286297,,2018-04-17 01:09:46.732000113,2018-04-17 01:24:34.967999935,4,0,0,0
35,0.0,0.08147450076916268,0.017977838643480612,0.010491923472102866,,2018-04-17 02:36:59.121999979,2018-04-17 02:58:05.476000071,127,0,0,0
36,0.0,0.08240482827846166,0.016299412461872664,0.011628881912775767,,2018-04-17 03:00:17.512000083,2018-04-17 03:11:24.694999933,67,0,0,0
37,0.0,0.003321343534878463,0.002507360365485483,0.003321343534878463,,2018-04-17 03:11:37.699000120,2018-04-17 03:54:28.387000084,5,0,0,0
38,0.0,0.011392770199911344,0.009178868895529749,0.007549526190776895,,2018-04-17 05:08:03.562000036,2018-04-17 05:19:10.740000010,67,0,0,0
39,0.0,0.0034629624531158612,0.002595348071885992,0.0034629624531158612,,2018-04-17 05:50:17.236999989,2018-04-17 06:07:38.519999981,4,0,0,0
40,0.0,0.0782042091228237,0.015541781576132816,0.010588135683771543,,2018-04-17 09:02:43.319999933,2018-04-17 09:13:49.503000020,67,0,0,0
41,0.0,0.0038526084607749846,0.0030987340031958474,0.0038526084607749846,,2018-04-17 09:14:02.506000042,2018-04-17 10:02:46.289999962,5,0,0,0
42,0.0,0.010467385849573513,0.008399222882901434,0.007068894513771553,,2018-04-17 18:42:28.651999950,2018-04-17 18:53:34.837000132,66,0,0,0
43,0.0,1.0,0.5726676805460167,0.7846800790190386,,2018-04-17 19:06:56.052000046,2018-04-17 21:42:47.572000027,24,0,0,0
44,0.0,0.08254783726182711,0.0185132600669063,0.013748320310329765,,2018-04-18 12:42:40.023999929,2018-04-18 12:53:47.204999924,67,0,0,0
45,0.0,0.08517638738857422,0.01935068268577716,0.014357604976297492,,2018-04-18 14:12:59.485000134,2018-04-18 14:24:06.664000034,67,0,0,0
46,0.0,0.02004206222429399,0.01311752941908689,0.010036121663104363,,2018-04-18 15:40:50.907000065,2018-04-18 15:51:57.084000111,67,0,0,0
47,0.0,0.008609246021235787,0.00741626094215884,0.007617129527718223,,2018-04-18 17:15:58.431999922,2018-04-18 19:39:24.759999990,27,0,0,0
48,0.0,0.08398566329735582,0.01718752893001893,0.012234735569610118,,2018-04-19 08:17:32.012000084,2018-04-19 08:28:39.194000006,67,0,0,0
49,0.0,0.40877206375556735,0.046383181296528644,0.10746967680665086,,2018-04-19 08:44:51.453999996,2018-04-19 17:46:55.169000149,18,0,0,0
50,0.0,0.5116098265517365,0.20084193205477044,0.5116098265517365,,2018-04-19 18:29:48.860000134,2018-04-19 18:50:59.196000099,4,0,0,0
51,0.0,0.4974467093339232,0.24398745905465127,0.4974467093339232,,2018-04-19 19:42:57.028000116,2018-04-19 20:13:00.519999981,5,0,0,0
52,0.0,0.5134869392046139,0.33229204695619324,0.41081157428976844,,2018-04-19 20:32:55.832999945,2018-04-19 21:27:05.687999964,14,0,0,0
