,y_true,y_pred,y_pred_top_k,y_pred_top_percentage,label_id,timestamp_min,timestamp_max,nb,freq_temp,max_freq_pressure,min_freq_pressure
0,0.0,0.8355586899435758,0.15221527283259967,0.07986152141521352,,2018-07-06 11:18:39.661000013,2018-07-06 11:39:46.003999949,127,0,0,0
1,0.0,0.11356851968445508,0.0637814592087468,0.07051580340935686,,2018-07-06 11:47:21.121999979,2018-07-06 13:06:38.410000086,22,0,0,0
2,0.0,0.8338572620780517,0.12566827072796216,0.05908921337258148,,2018-07-06 22:03:02.999000072,2018-07-06 22:24:09.350000143,127,0,0,0
3,0.0,0.12022042836933838,0.08752086583139448,0.1035562310975904,,2018-07-06 22:42:13.644000053,2018-07-06 23:27:43.374000072,17,0,0,0
4,0.0,0.8394420209852734,0.1265629076336719,0.057948582442082563,,2018-07-07 12:22:52.871999979,2018-07-07 12:43:59.220999956,127,0,0,0
5,0.0,0.07936563561608964,0.07223875360410068,0.07936563561608964,,2018-07-07 13:02:23.519000052,2018-07-07 16:02:11.424000025,5,0,0,0
6,0.0,0.8613403199574816,0.33699056592668863,0.2079068800831469,,2018-07-07 16:04:22.459000111,2018-07-07 16:25:28.805999994,126,0,0,0
7,0.0,0.9288665659747952,0.1705174834211967,0.10500665435890008,,2018-07-07 17:41:18.028000116,2018-07-07 18:02:24.378999949,127,0,0,0
8,0.0,0.09975081144883,0.09323322247481355,0.08678662665548677,,2018-07-07 19:24:53.697000027,2018-07-07 19:46:00.042000055,127,0,0,0
9,0.0,0.8923806196395896,0.17244773416173428,0.12864078062208661,,2018-07-07 20:58:58.219000101,2018-07-07 21:10:05.400000095,67,0,0,0
10,0.0,0.43604479924421957,0.2747675944926419,0.29775304844451855,,2018-07-07 21:42:46.920000076,2018-07-07 23:41:34.824000120,34,0,0,0
11,0.0,0.48766614520324536,0.3240975087845333,0.3672515610174202,,2018-07-07 23:47:37.921000004,2018-07-08 01:19:03.394000053,27,0,0,0
12,0.0,0.8471152333254226,0.14522010175602112,0.07150940718237077,,2018-07-08 16:29:50.031000137,2018-07-08 16:50:56.378999949,127,0,0,0
13,0.0,0.17031069460978338,0.1462754769411316,0.1520212658077335,,2018-07-08 17:34:54.089999914,2018-07-08 19:02:33.503000020,34,0,0,0
14,0.0,0.2652187264972621,0.23280872013891032,0.18427720603032696,,2018-07-09 01:33:34.781000137,2018-07-09 01:54:41.133000134,127,0,0,0
15,0.0,0.8500368307970247,0.1301668572628577,0.08771218141425577,,2018-07-09 06:03:27.125000,2018-07-09 06:14:34.302999973,67,0,0,0
16,0.0,0.3188712209309683,0.11875924345537281,0.14760288604435332,,2018-07-09 06:14:47.306999922,2018-07-09 13:10:31.966000080,23,0,0,0
17,0.0,0.8759047975932626,0.1693176225264807,0.12592071867057214,,2018-07-09 13:12:43.002000093,2018-07-09 13:23:50.184999943,67,0,0,0
18,0.0,0.17817660173604913,0.16785362889415503,0.15869172076170898,,2018-07-09 14:46:13.519000052,2018-07-09 14:57:20.703000069,67,0,0,0
19,0.0,0.9026344859903094,0.18587401545864649,0.14570209257842268,,2018-07-09 17:30:38.181999922,2018-07-09 17:41:45.365000010,67,0,0,0
20,0.0,0.28899233326588925,0.2081524558561724,0.2081524558561724,,2018-07-09 17:43:54.398999929,2018-07-09 20:13:53.831000090,38,0,0,0
21,0.0,1.0,0.23394683763316268,0.13645412227882822,,2018-07-11 03:13:02.749000072,2018-07-11 03:34:09.095000029,127,0,0,0
22,0.0,0.8402338529950905,0.11102164222765068,0.06960386350997845,,2018-07-11 05:48:37.272000074,2018-07-11 05:59:44.447999954,67,0,0,0
23,0.0,0.29280131352530064,0.16653203872441213,0.1612203869724031,,2018-07-11 05:59:57.453999996,2018-07-11 08:22:44.753000021,43,0,0,0
24,0.0,0.1916767461755661,0.1003299215668744,0.06093154208273529,,2018-07-11 19:52:24.847000122,2018-07-11 20:13:31.196000099,127,0,0,0
25,0.0,0.18544831962272781,0.12852483908254747,0.14281046102569922,,2018-07-11 20:36:29.565000057,2018-07-11 21:42:31.641999960,27,0,0,0
26,0.0,0.8846458378972022,0.13618611289663546,0.06670096832937616,,2018-07-12 12:59:41.398999929,2018-07-12 13:20:47.750999928,126,0,0,0
27,0.0,0.07547948467627698,0.053209593345867334,0.05963922381177711,,2018-07-12 13:21:47.766999960,2018-07-12 15:42:48.038000107,21,0,0,0
28,0.0,0.8542801880471672,0.14791286028762618,0.08289146477615512,,2018-07-12 19:10:58.385999918,2018-07-12 19:32:04.736000061,126,0,0,0
29,0.0,0.3244776970015123,0.23676191615797798,0.22445258190513873,,2018-07-12 19:36:21.805999994,2018-07-12 22:22:05.477999926,48,0,0,0
