,y_true,y_pred,y_pred_top_k,y_pred_top_percentage,label_id,timestamp_min,timestamp_max,nb,freq_temp,max_freq_pressure,min_freq_pressure
0,0.0,0.10856231623281908,0.09862079021965277,0.07360283807955018,,2017-05-03 00:05:22.187000036,2017-05-03 14:45:28.470000029,165,0.0,0.0,0.0
1,0.0,0.09322555068701337,0.0840012963599518,0.07664003315792522,,2017-05-03 14:47:39.505000114,2017-05-03 14:58:46.690999985,67,0.0,0.0,0.0
2,0.0,0.06652696956637462,0.06652696956637462,0.06652696956637462,,2017-05-03 15:02:54.758000135,2017-05-03 17:18:56.957000017,1,0.0,0.0,0.0
3,0.0,0.0662937322463849,0.06210116799678378,0.05692609100879552,,2017-05-03 17:21:07.992000103,2017-05-03 17:32:14.174999952,67,0.0,0.0,0.0
4,0.0,0.08655534359793707,0.029913513875966257,0.07648667994233907,,2017-05-03 17:32:27.179000139,2017-05-03 21:31:11.072000027,6,0.0,0.0,0.0
5,0.0,0.05358407551543369,0.050528292425138156,0.048341547651552505,,2017-05-03 22:23:41.911000013,2017-05-03 22:34:49.092999935,67,0.0,0.0,0.0
6,0.0,0.08089161786349836,0.03756703754740206,0.06171073567025043,,2017-05-03 22:43:18.229000092,2017-05-04 00:56:01.384000063,6,0.0,0.0,0.0
7,0.0,0.03929131225081337,0.034614051324844144,0.031070773272303603,,2017-05-04 00:58:12.420000076,2017-05-04 01:09:19.601000071,67,0.0,0.0,0.0
8,0.0,0.02220253170002657,0.014084760652633702,0.02220253170002657,,2017-05-04 01:09:32.605000019,2017-05-04 01:42:34.137000084,2,0.0,0.0,0.0
9,0.0,0.031969909067080526,0.02969183548499645,0.02763856446457038,,2017-05-04 04:55:57.260999918,2017-05-04 05:07:04.443000078,67,0.0,0.0,0.0
10,0.0,0.056395728535666975,0.056395728535666975,0.056395728535666975,,2017-05-04 05:10:42.502000093,2017-05-04 05:27:53.781000137,1,0.0,0.0,0.0
11,0.0,0.031061970827808844,0.02875421904777129,0.020227567249912735,,2017-05-04 11:33:41.712000132,2017-05-04 11:56:48.092999935,139,0.0,0.0,0.0
12,0.0,0.1353449618445878,0.0435078541837708,0.047591810044626245,,2017-05-04 12:23:26.521000146,2017-05-04 21:29:56.385999918,37,0.0,0.0,0.0
13,0.0,0.006532966105129812,0.006232413159752055,0.004329929912853879,,2017-05-04 21:32:07.423000097,2017-05-04 21:43:14.605000019,67,0.0,0.0,0.0
14,0.0,0.031293923612150956,0.008793722506296675,0.020014755990479034,,2017-05-04 21:43:27.608999968,2017-05-05 01:44:00.509000063,10,0.0,0.0,0.0
15,0.0,0.013739304977945732,0.01117583573010792,0.007815360648077412,,2017-05-05 01:46:11.545000076,2017-05-05 01:57:18.726999998,67,0.0,0.0,0.0
16,0.0,0.006004331593033653,0.005963630349486525,0.005996601411104858,,2017-05-05 01:57:31.729000092,2017-05-05 09:15:25.845000029,13,0.0,0.0,0.0
17,0.0,0.01386935618078318,0.011228195523229052,0.007846128625664335,,2017-05-05 09:17:36.881000042,2017-05-05 09:28:44.064000130,67,0.0,0.0,0.0
18,0.0,0.006000792167888206,0.005647853478111118,0.005987204173120786,,2017-05-05 10:38:20.194000006,2017-05-05 17:53:40.265000105,9,0.0,0.0,0.0
19,0.0,0.036810650270749236,0.03205485317001496,0.029492729763235723,,2017-05-05 17:55:51.301000118,2017-05-05 18:06:58.489000082,67,0.0,0.0,0.0
20,0.0,0.024683238439275567,0.01634771524304892,0.024683238439275567,,2017-05-05 18:33:23.919000149,2017-05-05 20:34:08.881000042,4,0.0,0.0,0.0
21,0.0,0.009071848809212947,0.009071848809212947,0.009071848809212947,,2017-05-05 21:13:50.529000044,2017-05-05 21:38:00.913000107,1,0.0,0.0,0.0
22,0.0,0.005731462698842943,0.005582687551073377,0.003953985518600295,,2017-05-06 02:15:32.423000097,2017-05-06 02:26:39.602999926,67,0.0,0.0,0.0
23,0.0,0.005794714553305543,0.005659972997607753,0.0051168529434961075,,2017-05-06 03:56:03.052000046,2017-05-06 04:07:10.233999968,67,0.0,0.0,0.0
24,0.0,0.004659011186416465,0.004617566806423832,0.004659011186416465,,2017-05-06 04:07:23.236999989,2017-05-06 05:40:56.753000021,2,0.0,0.0,0.0
25,0.0,0.006571078097191626,0.006262099962761442,0.004349019491755972,,2017-05-06 05:43:07.789000034,2017-05-06 05:54:14.970999956,67,0.0,0.0,0.0
26,0.0,0.02093279517672281,0.012967872915037294,0.02093279517672281,,2017-05-06 06:46:19.822000027,2017-05-06 09:35:52.566999912,2,0.0,0.0,0.0
27,0.0,0.02291985359131691,0.019288911283126278,0.016956876364326485,,2017-05-06 09:38:03.604000092,2017-05-06 09:49:10.789000034,67,0.0,0.0,0.0
28,0.0,0.009075446776033756,0.009075446776033756,0.009075446776033756,,2017-05-06 10:05:15.052999973,2017-05-06 10:45:19.699000120,1,0.0,0.0,0.0
29,0.0,0.015863785960687864,0.007828287242871981,0.0069253596448623925,,2017-05-06 12:33:19.439000130,2017-05-06 12:44:26.618999958,67,0.0,0.0,0.0
30,0.0,0.01198807031466761,0.011317178085576012,0.010727163241368642,,2017-05-06 15:54:05.687000036,2017-05-06 16:05:12.868999958,67,0.0,0.0,0.0
31,0.0,0.009415609158537834,0.009255599214984391,0.009415609158537834,,2017-05-06 16:05:25.873000145,2017-05-06 19:10:53.880000114,4,0.0,0.0,0.0
32,0.0,0.02297768743891794,0.02018493543301316,0.018731894337375918,,2017-05-06 19:13:04.917000055,2017-05-06 19:24:12.098999977,67,0.0,0.0,0.0
33,0.0,0.03230624878988477,0.015582376405261061,0.01441479927155222,,2017-05-06 19:24:25.101999998,2017-05-07 02:06:58.666000128,57,0.0,0.0,0.0
34,0.0,0.006865463777884551,0.006441615326491274,0.00451026900433321,,2017-05-07 02:09:09.700999975,2017-05-07 02:20:16.881999969,67,0.0,0.0,0.0
35,0.0,0.02620412526627687,0.011128500208583128,0.02620412526627687,,2017-05-07 02:20:28.884000063,2017-05-07 03:10:31.697999954,4,0.0,0.0,0.0
36,0.0,0.04939981190576614,0.041747136110514504,0.036370245544545134,,2017-05-07 04:11:16.677000046,2017-05-07 04:22:23.857000113,67,0.0,0.0,0.0
37,0.0,0.02240661123064911,0.00686838211690068,0.00785940908821684,,2017-05-07 04:50:11.312999964,2017-05-07 09:00:10.383000135,27,0.0,0.0,0.0
38,0.0,0.01889294067706924,0.00913005025828362,0.00824549751041756,,2017-05-07 09:02:21.417999983,2017-05-07 09:13:28.598000050,67,0.0,0.0,0.0
39,0.0,0.0590745689869769,0.027313324405949174,0.0525029174780018,,2017-05-07 09:13:41.601999998,2017-05-07 11:15:23.581000090,7,0.0,0.0,0.0
40,0.0,0.01790780345375481,0.008057799591674894,0.005761681393370117,,2017-05-07 11:17:34.617000103,2017-05-07 11:28:41.801000118,67,0.0,0.0,0.0
41,0.0,0.010404969763898734,0.008839932067055101,0.009997109200926033,,2017-05-07 11:28:54.805000067,2017-05-07 11:47:59.112999916,6,0.0,0.0,0.0
42,0.0,0.006649188035315001,0.006318284485025351,0.004376578541498249,,2017-05-07 12:45:59.042999983,2017-05-07 12:57:06.222000122,67,0.0,0.0,0.0
43,0.0,0.010235604301332177,0.005294769241468552,0.007394363443670334,,2017-05-07 13:17:45.552000046,2017-05-07 14:02:32.276999950,7,0.0,0.0,0.0
44,0.0,0.01127806913393648,0.010727676712151349,0.008731004758959424,,2017-05-07 18:56:37.042000055,2017-05-07 19:19:43.427000046,139,0.0,0.0,0.0
45,0.0,0.009936505427061058,0.007243495721562231,0.005615647397906829,,2017-05-08 10:22:08.108999968,2017-05-08 10:33:15.289000034,67,0.0,0.0,0.0
46,0.0,0.011636285767942713,0.007972815894788102,0.011636285767942713,,2017-05-08 10:33:28.292999983,2017-05-08 10:56:31.671000004,2,0.0,0.0,0.0
47,0.0,0.2182907106153911,0.13750835273851628,0.0923040049624804,,2017-05-08 13:05:20.771000147,2017-05-08 13:16:27.954999924,67,0.0,0.0,0.0
48,0.0,0.008555318359649835,0.008555147530152098,0.008511839342954082,,2017-05-08 14:40:48.339999914,2017-05-08 14:51:55.523000001,67,0.0,0.0,0.0
49,0.0,0.017121705631235072,0.015939298092950364,0.015220186378265303,,2017-05-08 16:12:47.829999924,2017-05-08 16:23:55.010999918,67,0.0,0.0,0.0
50,0.0,0.1697423940996703,0.07877715044421482,0.10489721254855904,,2017-05-08 16:24:36.022000074,2017-05-08 18:23:11.960999966,22,0.0,0.0,0.0
51,1.0,0.19041082402415063,0.11522044822998005,0.11022789915328408,2338567,2017-05-09 01:21:44.739000082,2017-05-09 20:34:44.510999918,409,0.0,0.0,0.0
