,y_true,y_pred,y_pred_top_k,y_pred_top_percentage,label_id,timestamp_min,timestamp_max,nb,freq_temp,max_freq_pressure,min_freq_pressure
0,0.0,0.0032649151729526996,0.0017054264683650847,0.0012547467216485833,,2017-06-28 04:40:18.930999994,2017-06-28 05:03:25.315999985,139,-0.8354446507944108,-0.835444650794411,-0.835444650794411
1,0.0,0.07846006508553398,0.06889424516601414,0.0682537266070718,,2017-06-28 05:24:24.664000034,2017-06-28 09:23:25.577000141,44,-0.8354446507944108,-0.835444650794411,-0.835444650794411
2,0.0,0.010835669983008655,0.008699854572313743,0.006485621085947937,,2017-06-28 12:13:02.332999945,2017-06-28 12:36:08.720000029,139,-0.8354446507944108,-0.835444650794411,-0.835444650794411
3,0.0,0.006080057506367776,0.0021365935521930443,0.0016506355378815263,,2017-06-28 14:05:42.161999941,2017-06-28 14:16:49.348999977,67,-0.8354446507944108,-0.835444650794411,-0.835444650794411
4,0.0,0.09816390518436074,0.08429895779241521,0.08512812482621497,,2017-06-28 14:29:43.559999943,2017-06-28 16:43:01.733999968,36,-0.8354446507944108,-0.835444650794411,-0.835444650794411
5,0.0,0.252033424239123,0.1662604990259508,0.10644295179515761,,2017-06-29 03:50:29.648999929,2017-06-29 04:13:57.048000097,141,-0.8354446507944108,-0.835444650794411,-0.835444650794411
6,0.0,0.09392631117796602,0.07905279672107654,0.08349763108631193,,2017-06-29 04:30:09.311000109,2017-06-29 05:22:53.171000004,27,-0.8354446507944108,-0.835444650794411,-0.835444650794411
7,0.0,0.22997857141121958,0.05454735844657253,0.0211966966175466,,2017-06-29 12:03:28.717999935,2017-06-29 12:28:15.128999949,149,-0.8354446507944108,-0.835444650794411,-0.835444650794411
8,0.0,0.0874068365660145,0.07955102704317751,0.08206349762324706,,2017-06-29 12:48:52.467999935,2017-06-29 15:04:03.657000065,29,-0.8354446507944108,-0.835444650794411,-0.835444650794411
9,0.0,0.14562863716414715,0.12677006096127225,0.041911930673431436,,2017-06-29 16:24:13.950999975,2017-06-29 16:47:21.342000008,139,-0.8354446507944108,-0.835444650794411,-0.835444650794411
10,0.0,0.003475613281632579,0.0014211031054204475,0.0011879063985854009,,2017-06-29 18:07:57.644999981,2017-06-29 18:19:04.825000048,67,-0.8354446507944108,-0.835444650794411,-0.835444650794411
11,0.0,0.09494874632495524,0.08531404084437084,0.08961694927967036,,2017-06-29 18:32:19.039000034,2017-06-29 19:44:18.217999935,25,-0.8354446507944108,-0.835444650794411,-0.835444650794411
12,0.0,0.0046823955749931605,0.004228792669675465,0.0040876071415837135,,2017-06-30 00:53:48.248000145,2017-06-30 01:04:55.434999943,67,-0.8354446507944108,-0.835444650794411,-0.835444650794411
13,0.0,0.0030835030894666533,0.002183714109628125,0.0016150625380028838,,2017-06-30 03:07:31.437999964,2017-06-30 03:18:38.618999958,67,-0.8354446507944108,-0.835444650794411,-0.835444650794411
14,0.0,0.05228070632592191,0.052107011494017585,0.05228070632592191,,2017-06-30 03:18:51.621999979,2017-06-30 05:45:55.022000074,4,-0.8354446507944108,-0.835444650794411,-0.835444650794411
15,0.0,0.051845512991500704,0.051845512991500704,0.051845512991500704,,2017-06-30 05:55:46.183000088,2017-06-30 06:13:24.470000029,1,-0.8354446507944108,-0.835444650794411,-0.835444650794411
16,0.0,0.1443287395406007,0.12262951314877427,0.10742989401737474,,2017-06-30 11:45:30.885999918,2017-06-30 11:56:38.069999933,67,-0.8354446507944108,-0.835444650794411,-0.835444650794411
17,0.0,0.05211949759707601,0.05159876735420849,0.05209260017757483,,2017-06-30 12:06:04.223000050,2017-06-30 12:32:23.650000095,6,-0.8354446507944108,-0.835444650794411,-0.835444650794411
18,0.0,0.14284965853329523,0.12126613960157065,0.10640559889654896,,2017-06-30 13:07:36.233000040,2017-06-30 13:18:43.421999931,67,-0.8354446507944108,-0.835444650794411,-0.835444650794411
19,0.0,0.05199946752519446,0.05199946752519446,0.05199946752519446,,2017-06-30 13:29:29.600000143,2017-06-30 13:46:51.884999990,1,-0.8354446507944108,-0.835444650794411,-0.835444650794411
20,0.0,0.12044139974773577,0.09204739271540852,0.07379253537818935,,2017-06-30 16:19:47.357000113,2017-06-30 16:30:54.542999983,67,-0.8354446507944108,-0.835444650794411,-0.835444650794411
21,0.0,0.05202281542910516,0.05202281542910516,0.05202281542910516,,2017-06-30 16:37:56.658999920,2017-06-30 17:11:34.210999966,1,-0.8354446507944108,-0.835444650794411,-0.835444650794411
22,0.0,0.32144192872098837,0.27119387672859213,0.22715792601772497,,2017-06-30 19:24:11.351999998,2017-06-30 19:35:18.538000107,67,-0.8354446507944108,-0.835444650794411,-0.835444650794411
23,0.0,0.05251299820657768,0.05201165600207221,0.05234617240801373,,2017-06-30 19:53:32.837000132,2017-06-30 21:37:43.521000146,10,-0.8354446507944108,-0.835444650794411,-0.835444650794411
24,0.0,0.9488407854652177,0.9475335218775879,0.9474056014799113,,2017-07-01 04:38:12.352999926,2017-07-01 04:49:19.539000034,67,1.1969673862285386,1.1969673862285384,1.1969673862285384
25,0.0,0.99820128539473,0.9605830255792929,0.963985331414949,,2017-07-01 05:03:02.766999960,2017-07-01 10:00:08.615999937,22,1.1969673862285386,1.1969673862285384,1.1969673862285384
26,0.0,0.9483147452789531,0.9476940283180925,0.9475485700492691,,2017-07-01 10:37:52.226000071,2017-07-01 10:48:59.411000013,67,1.1969673862285386,1.1969673862285384,1.1969673862285384
27,0.0,0.9982465252863699,0.977335478286431,0.9982390332061459,,2017-07-01 11:05:46.681999922,2017-07-01 12:17:28.847000122,8,1.1969673862285386,1.1969673862285384,1.1969673862285384
28,0.0,0.9505983953557396,0.9483573171263358,0.9479088141211262,,2017-07-01 12:49:36.373000145,2017-07-01 13:12:43.760999918,139,1.1969673862285386,1.1969673862285384,1.1969673862285384
29,0.0,0.9574062466153801,0.9563760126315867,0.957094537891346,,2017-07-01 13:37:43.173000097,2017-07-01 14:10:32.707999945,6,1.1969673862285386,1.1969673862285384,1.1969673862285384
30,0.0,0.9479231241663403,0.9476809822418237,0.9476461781242499,,2017-07-01 22:30:26.850000143,2017-07-01 22:41:34.032999992,67,1.1969673862285386,1.1969673862285384,1.1969673862285384
31,0.0,0.9474258343294129,0.9474146644769095,0.9474051095354599,,2017-07-02 00:20:38.664999962,2017-07-02 00:31:45.848000050,67,1.1969673862285386,1.1969673862285384,1.1969673862285384
32,0.0,0.9477599249973016,0.9473873876263215,0.9473637019987893,,2017-07-02 05:01:07.235000134,2017-07-02 05:12:14.419000149,67,1.1969673862285386,1.1969673862285384,1.1969673862285384
33,0.0,0.9475858407304005,0.9474466751016676,0.9474213979032499,,2017-07-02 08:23:24.526999950,2017-07-02 08:34:31.713000059,67,1.1969673862285386,1.1969673862285384,1.1969673862285384
34,0.0,0.9983667208637446,0.9699375698104074,0.988686163314642,,2017-07-02 09:14:27.360000134,2017-07-02 11:13:12.292000055,17,1.1969673862285386,1.1969673862285384,1.1969673862285384
35,0.0,0.9488337810377843,0.9487363915370535,0.9484109407659785,,2017-07-02 12:08:03.190999985,2017-07-02 12:31:09.574000120,139,1.1969673862285386,1.1969673862285384,1.1969673862285384
36,0.0,1.0,0.9747303292921681,0.9908637142863255,,2017-07-02 12:43:14.766000032,2017-07-02 14:06:26.121000051,20,1.1969673862285386,1.1969673862285384,1.1969673862285384
37,0.0,0.9489744997994219,0.9488278553798664,0.948685434877206,,2017-07-02 15:37:10.608999968,2017-07-02 15:48:17.795000076,67,1.1969673862285386,1.1969673862285384,1.1969673862285384
38,0.0,0.9988119369002058,0.9631445351217566,0.9784031369776978,,2017-07-02 16:09:32.141000032,2017-07-02 16:29:24.459000111,7,1.1969673862285386,1.1969673862285384,1.1969673862285384
39,0.0,0.9486944598705058,0.9486112064023089,0.9484889012198068,,2017-07-02 19:25:58.325999975,2017-07-02 19:37:05.509999989,67,1.1969673862285386,1.1969673862285384,1.1969673862285384
40,0.0,0.9986253221254027,0.9656395184905253,0.9783896449492291,,2017-07-02 20:01:56.904999971,2017-07-03 00:09:12.924999952,14,1.1969673862285386,1.1969673862285384,1.1969673862285384
41,0.0,0.948291782184012,0.9474984827449184,0.9474288451711752,,2017-07-03 00:11:23.963000059,2017-07-03 00:22:31.147000074,67,1.1969673862285386,1.1969673862285384,1.1969673862285384
42,0.0,0.9986901047658703,0.9622752715447026,0.9669524774883692,,2017-07-03 00:22:44.150000095,2017-07-03 01:23:53.141000032,21,1.1969673862285386,1.1969673862285384,1.1969673862285384
