,y_true,y_pred,y_pred_top_k,y_pred_top_percentage,label_id,timestamp_min,timestamp_max,nb,freq_temp,max_freq_pressure,min_freq_pressure
0,0.0,0.10638334771342384,0.0796110321211863,0.05496751891075571,,2017-09-20 19:43:58.743999958,2017-09-20 19:55:05.924999952,67,0.0,0.0,0.0
1,0.0,0.010347481137022312,0.00900192962981893,0.007555176779807251,,2017-09-21 01:20:50.223999977,2017-09-21 01:31:57.407000065,67,0.0,0.0,0.0
2,0.0,0.020021499574850696,0.015375746645121447,0.011131650744079263,,2017-09-21 03:22:15.203999996,2017-09-21 03:45:21.588000059,139,0.0,0.0,0.0
3,0.0,0.012255064487037094,0.010562169904685014,0.009428344675326814,,2017-09-21 11:24:38.970999956,2017-09-21 11:35:46.151000023,67,0.0,0.0,0.0
4,0.0,0.031879406986638784,0.021099831075406104,0.022178851010262412,,2017-09-21 12:00:23.548000097,2017-09-21 14:39:01.117000103,25,0.0,0.0,0.0
5,0.0,0.04207534624243766,0.017555001788771587,0.012859712300924175,,2017-09-21 18:13:00.588000059,2017-09-21 18:24:07.773000002,67,0.0,0.0,0.0
6,0.0,0.050613502082395276,0.017618424787388405,0.03374957899162022,,2017-09-21 18:25:46.799000025,2017-09-21 19:04:18.427000046,14,0.0,0.0,0.0
7,0.0,0.025590435220210008,0.02458663178859128,0.023756626233004424,,2017-09-21 23:18:56.578000069,2017-09-21 23:30:03.759999990,67,0.0,0.0,0.0
8,0.0,0.010886865591076197,0.006689165658694739,0.010886865591076197,,2017-09-21 23:37:47.881000042,2017-09-22 00:50:36.094000101,5,0.0,0.0,0.0
9,0.0,0.06907586882809459,0.05766164459924903,0.0381244161867203,,2017-09-22 12:13:10.154999971,2017-09-22 12:36:16.533999919,139,0.0,0.0,0.0
10,0.0,0.14475388996491081,0.05565260181641333,0.08665682666805224,,2017-09-22 12:48:51.739000082,2017-09-22 14:38:49.493999958,16,0.0,0.0,0.0
11,0.0,0.004693356832204052,0.004523256748635702,0.004408398144224685,,2017-09-22 15:40:27.487999916,2017-09-22 15:51:34.671000004,67,0.0,0.0,0.0
12,0.0,0.05512514103912089,0.012791130855419367,0.03187615346631137,,2017-09-22 16:10:07.970000029,2017-09-22 16:48:11.578000069,11,0.0,0.0,0.0
13,0.0,0.050145727833088884,0.0446188138174447,0.027277590925257937,,2017-09-22 20:26:07.105000019,2017-09-22 20:49:13.490000010,139,0.0,0.0,0.0
14,0.0,0.0056656305411652615,0.005417808902413494,0.005225945102931659,,2017-09-22 22:15:57.906000137,2017-09-22 22:27:05.089999914,67,0.0,0.0,0.0
15,0.0,0.049193472063998094,0.009017181703528132,0.014788103467148006,,2017-09-22 22:28:19.111000061,2017-09-22 23:23:07.986000061,19,0.0,0.0,0.0
16,0.0,0.03930093173786274,0.036785315764691476,0.0349348895827664,,2017-09-23 01:10:54.739000082,2017-09-23 01:22:01.921000004,67,0.0,0.0,0.0
17,0.0,0.09364957782459472,0.03689583493100533,0.09364957782459472,,2017-09-23 01:44:41.286999941,2017-09-23 02:08:15.673000097,5,0.0,0.0,0.0
18,0.0,0.032466114875234944,0.030630996943713018,0.02865829732272862,,2017-09-23 03:52:08.371000051,2017-09-23 04:03:15.558000088,67,0.0,0.0,0.0
19,0.0,0.031148094785062565,0.015003639643068853,0.024071088047615843,,2017-09-23 04:15:40.758000135,2017-09-23 04:33:54.049000025,6,0.0,0.0,0.0
20,0.0,0.025537091590946775,0.023704365529100175,0.0223807737731148,,2017-09-23 05:57:10.407000065,2017-09-23 06:08:17.592000008,67,0.0,0.0,0.0
21,0.0,0.010594669117188628,0.004403901601904507,0.009505010749037236,,2017-09-23 06:18:57.766999960,2017-09-23 07:18:15.736999989,10,0.0,0.0,0.0
22,0.0,0.009224175367342855,0.007858324669185535,0.006978228712767319,,2017-09-23 08:53:12.285000086,2017-09-23 09:04:19.464999914,67,0.0,0.0,0.0
23,0.0,0.013915252337323809,0.009181901626119858,0.012108692592292464,,2017-09-23 09:20:08.720999956,2017-09-23 11:16:48.605000019,13,0.0,0.0,0.0
24,0.0,0.03345264904259219,0.03143411042108553,0.029983849389609022,,2017-09-23 15:55:36.107000113,2017-09-23 16:06:43.286999941,67,0.0,0.0,0.0
25,0.0,0.06900167294656823,0.03200912708644758,0.0476269896392303,,2017-09-23 16:26:37.602999926,2017-09-23 18:01:03.138999939,21,0.0,0.0,0.0
26,0.0,0.30211613530778747,0.2553685056907973,0.15611575459652766,,2017-09-24 00:48:49.730999947,2017-09-24 01:11:57.105999947,139,0.0,0.0,0.0
27,0.0,0.13801646934283193,0.060096030368591125,0.09837981768517748,,2017-09-24 01:19:48.230999947,2017-09-24 02:06:25.983999968,17,0.0,0.0,0.0
28,0.0,0.12010049386827598,0.106940827627337,0.08107520568236265,,2017-09-24 09:02:49.759999990,2017-09-24 09:25:57.144000053,139,0.0,0.0,0.0
29,0.0,0.8420689686781933,0.13741472615896982,0.2053747776689805,,2017-09-24 09:28:48.190999985,2017-09-24 10:21:29.039000034,22,0.0,0.0,0.0
30,0.0,0.06811071815412324,0.05814789385022141,0.03256895365420365,,2017-09-24 23:31:11.760999918,2017-09-24 23:54:18.140000105,139,0.0,0.0,0.0
31,0.0,0.5865165262323049,0.2376548653420961,0.32189781517057886,,2017-09-24 23:58:55.213999987,2017-09-25 00:59:30.197999954,23,0.0,0.0,0.0
32,0.0,0.7485829459582981,0.5209139136415896,0.2707090118835048,,2017-09-25 14:57:44.725000143,2017-09-25 15:20:51.108000040,139,0.0,0.0,0.0
33,0.0,0.6775494720544011,0.1681256721677516,0.17949837881185726,,2017-09-25 15:25:10.180000067,2017-09-25 18:17:03.953999996,37,0.0,0.0,0.0
34,0.0,0.059202033646598526,0.04901799189731987,0.038110726273688736,,2017-09-26 09:52:11.107000113,2017-09-26 10:15:17.490999937,139,0.0,0.0,0.0
35,0.0,1.0,0.36428077052463753,0.512926146683701,,2017-09-26 10:31:13.753000021,2017-09-26 11:55:58.135999918,22,0.0,0.0,0.0
