,y_true,y_pred,y_pred_top_k,y_pred_top_percentage,label_id,timestamp_min,timestamp_max,nb,freq_temp,max_freq_pressure,min_freq_pressure
0,0.0,0.06895680088998192,0.06215515982587042,0.0461273283783194,,2017-09-13 03:49:24.589999914,2017-09-13 04:12:30.979000092,138,0.0,0.0,0.0
1,0.0,0.007479289720536149,0.004170364316915217,0.005469785730543763,,2017-09-13 04:17:51.065000057,2017-09-13 06:15:12.980000019,16,0.0,0.0,0.0
2,0.0,0.0018098490529471285,0.001543349044620336,0.0012433150527560023,,2017-09-13 13:35:31.210000038,2017-09-13 13:58:37.591000080,139,0.0,0.0,0.0
3,0.0,0.0007875496308685774,0.00041836726297148866,0.0007875496308685774,,2017-09-13 14:05:51.710000038,2017-09-13 15:05:34.677000046,5,0.0,0.0,0.0
4,0.0,0.00031793436033645503,0.0002973048060261585,0.0002822304243732663,,2017-09-13 19:45:17.260999918,2017-09-13 19:56:24.441999912,67,0.0,0.0,0.0
5,0.0,0.0010433500145310669,0.0004398016660299602,0.0010433500145310669,,2017-09-13 20:44:34.225000143,2017-09-13 21:28:47.943000078,3,0.0,0.0,0.0
6,0.0,0.0010602293818765946,0.000686573267054238,0.0006253758527341292,,2017-09-14 03:32:53.880000114,2017-09-14 03:44:01.066999911,67,0.0,0.0,0.0
7,0.0,0.0002522124099667508,0.00022785237455351872,0.00024454778290915256,,2017-09-14 04:06:36.437999964,2017-09-14 05:19:37.628999949,6,0.0,0.0,0.0
8,0.0,0.0017385665816985465,0.0016829437114524969,0.0016468794909333543,,2017-09-14 08:36:29.842000008,2017-09-14 08:47:37.023000002,67,0.0,0.0,0.0
9,0.0,0.01360403838691312,0.008713997551203214,0.013190753524673082,,2017-09-14 08:47:50.026999950,2017-09-14 10:40:12.888000011,8,0.0,0.0,0.0
10,0.0,0.007984477528023445,0.007355276417618165,0.006882171494978287,,2017-09-14 17:52:47.982000113,2017-09-14 18:03:55.161999941,67,0.0,0.0,0.0
11,0.0,0.001652094334137921,0.0016433228461849316,0.001652094334137921,,2017-09-14 18:14:37.337000132,2017-09-14 20:17:55.355000019,4,0.0,0.0,0.0
12,0.0,0.004614883405091312,0.004586768389233062,0.0045528706431072,,2017-09-14 22:07:36.166000128,2017-09-14 22:18:43.351999998,67,0.0,0.0,0.0
13,0.0,0.0018396523908325553,0.0017074698023823345,0.0018104173714251037,,2017-09-14 22:37:17.648999929,2017-09-14 23:31:13.525000095,6,0.0,0.0,0.0
14,0.0,0.0014294424058221226,0.0012250390898476365,0.0009080418333933376,,2017-09-15 00:29:00.469000101,2017-09-15 00:52:07.858999968,139,0.0,0.0,0.0
15,0.0,0.0017083281121407082,0.0013775654568270884,0.001672801643161493,,2017-09-15 01:00:08.990999937,2017-09-15 01:30:28.485000134,6,0.0,0.0,0.0
16,0.0,0.001678603560824053,0.0012600697892661866,0.001678603560824053,,2017-09-15 01:35:53.574000120,2017-09-15 02:08:53.105000019,4,0.0,0.0,0.0
17,0.0,0.0020243612858581827,0.0017820004277737083,0.0017507713999817293,,2017-09-15 06:23:15.282000065,2017-09-15 06:34:22.467000008,67,0.0,0.0,0.0
18,0.0,0.003517767482252814,0.0020451990335331955,0.0027888648967066,,2017-09-15 07:01:41.917000055,2017-09-15 07:43:14.607000113,13,0.0,0.0,0.0
19,0.0,0.0017672756612076533,0.0017026600192583626,0.001745339304313743,,2017-09-15 08:00:14.883000135,2017-09-15 08:38:35.508000134,13,0.0,0.0,0.0
20,0.0,0.007942364425007656,0.007297266825482733,0.00683853711603037,,2017-09-15 13:22:41.180000067,2017-09-15 13:33:48.365999937,67,0.0,0.0,0.0
21,0.0,0.001762013435737674,0.0011931111920486222,0.001712967540512765,,2017-09-15 13:34:01.370000124,2017-09-15 19:18:39.044000149,7,0.0,0.0,0.0
22,0.0,0.0040330769846098355,0.00357037634097116,0.0031069436042815974,,2017-09-15 19:20:50.078999996,2017-09-15 19:31:57.262000084,67,0.0,0.0,0.0
23,0.0,0.00024944563550119425,0.00024944563550119425,0.00024944563550119425,,2017-09-15 19:32:10.266000032,2017-09-15 21:00:00.703000069,1,0.0,0.0,0.0
24,0.0,0.0016570667235128339,0.0016498504698515004,0.0016473241396975434,,2017-09-15 21:02:11.739000082,2017-09-15 21:13:18.924999952,67,0.0,0.0,0.0
25,0.0,0.0017583703015494408,0.001674058076162305,0.0017498073222670094,,2017-09-15 21:13:31.927999973,2017-09-15 22:45:23.417000055,9,0.0,0.0,0.0
26,0.0,0.01090819854331402,0.010129637310668262,0.00956053973633615,,2017-09-16 02:02:05.625999928,2017-09-16 02:13:12.811000109,67,0.0,0.0,0.0
27,0.0,0.003826480719753052,0.0020344514153471573,0.003428892826937602,,2017-09-16 02:22:10.957000017,2017-09-16 03:01:02.582999945,10,0.0,0.0,0.0
28,0.0,0.005340212959957258,0.004703876007825159,0.004633770988799209,,2017-09-16 05:25:59.937999964,2017-09-16 05:37:07.124000072,67,0.0,0.0,0.0
29,0.0,0.0024709502574817416,0.0018091147700530017,0.001773232620117418,,2017-09-16 09:27:00.858000040,2017-09-16 09:38:08.039000034,67,0.0,0.0,0.0
30,0.0,0.0016287410414921823,0.001626323166892455,0.0016249763120936473,,2017-09-16 12:06:40.473000050,2017-09-16 12:17:47.648999929,67,0.0,0.0,0.0
31,0.0,0.007052625336573143,0.005106727357023701,0.0045801876719779085,,2017-09-16 12:19:18.673000097,2017-09-16 19:56:32.141999960,102,0.0,0.0,0.0
32,0.0,0.00175945342136981,0.0017476332327591537,0.0017374888578463915,,2017-09-16 19:58:43.177999973,2017-09-16 20:09:50.361999989,67,0.0,0.0,0.0
33,0.0,0.4834612388925058,0.3136205116578104,0.3882305134086359,,2017-09-16 20:10:03.365000010,2017-09-16 23:33:33.679000139,25,0.0,0.0,0.0
34,0.0,1.0,0.8251374222779576,0.4626829410522779,,2017-09-16 23:35:44.714999914,2017-09-16 23:58:52.091000080,139,0.0,0.0,0.0
35,0.0,0.0012200218920498734,0.00044845530045278136,0.0009006045836450107,,2017-09-16 23:59:24.100000143,2017-09-17 01:23:33.498000145,7,0.0,0.0,0.0
36,0.0,0.004634575058937284,0.004585464971033524,0.004541047000967609,,2017-09-17 05:45:54.765000105,2017-09-17 06:09:02.151000023,139,0.0,0.0,0.0
37,0.0,0.0038044018233151194,0.0007036039202448075,0.0020817414286925504,,2017-09-17 06:25:58.421999931,2017-09-17 07:13:41.202000141,8,0.0,0.0,0.0
38,0.0,0.063061654280991,0.016034789692584702,0.007862033704815466,,2017-09-17 09:04:45.008000135,2017-09-17 09:27:51.396000147,139,0.0,0.0,0.0
39,0.0,0.0068097974022182884,0.006218998815195459,0.005789041200801843,,2017-09-17 17:14:45.019999981,2017-09-17 17:25:52.200999975,67,0.0,0.0,0.0
40,0.0,0.0045170213295260865,0.004295804871860718,0.0030976463015398906,,2017-09-17 17:26:05.203999996,2017-09-18 00:02:01.677999973,82,0.0,0.0,0.0
