,y_true,y_pred,y_pred_top_k,y_pred_top_percentage,label_id,timestamp_min,timestamp_max,nb,freq_temp,max_freq_pressure,min_freq_pressure
0,0.0,0.05600345752117528,0.01713749208908002,0.011095748144218558,,2017-08-09 02:30:05.858000040,2017-08-09 02:41:13.036999941,67,0.0,0.0,0.0
1,0.0,0.020288027122859226,0.013418819186738517,0.015689895479295984,,2017-08-09 03:22:02.700999975,2017-08-09 04:04:12.388000011,21,0.0,0.0,0.0
2,0.0,0.14909496187406937,0.12052388235032982,0.10790312752369759,,2017-08-09 19:18:44.183000088,2017-08-09 19:41:51.569000006,139,0.0,0.0,0.0
3,0.0,1.0,0.1150443139952169,0.18216366486256233,,2017-08-09 19:43:19.592000008,2017-08-09 20:59:26.828999996,25,0.0,0.0,0.0
4,0.0,0.07687545487351735,0.06297291583026933,0.058057770299369406,,2017-08-10 17:11:55.506000042,2017-08-10 17:23:02.689000130,67,0.0,0.0,0.0
5,0.0,0.010905277142621335,0.007297112247767421,0.008148812164872456,,2017-08-10 18:19:28.611999989,2017-08-10 19:38:51.901000023,26,0.0,0.0,0.0
6,0.0,0.07300846451727758,0.043053992324163695,0.027790258695971178,,2017-08-10 20:25:54.657999992,2017-08-10 20:49:01.048000097,139,0.0,0.0,0.0
7,0.0,0.008526899650677504,0.0066677060671899435,0.007635415835621332,,2017-08-10 20:49:18.052999973,2017-08-10 22:51:30.031000137,22,0.0,0.0,0.0
8,0.0,0.08104258538859832,0.040509360316154666,0.03438746491744039,,2017-08-10 23:45:39.916000128,2017-08-10 23:56:47.100000143,67,0.0,0.0,0.0
9,0.0,0.0047327209100473154,0.00179889612781738,0.003454164636395078,,2017-08-11 00:22:17.513000011,2017-08-11 00:56:21.075000048,12,0.0,0.0,0.0
10,0.0,0.05834405482425574,0.017856678087282092,0.011721388301008676,,2017-08-11 01:58:30.085000038,2017-08-11 02:09:37.269000053,67,0.0,0.0,0.0
11,0.0,0.006394442417845328,0.0019998412360606585,0.003264839225609539,,2017-08-11 02:32:14.635999918,2017-08-11 03:07:38.213000059,19,0.0,0.0,0.0
12,0.0,0.10689970518435378,0.09307331309594884,0.08816346398773027,,2017-08-11 03:53:49.964999914,2017-08-11 04:04:57.151000023,67,0.0,0.0,0.0
13,0.0,0.0025300383841340528,0.0010226879732618895,0.0016717358820718888,,2017-08-11 04:27:48.523000001,2017-08-11 05:41:53.726000071,14,0.0,0.0,0.0
14,0.0,0.20029121081486737,0.18650146880585555,0.1816084294068283,,2017-08-11 06:25:47.424999952,2017-08-11 06:36:54.611000061,67,0.0,0.0,0.0
15,0.0,0.0004974799581079613,0.00048520231002660536,0.0004974799581079613,,2017-08-11 06:37:07.615000010,2017-08-11 07:33:15.542999983,5,0.0,0.0,0.0
16,0.0,0.23017306638601404,0.1895664015653292,0.18362316102992976,,2017-08-11 08:43:26.671999931,2017-08-11 08:54:33.855000019,67,0.0,0.0,0.0
17,0.0,0.012999187208720248,0.0056922511162874395,0.006326732993831208,,2017-08-11 08:54:46.858999968,2017-08-11 15:12:48.972000122,34,0.0,0.0,0.0
18,0.0,0.09403648019772265,0.06414606051245288,0.04891668576214104,,2017-08-11 15:15:00.006000042,2017-08-11 15:38:06.388000011,139,0.0,0.0,0.0
19,0.0,0.00905698878576942,0.005496097280916142,0.006386153326245579,,2017-08-11 15:43:42.480000019,2017-08-11 16:44:05.463999987,22,0.0,0.0,0.0
20,0.0,0.0665267259416909,0.03650797354776814,0.021215344206326914,,2017-08-11 22:14:40.865000010,2017-08-11 22:37:47.249000072,139,0.0,0.0,0.0
21,0.0,0.006392009983537051,0.0012754888649884294,0.0022734570505724273,,2017-08-11 22:37:57.252000092,2017-08-11 23:32:45.148000002,16,0.0,0.0,0.0
22,0.0,0.24241437165925733,0.21189462536191844,0.19584307342533883,,2017-08-12 02:04:05.598000050,2017-08-12 02:27:11.986000061,138,0.0,0.0,0.0
23,0.0,0.07197626535120132,0.0186407441869497,0.011932410775097938,,2017-08-12 06:29:37.953999996,2017-08-12 06:40:45.134000063,67,0.0,0.0,0.0
24,0.0,0.03545035449007008,0.014963299885882362,0.009757261562749071,,2017-08-12 08:05:15.502000093,2017-08-12 08:16:22.686000109,67,0.0,0.0,0.0
25,0.0,0.006512143099472911,0.0027658539779245694,0.005128961365440526,,2017-08-12 08:16:35.690000057,2017-08-12 09:37:40.009000063,16,0.0,0.0,0.0
26,0.0,0.0736156873837496,0.03307030919044664,0.026957300248694867,,2017-08-13 07:49:48.677000046,2017-08-13 08:00:55.860000134,67,0.0,0.0,0.0
27,0.0,0.006590285987480993,0.0014164370720403177,0.0036521304271948693,,2017-08-13 08:01:08.864000082,2017-08-13 08:39:13.493000031,8,0.0,0.0,0.0
28,0.0,0.13358512198833647,0.09306369279804759,0.08695160946957806,,2017-08-13 09:27:56.281000137,2017-08-13 09:39:03.463000059,67,0.0,0.0,0.0
29,0.0,0.009070443622248566,0.005230907949189469,0.005456013252308556,,2017-08-13 09:56:26.743000031,2017-08-13 13:02:53.775000095,36,0.0,0.0,0.0
30,0.0,0.038644925821301274,0.03348214526896861,0.020428076788472655,,2017-08-13 15:04:59.755000114,2017-08-13 15:28:07.137000084,139,0.0,0.0,0.0
31,0.0,0.006346653629127387,0.00417954412834626,0.004404794086400114,,2017-08-13 15:28:18.140000105,2017-08-13 19:26:22.993999958,30,0.0,0.0,0.0
32,0.0,0.06687072696315403,0.037692163933558655,0.023422679022550137,,2017-08-13 19:28:34.031000137,2017-08-13 19:51:41.411000013,139,0.0,0.0,0.0
33,0.0,0.009199892215410392,0.005833940077445259,0.0069300624867258695,,2017-08-13 19:51:49.413000107,2017-08-13 20:29:26.036000013,22,0.0,0.0,0.0
34,0.0,0.06728579921850704,0.03722737306777447,0.02235747522434537,,2017-08-13 23:43:47.193000078,2017-08-14 00:06:53.575000048,139,0.0,0.0,0.0
35,0.0,0.006355476077524613,0.0011143603111939758,0.0024875867467016293,,2017-08-14 00:07:10.578999996,2017-08-14 00:48:29.252000092,13,0.0,0.0,0.0
36,0.0,0.13459527550265515,0.1046235040326178,0.08941804464378678,,2017-08-14 04:46:01.125000,2017-08-14 05:09:07.513000011,139,0.0,0.0,0.0
37,0.0,0.006314851406336797,0.001988426513071055,0.0026337164198877287,,2017-08-14 05:19:58.691999912,2017-08-14 06:29:33.829999924,26,0.0,0.0,0.0
38,0.0,0.05797192198352248,0.017399568091258803,0.011253948363798325,,2017-08-14 07:37:22.927999973,2017-08-14 07:48:30.115000010,67,0.0,0.0,0.0
39,0.0,0.006421512470699135,0.001688248778289372,0.0033386777535208845,,2017-08-14 07:49:30.131999969,2017-08-14 08:48:23.108000040,14,0.0,0.0,0.0
40,0.0,0.06636154826210683,0.03641419191574262,0.021162933033144357,,2017-08-14 10:02:35.309000015,2017-08-14 10:25:41.700000048,139,0.0,0.0,0.0
41,0.0,0.00298726031143642,0.0012148886378387418,0.0017395059860215631,,2017-08-14 10:26:49.717999935,2017-08-14 11:27:58.723000050,21,0.0,0.0,0.0
42,0.0,0.23856193648346305,0.20863779251227815,0.1935352369284093,,2017-08-14 18:23:45.446000099,2017-08-14 18:46:52.825999975,139,0.0,0.0,0.0
43,0.0,0.005509234763158662,0.0020603408654850954,0.003236352422189749,,2017-08-14 19:32:02.555999994,2017-08-14 20:51:27.858000040,20,0.0,0.0,0.0
44,0.0,0.13460191091758061,0.1294735552377267,0.11737778030865115,,2017-08-15 03:50:51.621000051,2017-08-15 04:13:58.005000114,139,0.0,0.0,0.0
45,0.0,0.007142601651662781,0.002363590646983005,0.0036318464948577635,,2017-08-15 04:42:20.460000038,2017-08-15 07:11:50.893000126,21,0.0,0.0,0.0
46,0.0,0.06637018466634796,0.03642102334636935,0.021614165837969653,,2017-08-15 13:55:23.467000008,2017-08-15 14:18:29.852999926,138,0.0,0.0,0.0
47,0.0,0.006626597447492354,0.003232734744602543,0.004825177461815938,,2017-08-15 14:19:04.861999989,2017-08-15 15:20:13.852999926,18,0.0,0.0,0.0
48,0.0,0.06650946688366915,0.03655086668162288,0.02130383230717331,,2017-08-15 16:13:57.713000059,2017-08-15 16:37:04.094000101,139,0.0,0.0,0.0
49,0.0,0.0720989867068017,0.01875763974429239,0.012054463193659038,,2017-08-15 18:21:46.794000149,2017-08-15 18:32:53.973000050,67,0.0,0.0,0.0
50,0.0,0.10887874337426948,0.06612826963018154,0.05030460951407939,,2017-08-15 21:02:26.400000095,2017-08-15 21:25:32.781000137,138,0.0,0.0,0.0
51,0.0,0.003281975035383571,0.001815885807755396,0.0028156846977713604,,2017-08-15 21:33:52.914999962,2017-08-15 22:22:11.712000132,18,0.0,0.0,0.0
