,y_true,y_pred,y_pred_top_k,y_pred_top_percentage,label_id,timestamp_min,timestamp_max,nb,freq_temp,max_freq_pressure,min_freq_pressure
0,0.0,0.9897237518351506,0.20053395615079692,0.1325417406754111,,2018-07-13 00:43:58.759999990,2018-07-13 01:05:05.108000040,127,0,0,0
1,0.0,0.9632697386265568,0.2511753226033696,0.20479291695025661,,2018-07-13 02:56:16.907000065,2018-07-13 03:07:24.089999914,67,0,0,0
2,0.0,0.2119961611003557,0.16545106048510066,0.1830124794423091,,2018-07-13 03:10:06.133000134,2018-07-13 03:59:17.920000076,22,0,0,0
3,0.0,0.917407426884915,0.15556853369115448,0.07944370895081476,,2018-07-14 01:11:29.394999981,2018-07-14 01:32:35.746000051,126,0,0,0
4,0.0,0.9731640396288604,0.2726958885514017,0.16498036228962654,,2018-07-14 11:12:08.094000101,2018-07-14 11:33:14.430999994,127,0,0,0
5,0.0,0.2602150597813492,0.18590575853773011,0.19830727757449032,,2018-07-14 12:01:16.881000042,2018-07-14 13:21:13.173000097,28,0,0,0
6,0.0,0.9850507392656334,0.1880860042153641,0.10329001565778269,,2018-07-14 15:36:15.337000132,2018-07-14 15:57:21.690000057,126,0,0,0
7,0.0,0.13501594962827732,0.10136670398438637,0.10380640526603264,,2018-07-14 16:22:37.095999956,2018-07-14 18:08:09.798000097,37,0,0,0
8,0.0,0.9061193484749068,0.16409165239526705,0.07767433888324166,,2018-07-15 04:43:16.052000046,2018-07-15 05:04:22.398000002,127,0,0,0
9,0.0,0.1381729409243908,0.11213086329921196,0.12150619952203735,,2018-07-15 05:25:00.733000040,2018-07-15 06:32:27.832999945,23,0,0,0
10,0.0,0.11223613724830046,0.06847212974390719,0.04560599797658455,,2018-07-15 12:39:25.771000147,2018-07-15 13:00:32.115000010,127,0,0,0
11,0.0,0.13382647204275994,0.10072159173570897,0.11231438004874904,,2018-07-15 13:47:42.870000124,2018-07-15 14:35:50.637000084,23,0,0,0
12,0.0,0.06922595452784192,0.05078743357841205,0.04075938716469976,,2018-07-15 20:46:02.574000120,2018-07-15 20:57:08.756000042,66,0,0,0
13,0.0,0.19151732702828375,0.11828937076296835,0.13091663370547943,,2018-07-15 20:57:21.759999990,2018-07-15 21:41:10.473999977,22,0,0,0
14,0.0,0.9692547782983063,0.19654754688227802,0.11756863697708018,,2018-07-15 22:58:16.704999924,2018-07-15 23:19:23.046000004,127,0,0,0
15,0.0,0.1416708850154734,0.07581536416969407,0.10290061157314541,,2018-07-15 23:26:19.157000065,2018-07-16 00:28:31.156000137,18,0,0,0
16,0.0,0.11686830397614399,0.07433348842909644,0.1017434316212282,,2018-07-16 00:42:28.381999969,2018-07-16 01:30:57.167999983,17,0,0,0
17,0.0,0.9008803059221347,0.15083420916808438,0.07215577059648072,,2018-07-16 07:29:41.939000130,2018-07-16 07:50:48.291000128,127,0,0,0
18,0.0,0.10549289694304072,0.07060639184571148,0.09398323599422254,,2018-07-16 07:57:11.396000147,2018-07-16 11:06:32.449000120,7,0,0,0
19,0.0,0.9486069216099526,0.18209825824991438,0.1344176777388733,,2018-07-16 11:08:43.486000061,2018-07-16 11:19:50.661999941,67,0,0,0
20,0.0,0.1052129707004938,0.096758262914621,0.1052129707004938,,2018-07-16 11:49:08.127000093,2018-07-16 13:54:15.137000084,2,0,0,0
21,0.0,0.9988337636178692,0.23701486125191823,0.1847746507218538,,2018-07-16 13:56:26.173000097,2018-07-16 14:07:32.358999968,67,0,0,0
22,0.0,0.20409619612412977,0.17985785434267848,0.19012307941469997,,2018-07-16 14:07:45.362999916,2018-07-16 14:53:03.095999956,27,0,0,0
23,0.0,0.8929332366820538,0.14460446567815557,0.06367114125819975,,2018-07-17 04:20:10.003000021,2018-07-17 04:41:16.351000071,127,0,0,0
24,0.0,0.9712905291918374,0.15925654609329312,0.11714526222130699,,2018-07-17 06:37:37.225000143,2018-07-17 06:48:44.404000044,67,0,0,0
25,0.0,0.07070475831864523,0.06158232275094241,0.0682005175325019,,2018-07-17 06:50:21.429000139,2018-07-17 09:38:07.117000103,11,0,0,0
26,0.0,0.928477144850468,0.19071562852586985,0.15247810736072728,,2018-07-17 09:40:18.151000023,2018-07-17 09:51:24.331000090,67,0,0,0
27,0.0,0.2056031707280866,0.16319554159248945,0.17345178255971905,,2018-07-17 09:52:56.355000019,2018-07-17 11:52:22.266000032,28,0,0,0
28,0.0,0.19411785092776832,0.16727857987064973,0.17509870396674973,,2018-07-17 12:37:04.987999916,2018-07-17 13:27:20.799000025,22,0,0,0
29,0.0,0.19885137317968324,0.15613810590863672,0.16453009936837587,,2018-07-17 13:42:08.041000128,2018-07-17 15:18:08.585999966,23,0,0,0
30,0.0,0.9262085727422913,0.20296289937946393,0.13375470794874744,,2018-07-17 18:28:11.664999962,2018-07-17 18:49:18.010999918,127,0,0,0
31,0.0,0.14066899765145593,0.12121949400057505,0.13049836946149954,,2018-07-17 18:50:07.023999929,2018-07-17 19:38:17.789999962,24,0,0,0
32,0.0,0.08816282052267008,0.08554183685141661,0.07320241199942105,,2018-07-17 20:27:23.584000111,2018-07-17 20:48:29.936000109,126,0,0,0
33,0.0,0.1364496367968983,0.09849132852654105,0.11619454550634403,,2018-07-17 21:01:57.151999950,2018-07-17 21:42:14.792999983,19,0,0,0
34,0.0,0.9112655792092647,0.17081173768393576,0.08417016495541743,,2018-07-18 02:04:46.019999981,2018-07-18 02:25:52.373000145,127,0,0,0
35,0.0,0.14690205580748508,0.12510346397792832,0.13246110409864734,,2018-07-18 02:33:28.496000051,2018-07-18 03:15:29.177999973,24,0,0,0
36,0.0,0.8944812169136845,0.40375552353949573,0.27504159351354485,,2018-07-18 11:30:04.128999949,2018-07-18 11:51:10.480999947,127,0,0,0
37,0.0,1.0,0.26416186365082334,0.17956982410630193,,2018-07-19 00:07:46.371000051,2018-07-19 00:28:52.717999935,126,0,0,0
38,0.0,0.2365230587884777,0.21262628515258783,0.2180164097946119,,2018-07-19 00:37:58.865000010,2018-07-19 01:55:11.124000072,33,0,0,0
39,0.0,0.9440804410684581,0.18069760948783486,0.09994446568110142,,2018-07-19 17:51:17.519999981,2018-07-19 18:12:23.870000124,126,0,0,0
40,0.0,0.19665417836425605,0.15983897955156676,0.17620067063477743,,2018-07-19 18:19:18.980000019,2018-07-19 19:13:37.861999989,25,0,0,0
41,0.0,0.145594853640661,0.13552832604329093,0.12351186050305614,,2018-07-19 22:12:20.727999926,2018-07-19 22:33:27.078000069,127,0,0,0
