,y_true,y_pred,y_pred_top_k,y_pred_top_percentage,label_id,timestamp_min,timestamp_max,nb,freq_temp,max_freq_pressure,min_freq_pressure
0,0.0,0.0031558630752016844,0.001882226333941869,0.0011943696013009069,,2018-10-07 16:42:16.417000055,2018-10-07 17:01:52.740999937,117,0,0,0
1,0.0,0.03908407132472695,0.009746790568300181,0.006592629369224544,,2018-10-07 18:46:35.417999983,2018-10-07 18:57:02.585000038,63,0,0,0
2,0.0,0.018244944860008334,0.0071783965128940554,0.009246239625207852,,2018-10-07 19:37:59.240000010,2018-10-07 20:45:56.329999924,21,0,0,0
3,0.0,0.04781883663453539,0.01916500897703564,0.00823150878223884,,2018-10-07 23:35:46.045000076,2018-10-07 23:55:22.368000031,118,0,0,0
4,0.0,0.009414096178149823,0.007121400299265376,0.008142991598657594,,2018-10-07 23:57:45.407000065,2018-10-08 00:40:53.091000080,21,0,0,0
5,0.0,0.03972017142695838,0.006923464417957738,0.003617375630254037,,2018-10-08 12:31:02.449000120,2018-10-08 12:50:38.771000147,117,0,0,0
6,0.0,0.006116489855558124,0.005092188868432331,0.006116489855558124,,2018-10-08 12:59:40.914000034,2018-10-08 14:17:50.154999971,2,0,0,0
7,0.0,0.04573533519887213,0.009288910385332657,0.0046444047004133284,,2018-10-08 20:41:30.286999941,2018-10-08 21:01:06.611999989,118,0,0,0
8,0.0,0.012091459626657974,0.008122995755130496,0.00855384021495378,,2018-10-08 21:03:14.646000147,2018-10-08 22:18:29.851000071,30,0,0,0
9,0.0,0.049659709839765566,0.01267382283382679,0.0067427540312692885,,2018-10-09 14:15:45.184000015,2018-10-09 14:35:21.508000134,118,0,0,0
10,0.0,0.008226698427114276,0.005499139433465991,0.006214222761122279,,2018-10-09 14:39:02.565999985,2018-10-09 15:34:52.450999975,27,0,0,0
11,0.0,0.0058308609057560615,0.004186372960493283,0.002960391709354876,,2018-10-10 18:05:15.828000069,2018-10-10 18:24:52.148000002,118,0,0,0
12,0.0,0.003156046805647288,0.0025877730385413947,0.0023520949488747226,,2018-10-10 21:02:49.664999962,2018-10-10 21:13:15.832999945,62,0,0,0
13,0.0,0.019273640874746697,0.013282657415695388,0.014692256620031279,,2018-10-10 21:13:28.835999966,2018-10-10 22:44:19.302000046,28,0,0,0
14,0.0,0.046221803597561624,0.011317486500359422,0.007219204021758587,,2018-10-11 04:42:22.036999941,2018-10-11 05:01:58.364000082,118,0,0,0
15,0.0,0.010007315444955488,0.005819873614287421,0.010007315444955488,,2018-10-11 05:10:28.502000093,2018-10-11 06:07:03.413000107,5,0,0,0
16,0.0,0.0384502424711443,0.004986491097066838,0.003243358739348479,,2018-10-11 08:16:56.496000051,2018-10-11 08:27:22.667000055,62,0,0,0
17,0.0,0.0030700877470141315,0.002626647237799249,0.0029670423014269472,,2018-10-11 08:46:00.963000059,2018-10-11 10:01:00.166000128,12,0,0,0
18,0.0,0.03894400339767288,0.006115829525320942,0.004101953458715864,,2018-10-11 12:08:08.217999935,2018-10-11 12:18:35.383000135,63,0,0,0
19,0.0,0.005222890708333582,0.0040555634715337095,0.005222890708333582,,2018-10-11 12:22:02.439000130,2018-10-11 12:43:55.791000128,3,0,0,0
20,0.0,0.0102855382621005,0.005839866689620032,0.004164794339283734,,2018-10-11 13:26:32.477999926,2018-10-11 13:36:58.651000023,62,0,0,0
21,0.0,0.003056422844933727,0.002572451033293488,0.002227612666489207,,2018-10-11 14:58:09.946000099,2018-10-11 15:08:36.111999989,63,0,0,0
22,0.0,0.020400103900779974,0.005864362423912077,0.009128388624628397,,2018-10-11 15:08:49.115999937,2018-10-11 15:39:25.598000050,14,0,0,0
23,0.0,0.0457040154500748,0.010105863151859773,0.008036956760177549,,2018-10-11 17:32:08.394000053,2018-10-11 17:42:35.564000130,63,0,0,0
24,0.0,0.00777134086754056,0.004767791443527481,0.006121368296886074,,2018-10-11 17:42:48.569000006,2018-10-11 19:38:17.414000034,15,0,0,0
25,0.0,0.039861483430274416,0.006630331064509979,0.004966249895662583,,2018-10-11 22:49:08.473000050,2018-10-11 22:59:35.644999981,63,0,0,0
26,0.0,0.009527549737745951,0.005967054730610634,0.008937627940522795,,2018-10-11 23:01:59.683000088,2018-10-11 23:38:03.269000053,13,0,0,0
27,1.0,1.0,0.12809367514749165,0.08308073891924994,2678751,2018-10-06 14:16:22.015000105,2018-10-06 23:09:13.567000151,235,0,0,0
