,y_true,y_pred,y_pred_top_k,y_pred_top_percentage,label_id,timestamp_min,timestamp_max,nb,freq_temp,max_freq_pressure,min_freq_pressure
0,0.0,0.07614120249164082,0.05759446393856725,0.03518833870436081,,2018-08-17 18:41:03.894999981,2018-08-17 19:02:10.243000031,127,0,0,0
1,0.0,0.18575922121709373,0.10931458337308211,0.11749244243468406,,2018-08-17 19:05:34.296000004,2018-08-17 20:28:47.615999937,32,0,0,0
2,0.0,0.09790305141187086,0.09261871737981242,0.07651474378960996,,2018-08-18 11:35:57.944999933,2018-08-18 11:57:04.289000034,127,0,0,0
3,0.0,0.15442472168700935,0.10659049349302767,0.12009449001100382,,2018-08-18 12:04:17.401000023,2018-08-18 13:07:23.411999941,28,0,0,0
4,0.0,0.12489358336200834,0.11008738043174553,0.08346816391998454,,2018-08-19 01:16:29.963999987,2018-08-19 01:37:36.308000088,127,0,0,0
5,0.0,0.9143543893980929,0.1478414368326115,0.09994929986055288,,2018-08-19 05:30:41.018000126,2018-08-19 05:41:48.199000120,67,0,0,0
6,0.0,0.22951717147588047,0.1462080130066867,0.15915300831977652,,2018-08-19 06:06:45.595000029,2018-08-19 06:53:56.334000111,27,0,0,0
7,0.0,0.8745694143704759,0.15561333302360608,0.08885364733094997,,2018-08-19 20:48:46.546999931,2018-08-19 21:09:52.894999981,126,0,0,0
8,0.0,0.17536454639597085,0.13341620471107843,0.12522525661243458,,2018-08-19 21:18:39.036000013,2018-08-20 00:42:28.279000044,53,0,0,0
9,0.0,0.8799469639738827,0.14939770480828393,0.08185206207730707,,2018-08-20 14:57:09.835000038,2018-08-20 15:18:16.177000046,127,0,0,0
10,0.0,0.14931947661523873,0.12030555523671278,0.10729282532557954,,2018-08-22 11:37:24.373000145,2018-08-22 11:48:30.552000046,66,0,0,0
11,0.0,0.19112724543927762,0.1678103983620454,0.15609272115239425,,2018-08-22 16:06:11.657000065,2018-08-22 16:17:17.837000132,66,0,0,0
12,0.0,0.1179761261823289,0.11184426825267398,0.1179761261823289,,2018-08-22 16:35:16.123000145,2018-08-22 17:59:23.454999924,4,0,0,0
13,0.0,0.1406012786317492,0.12565343370869608,0.11125001237510489,,2018-08-22 20:30:07.845999956,2018-08-22 20:41:14.023000002,67,0,0,0
14,0.0,0.11468587152425808,0.11387826521083982,0.11468587152425808,,2018-08-22 20:52:48.207000017,2018-08-22 21:32:44.832000017,2,0,0,0
15,0.0,0.13921907609923842,0.12766491653142806,0.11354129683705196,,2018-08-23 03:51:53.822999954,2018-08-23 04:03:00,67,0,0,0
16,0.0,0.11597953581910603,0.11431562887276159,0.11597953581910603,,2018-08-23 04:21:29.292999983,2018-08-23 04:53:16.801000118,3,0,0,0
17,0.0,0.9547029893015195,0.22545651136998718,0.14882899902952124,,2018-08-23 08:23:33.123000145,2018-08-23 08:44:39.470999956,127,0,0,0
18,0.0,0.23185893234602598,0.19698034842900652,0.19698034842900652,,2018-08-23 09:20:20.023000002,2018-08-23 12:31:28.051000118,42,0,0,0
19,0.0,1.0,0.4557496837441361,0.33875046569816814,,2018-08-23 15:36:01.980999947,2018-08-23 15:57:08.321000099,127,0,0,0
20,0.0,0.9297360077377362,0.15423354989052274,0.11034886390815886,,2018-08-23 18:39:21.897000074,2018-08-23 18:50:29.075000048,67,0,0,0
21,0.0,0.33910665485627306,0.2032780176546824,0.2183128630020731,,2018-08-23 18:50:42.078000069,2018-08-23 20:24:54.577000141,31,0,0,0
