,y_true,y_pred,y_pred_top_k,y_pred_top_percentage,label_id,timestamp_min,timestamp_max,nb,freq_temp,max_freq_pressure,min_freq_pressure
0,0.0,0.8951262223629882,0.16509711699851576,0.10406038242035888,,2018-05-04 03:09:45.388000011,2018-05-04 03:30:51.730999947,126,0,0,0
1,0.0,0.0034288556996353377,0.0034288556996353377,0.0034288556996353377,,2018-05-04 03:45:39.960999966,2018-05-04 06:15:07.375000,1,0,0,0
2,0.0,0.8771421151736976,0.16975503021431443,0.13041438429456798,,2018-05-04 06:17:18.411000013,2018-05-04 06:28:25.592999935,67,0,0,0
3,0.0,0.11036461829992499,0.0693046358720472,0.08140312983845964,,2018-05-04 06:28:38.595999956,2018-05-04 07:20:14.420000076,24,0,0,0
4,0.0,0.8895076797146931,0.23595456975980467,0.15317769429054462,,2018-05-04 17:32:56.207000017,2018-05-04 17:54:02.552000046,127,0,0,0
5,0.0,0.08136258537502673,0.048126563609597925,0.0622256241978417,,2018-05-04 18:01:27.674000025,2018-05-04 18:49:25.452000141,21,0,0,0
6,0.0,1.0,0.23158114428179663,0.15315548748126892,,2018-05-05 02:48:15.138000011,2018-05-05 03:09:21.483000040,127,0,0,0
7,0.0,0.28936535010855413,0.16134347616644829,0.21352858843097458,,2018-05-05 03:20:12.657999992,2018-05-05 04:20:50.631999969,26,0,0,0
8,0.0,0.9130943047102104,0.19121710879287968,0.12740605075970618,,2018-05-05 09:14:13.332999945,2018-05-05 09:35:19.677999973,126,0,0,0
9,0.0,0.08062617586796969,0.06483528170362315,0.07169585854890488,,2018-05-05 09:50:20.917999983,2018-05-05 11:11:40.237999916,24,0,0,0
10,0.0,0.17644605681665862,0.16317288290014803,0.13344324429861376,,2018-05-05 13:44:23.680999994,2018-05-05 14:05:30.032000065,127,0,0,0
11,0.0,0.10838984100339225,0.054862168819195964,0.07158371687143918,,2018-05-05 14:06:10.042000055,2018-05-05 15:02:55.952000141,22,0,0,0
12,0.0,0.8933374340363548,0.18318072017860615,0.1211733651563585,,2018-05-05 18:03:34.828999996,2018-05-05 18:24:41.183000088,127,0,0,0
13,0.0,0.9368829378657441,0.20047761496843805,0.162558506458512,,2018-05-06 00:16:24.796999931,2018-05-06 00:27:31.980999947,67,0,0,0
14,0.0,0.21922751143282562,0.10618627637364013,0.13028370149857282,,2018-05-06 00:27:43.985000134,2018-05-06 01:35:20.069000006,22,0,0,0
15,0.0,0.12426642426882503,0.10279534803818983,0.09688154136822516,,2018-05-06 04:30:46.873000145,2018-05-06 04:51:53.220000029,127,0,0,0
16,0.0,0.07821575379436602,0.043122704886671526,0.05619560331394544,,2018-05-06 05:11:13.525000095,2018-05-06 07:10:15.437999964,24,0,0,0
17,0.0,0.9015243168446274,0.16898014841340464,0.1032338118507142,,2018-05-06 08:01:20.250999927,2018-05-06 08:22:26.597000122,127,0,0,0
18,0.0,0.1219283137386177,0.09491370185910458,0.10084859461966539,,2018-05-06 08:46:22.977999926,2018-05-06 10:21:52.531000137,30,0,0,0
19,0.0,0.9471418365966379,0.19681146600190164,0.12429232368074308,,2018-05-07 00:24:02.038000107,2018-05-07 00:45:08.381999969,127,0,0,0
20,0.0,0.8688213339744344,0.17429058993345223,0.13204689464175007,,2018-05-07 04:31:18.022000074,2018-05-07 04:42:25.203999996,67,0,0,0
21,0.0,0.14769261160688824,0.09271791390890041,0.10902103320861507,,2018-05-07 05:14:46.726000071,2018-05-07 06:06:40.555000067,23,0,0,0
22,0.0,0.9048907699860931,0.24396971653589836,0.15186212441612182,,2018-05-07 15:32:07.634999990,2018-05-07 15:53:13.982000113,126,0,0,0
23,0.0,0.8871248862482648,0.16704006365711793,0.12822281755667794,,2018-05-07 17:02:30.092000008,2018-05-07 17:13:37.273999929,67,0,0,0
24,0.0,0.14843883193377713,0.0906959418024599,0.10132100349709616,,2018-05-07 17:13:50.278000116,2018-05-07 20:32:32.469000101,34,0,0,0
25,0.0,0.906526706161314,0.23691472162739888,0.15923617456318084,,2018-05-08 05:24:25,2018-05-08 05:45:31.348000050,127,0,0,0
26,0.0,0.08829150767940558,0.017754549442692936,0.03866490381497637,,2018-05-08 06:48:58.368000031,2018-05-08 13:11:07.463000059,18,0,0,0
27,0.0,0.18471878468225802,0.17001263647194437,0.16448912677290944,,2018-05-08 13:13:18.499000072,2018-05-08 13:24:24.686000109,66,0,0,0
28,0.0,0.24883873617734228,0.07784063480172539,0.22027740198124315,,2018-05-08 13:24:37.692000151,2018-05-08 16:38:47.806999922,8,0,0,0
29,0.0,0.9160190468459786,0.22928155066671776,0.18515342126544032,,2018-05-08 16:40:58.842999935,2018-05-08 16:52:06.026000023,67,0,0,0
30,0.0,0.11890845806422332,0.06532911341978259,0.09277076967306193,,2018-05-08 16:52:18.029000044,2018-05-08 21:05:07.069000006,15,0,0,0
31,0.0,0.9423048842838897,0.2570736360650983,0.18449440712772594,,2018-05-08 21:07:18.104000092,2018-05-08 21:28:24.450999975,127,0,0,0
32,0.0,0.18805385537724342,0.10803037212862698,0.12070291134010531,,2018-05-08 21:41:08.658999920,2018-05-08 22:40:31.614000082,23,0,0,0
33,0.0,0.8873998052701754,0.21708930143383723,0.14105626266356286,,2018-05-09 05:57:34.608999968,2018-05-09 06:18:40.947999954,126,0,0,0
34,0.0,0.9315140612140949,0.38394834924977184,0.2586811135664721,,2018-05-09 15:46:33.025000095,2018-05-09 16:07:39.368999958,127,0,0,0
35,0.0,0.170937922242221,0.12135838665040592,0.13887678448024468,,2018-05-09 16:14:22.472000122,2018-05-09 20:00:53.084000111,25,0,0,0
36,0.0,0.9162548376709844,0.16767239980453003,0.10707109223654929,,2018-05-10 10:44:04.258000135,2018-05-10 11:05:10.610000134,127,0,0,0
37,0.0,0.05935680719062124,0.03121178673260469,0.03749986702755954,,2018-05-10 11:08:47.667000055,2018-05-10 11:58:30.459000111,22,0,0,0
38,0.0,0.09809315508991849,0.09146851934855985,0.07546196933307822,,2018-05-10 18:32:54.776999950,2018-05-10 18:54:01.125000,127,0,0,0
39,0.0,0.08910435861604904,0.04759217592097474,0.052076335576180646,,2018-05-10 19:09:58.381999969,2018-05-10 20:24:58.597000122,33,0,0,0
