,y_true,y_pred,y_pred_top_k,y_pred_top_percentage,label_id,timestamp_min,timestamp_max,nb,freq_temp,max_freq_pressure,min_freq_pressure
0,0.0,0.2513939888155439,0.2238722594838367,0.2099054251594208,,2017-07-05 10:17:04.865999937,2017-07-05 10:28:12.044000149,67,0.0,0.0,0.0
1,0.0,0.035671910380212224,0.033519892303366904,0.029539273092367258,,2017-07-07 19:16:32.457000017,2017-07-07 19:27:39.644999981,67,0.0,0.0,0.0
2,0.0,0.0071191047485680906,0.006987376355435779,0.006646812239658584,,2017-07-07 22:34:40.697000027,2017-07-07 22:45:47.880000114,67,0.0,0.0,0.0
3,0.0,0.012799423506633547,0.012337545575704054,0.012164799355061278,,2017-07-08 00:16:46.358000040,2017-07-08 00:27:53.544000149,67,0.0,0.0,0.0
4,0.0,0.026376068881268366,0.018696538935484057,0.026376068881268366,,2017-07-08 00:28:01.546000004,2017-07-08 01:19:01.394000053,4,0.0,0.0,0.0
5,0.0,0.04297392427199074,0.026358353764190545,0.04297392427199074,,2017-07-08 01:30:43.582000017,2017-07-08 02:46:08.798000097,5,0.0,0.0,0.0
6,0.0,0.06461501878770823,0.056624228642543774,0.03954731462308483,,2017-07-08 03:31:36.525000095,2017-07-08 03:54:42.910000086,138,0.0,0.0,0.0
7,0.0,0.004052945577350771,0.004052945577350771,0.004052945577350771,,2017-07-08 03:57:43.960000038,2017-07-08 04:23:05.384999990,1,0.0,0.0,0.0
8,0.0,0.023295588496359453,0.022795445252172676,0.02255113598321411,,2017-07-08 06:32:30.479000092,2017-07-08 06:43:37.657999992,67,0.0,0.0,0.0
9,0.0,0.004029212051314513,0.004029212051314513,0.004029212051314513,,2017-07-08 07:03:00.975000143,2017-07-08 07:37:15.542999983,1,0.0,0.0,0.0
10,0.0,0.053892302708723874,0.053795371851232066,0.05378101896497861,,2017-07-08 09:43:39.578000069,2017-07-08 09:54:46.763000011,67,0.0,0.0,0.0
11,0.0,0.04109963835998833,0.025766954703278593,0.031227171403050088,,2017-07-08 10:36:31.444999933,2017-07-08 11:16:41.085000038,15,0.0,0.0,0.0
12,0.0,0.1847263257009304,0.15809095934731182,0.1393846940355397,,2017-07-09 00:49:10.302000046,2017-07-09 01:00:17.486000061,67,0.0,0.0,0.0
13,0.0,0.21195832922136476,0.04332887505973923,0.09713517521389133,,2017-07-09 01:14:08.710999966,2017-07-09 02:19:07.750999928,12,0.0,0.0,0.0
14,0.0,0.2519672989740653,0.10456129942015478,0.2197071719218975,,2017-07-09 03:08:19.552999973,2017-07-09 03:31:48.934999943,9,0.0,0.0,0.0
15,0.0,0.03000338327957809,0.016019363700187077,0.01066645956709272,,2017-07-09 04:44:34.123000145,2017-07-09 04:55:41.305999994,67,0.0,0.0,0.0
16,0.0,0.03609691685301335,0.030525792341958596,0.03609691685301335,,2017-07-09 05:12:16.572000027,2017-07-09 06:38:36.973999977,2,0.0,0.0,0.0
17,0.0,0.029627642841678452,0.016395471821830966,0.014011656287738762,,2017-07-09 08:06:30.401999950,2017-07-09 08:17:37.584000111,67,0.0,0.0,0.0
18,0.0,0.016051870447247065,0.0073100390053336805,0.01164733578280549,,2017-07-09 08:19:30.615999937,2017-07-09 09:12:18.476000071,13,0.0,0.0,0.0
19,0.0,0.06872994379499403,0.06099283165948888,0.05547302166551506,,2017-07-09 12:17:43.489000082,2017-07-09 12:28:50.676000118,67,0.0,0.0,0.0
20,0.0,0.026900490585434755,0.00422829984947647,0.011718514397634473,,2017-07-09 13:17:57.479000092,2017-07-09 14:12:27.355000019,12,0.0,0.0,0.0
21,0.0,0.0026048746334034374,0.0025029458952087287,0.0021352044918900334,,2017-07-09 17:20:20.417999983,2017-07-09 17:31:27.600000143,67,0.0,0.0,0.0
22,0.0,0.00460809151709182,0.004117058028441057,0.00460809151709182,,2017-07-09 17:33:01.625000,2017-07-09 17:52:06.933000088,4,0.0,0.0,0.0
23,0.0,0.03593179833620082,0.030174932318504728,0.02643952097252205,,2017-07-09 21:22:05.345000029,2017-07-09 21:33:12.526999950,67,0.0,0.0,0.0
24,0.0,0.0021963597233809512,0.0016245455814346641,0.0021963597233809512,,2017-07-09 21:33:25.531000137,2017-07-09 22:09:37.125000,3,0.0,0.0,0.0
25,0.0,0.2555659437045881,0.22446711137601844,0.17644248064580448,,2017-07-10 02:59:26.832999945,2017-07-10 03:10:34.016999960,67,0.0,0.0,0.0
26,0.0,0.12870972358378654,0.054738923059353864,0.10558733994675831,,2017-07-10 03:26:03.269999981,2017-07-10 04:23:47.222000122,15,0.0,0.0,0.0
27,0.0,0.0789734878464729,0.06147326426213706,0.058767967274378066,,2017-07-10 13:39:55.253999949,2017-07-10 13:51:02.431999922,67,0.0,0.0,0.0
28,0.0,0.028314196253415202,0.021532061980909158,0.022358467943518,,2017-07-10 14:09:33.725000143,2017-07-10 18:05:49.541000128,27,0.0,0.0,0.0
29,0.0,0.02802537415874693,0.009249139887657784,0.007253979162829706,,2017-07-10 18:40:22.097000122,2017-07-10 18:51:29.282000065,67,0.0,0.0,0.0
30,0.0,0.02013751796418493,0.010294715691834475,0.017827142264861658,,2017-07-10 18:54:50.332000017,2017-07-10 21:04:26.430999994,6,0.0,0.0,0.0
31,0.0,0.029673744446810438,0.023666135723214143,0.02021697967450924,,2017-07-10 23:08:45.450000048,2017-07-10 23:19:52.634000063,67,0.0,0.0,0.0
32,0.0,0.06962134144756259,0.0366410701328102,0.02576639285422931,,2017-07-11 00:35:45.861999989,2017-07-11 00:46:53.046000004,67,0.0,0.0,0.0
33,0.0,0.004308368262224026,0.0036993993849967154,0.004308368262224026,,2017-07-11 00:51:07.115000010,2017-07-11 01:39:27.901999950,3,0.0,0.0,0.0
34,0.0,0.004780464791205337,0.00466033900914504,0.004591705291124411,,2017-07-11 03:06:12.298000097,2017-07-11 03:17:19.480999947,67,0.0,0.0,0.0
35,0.0,0.05594140528546839,0.039280849986364524,0.05594140528546839,,2017-07-11 03:40:11.855999947,2017-07-11 04:27:13.640000105,3,0.0,0.0,0.0
36,0.0,0.012462941202026435,0.01246069090373322,0.012370623416299733,,2017-07-11 06:50:32.952000141,2017-07-11 07:13:39.345999956,139,0.0,0.0,0.0
37,0.0,0.0163928409764125,0.008072078803605564,0.01181191121437958,,2017-07-11 07:14:05.354000092,2017-07-11 08:12:06.288000107,17,0.0,0.0,0.0
38,0.0,0.006866944702378091,0.005944234192768588,0.005900431674406016,,2017-07-11 11:56:31.949000120,2017-07-11 12:07:39.134000063,67,0.0,0.0,0.0
39,0.0,1.0,0.3182423966342568,0.4914063932168273,,2017-07-11 12:07:52.138000011,2017-07-11 16:18:40.217999935,26,0.0,0.0,0.0
40,0.0,0.9190913043681297,0.7975183871983142,0.693501374807955,,2017-07-11 16:20:51.253999949,2017-07-11 16:31:58.436000109,67,0.0,0.0,0.0
41,0.0,0.4275741228456428,0.19657747264022357,0.2645545813285975,,2017-07-11 16:32:11.439000130,2017-07-11 17:23:03.263999939,24,0.0,0.0,0.0
42,0.0,0.12488448387908045,0.09993166070955926,0.0574563530384981,,2017-07-11 17:58:18.839999914,2017-07-11 18:21:25.229000092,139,0.0,0.0,0.0
43,0.0,0.04683028434890994,0.04025710789591556,0.03718507602959044,,2017-07-11 20:29:04.306999922,2017-07-11 20:40:11.490999937,67,0.0,0.0,0.0
44,0.0,0.04879064517488196,0.041293178407842454,0.03683629053210245,,2017-07-11 22:25:51.202000141,2017-07-11 22:36:58.375999928,67,0.0,0.0,0.0
45,0.0,0.01165663575013083,0.009086948830588496,0.01165663575013083,,2017-07-11 22:37:13.380000114,2017-07-11 22:57:05.699000120,3,0.0,0.0,0.0
