,y_true,y_pred,y_pred_top_k,y_pred_top_percentage,label_id,timestamp_min,timestamp_max,nb,freq_temp,max_freq_pressure,min_freq_pressure
0,0.0,0.842888409056147,0.7925421285109813,0.8029450703120548,,2017-09-06 00:01:08.782999992,2017-09-06 01:08:12.861999989,33,0.0,0.0,0.0
1,0.0,0.10514295214223639,0.04088681692147517,0.035700026970216715,,2017-09-06 16:30:19.841000080,2017-09-06 16:41:27.026999950,67,0.0,0.0,0.0
2,0.0,0.9778633284844236,0.8195979658462555,0.8558363011405007,,2017-09-06 16:43:16.056999922,2017-09-06 17:55:32.239000082,24,0.0,0.0,0.0
3,0.0,0.11076849599555234,0.05127089648638985,0.0363364096180698,,2017-09-06 18:30:36.809999943,2017-09-06 18:53:43.204999924,139,0.0,0.0,0.0
4,0.0,0.8221252285078419,0.752391488217796,0.777904637172635,,2017-09-06 19:03:40.364000082,2017-09-06 20:05:40.362999916,21,0.0,0.0,0.0
5,0.0,0.09887464541659362,0.04474070989447074,0.026248602818505967,,2017-09-07 09:30:15.467000008,2017-09-07 09:53:21.855999947,138,0.0,0.0,0.0
6,0.0,0.8155311164999047,0.753683391397401,0.7760054163554987,,2017-09-07 09:53:34.858999968,2017-09-07 10:43:48.681999922,23,0.0,0.0,0.0
7,0.0,0.09649540361607577,0.08457838845791374,0.0582837114866979,,2017-09-07 23:17:33.903000116,2017-09-07 23:40:40.294000149,139,0.0,0.0,0.0
8,0.0,0.7809457446007911,0.74615046618208,0.7577879080553344,,2017-09-07 23:49:13.424000025,2017-09-08 00:35:12.167000055,22,0.0,0.0,0.0
9,0.0,0.1673195289667165,0.1009776855656721,0.0723459510520407,,2017-09-08 03:35:21.108999968,2017-09-08 03:58:28.483999968,139,0.0,0.0,0.0
10,0.0,0.7932047729834555,0.7581125264125788,0.7758008032143064,,2017-09-08 04:17:09.786000013,2017-09-08 05:10:16.646000147,22,0.0,0.0,0.0
11,0.0,0.15255242176204878,0.133299426207659,0.09270978773334407,,2017-09-08 18:27:25.552999973,2017-09-08 18:50:32.930999994,139,0.0,0.0,0.0
12,0.0,0.707252671031477,0.7051450762374032,0.707252671031477,,2017-09-08 18:54:23.992000103,2017-09-08 20:48:23.844000101,5,0.0,0.0,0.0
13,0.0,0.0875608794269961,0.02508876610264447,0.018901679822684144,,2017-09-08 20:50:34.878999949,2017-09-08 21:01:42.065000057,67,0.0,0.0,0.0
14,0.0,0.785627533008633,0.7452587913723218,0.7474683001078664,,2017-09-08 21:03:15.091000080,2017-09-08 22:14:29.242000103,35,0.0,0.0,0.0
15,0.0,0.11805295608908932,0.057864884349861166,0.033058712501755606,,2017-09-08 23:35:58.578999996,2017-09-08 23:59:05.960999966,139,0.0,0.0,0.0
16,0.0,0.785964726756007,0.7399467384817742,0.7493097426327825,,2017-09-09 00:07:10.095999956,2017-09-09 01:34:49.515000105,24,0.0,0.0,0.0
17,0.0,0.09007454868050412,0.0376216999639373,0.02298542729488717,,2017-09-09 02:59:39.914999962,2017-09-09 03:22:46.308000088,139,0.0,0.0,0.0
18,0.0,0.80835797074409,0.771705083962236,0.7841066489037759,,2017-09-09 03:25:57.358999968,2017-09-09 04:26:49.358999968,26,0.0,0.0,0.0
19,0.0,0.08788767627975577,0.03679351218499806,0.022557697677820853,,2017-09-09 05:10:09.059000015,2017-09-09 05:33:16.449000120,139,0.0,0.0,0.0
20,0.0,1.0,0.8007132754775862,0.8370680244428726,,2017-09-09 05:36:57.512000083,2017-09-09 06:39:04.535000086,22,0.0,0.0,0.0
21,0.0,0.09184233457144668,0.07352518944246021,0.0501969335260159,,2017-09-09 16:59:33.660000086,2017-09-09 17:22:40.039000034,139,0.0,0.0,0.0
22,0.0,0.800022496544122,0.73803846966739,0.7593638355244227,,2017-09-09 17:27:18.114000082,2017-09-09 18:28:45.105000019,21,0.0,0.0,0.0
23,0.0,0.09754329441207131,0.046287939539024915,0.03553039774565678,,2017-09-09 19:21:44.967999935,2017-09-09 19:44:51.348000050,139,0.0,0.0,0.0
24,0.0,0.7868328186514372,0.7521799565790207,0.7654386011295383,,2017-09-09 21:03:15.618999958,2017-09-09 22:03:01.595999956,22,0.0,0.0,0.0
25,0.0,0.08867199256655157,0.03702578679446532,0.02342031856738666,,2017-09-09 23:07:21.647000074,2017-09-09 23:30:28.038000107,139,0.0,0.0,0.0
26,0.0,0.7724437496298352,0.7436282574387163,0.7520038854242966,,2017-09-09 23:48:27.324000120,2017-09-10 01:11:20.664999962,25,0.0,0.0,0.0
27,0.0,0.09805346417444405,0.046993516327959936,0.03500261138611327,,2017-09-10 04:41:45.095999956,2017-09-10 05:04:51.486999989,139,0.0,0.0,0.0
28,0.0,0.7695121030044927,0.7323662351734596,0.7445326232915888,,2017-09-10 05:17:22.694999933,2017-09-10 06:25:45.808000088,21,0.0,0.0,0.0
29,0.0,0.09978175922897643,0.036631428034305274,0.02964893849430356,,2017-09-11 00:23:57.364000082,2017-09-11 00:35:04.549999952,67,0.0,0.0,0.0
30,0.0,0.8381203942314004,0.7606251763652192,0.7780491646986496,,2017-09-11 01:48:05.726000071,2017-09-11 02:38:21.552000046,22,0.0,0.0,0.0
31,0.0,0.11230284652987914,0.057399447033227115,0.037717975131795124,,2017-09-11 16:48:59.368000031,2017-09-11 17:12:06.750999928,139,0.0,0.0,0.0
32,0.0,0.705475235326264,0.702670817487435,0.705475235326264,,2017-09-11 17:31:02.056999922,2017-09-11 17:54:06.440000057,2,0.0,0.0,0.0
33,0.0,0.09223164568407392,0.04073743912610743,0.03063395728249229,,2017-09-11 22:58:45.373000145,2017-09-11 23:21:52.766000032,139,0.0,0.0,0.0
34,0.0,0.7898304201982571,0.7463981245723625,0.7587352068373381,,2017-09-11 23:23:11.788000107,2017-09-12 00:35:44.980999947,23,0.0,0.0,0.0
35,0.0,0.09066343410113759,0.03863191840583148,0.02494942044958042,,2017-09-12 14:02:49.134999990,2017-09-12 14:25:56.519999981,139,0.0,0.0,0.0
36,0.0,0.7685080390730168,0.732632518530447,0.7410655013189165,,2017-09-12 14:38:52.730000019,2017-09-12 15:36:49.663000107,22,0.0,0.0,0.0
37,0.0,0.09212306278040588,0.039605393088918465,0.026085776402070857,,2017-09-12 20:16:23.191999912,2017-09-12 20:39:30.575000048,139,0.0,0.0,0.0
38,0.0,0.7842898365160015,0.740919373316979,0.7565157149509981,,2017-09-12 20:39:40.578000069,2017-09-12 21:37:08.519999981,22,0.0,0.0,0.0
