,y_true,y_pred,y_pred_top_k,y_pred_top_percentage,label_id,timestamp_min,timestamp_max,nb,freq_temp,max_freq_pressure,min_freq_pressure
0,0.0,0.5824798419666014,0.10015134024667938,0.06981617317335864,,2017-04-20 14:20:56.358000040,2017-04-20 14:31:43.541000128,65,0.0,0.0,0.0
1,0.0,0.7088436175378993,0.2051071793818639,0.15842063166356074,,2017-04-20 16:11:15.118000031,2017-04-20 16:22:02.289000034,65,0.0,0.0,0.0
2,0.0,0.6879277200624687,0.23712430307339588,0.19474972094394088,,2017-04-20 16:46:29.674999952,2017-04-20 16:57:16.847000122,65,0.0,0.0,0.0
3,0.0,0.9502327938393805,0.4439349242935394,0.4130546164218514,,2017-04-21 09:02:12.181999922,2017-04-21 09:12:59.355000019,65,0.0,0.0,0.0
4,0.0,0.6757245273536452,0.34401848057500967,0.27765014837431384,,2017-04-21 16:46:25.549000025,2017-04-21 16:57:12.726999998,65,0.0,0.0,0.0
5,0.0,0.3509884319399188,0.213325654238892,0.17670793160865894,,2017-04-22 13:57:15.804000139,2017-04-22 14:08:02.977999926,65,0.0,0.0,0.0
6,0.0,1.0,0.46377323704451723,0.4278558298842469,,2017-04-23 21:09:23.657000065,2017-04-23 21:20:10.829999924,65,0.0,0.0,0.0
