,y_true,y_pred,y_pred_top_k,y_pred_top_percentage,label_id,timestamp_min,timestamp_max,nb,freq_temp,max_freq_pressure,min_freq_pressure
0,0.0,0.17462325900589504,0.14264922821878961,0.1179960030502424,,2017-06-21 11:55:44.513999938,2017-06-21 12:06:50.703000069,66,0.0,0.0,0.0
1,0.0,0.20419433026363681,0.09239788506495675,0.07375394823637924,,2017-06-21 12:34:50.150000095,2017-06-21 18:53:12.351000071,56,0.0,0.0,0.0
2,0.0,0.2035343279299232,0.1899707298298832,0.15706665247550836,,2017-06-21 19:27:45.924000025,2017-06-21 19:50:52.321000099,139,0.0,0.0,0.0
3,0.0,0.08989090439501533,0.044317372201563475,0.06341373445385481,,2017-06-21 19:51:07.324000120,2017-06-21 20:25:57.887000084,18,0.0,0.0,0.0
4,0.0,0.6623039771556302,0.6021511711417034,0.5045831622437216,,2017-06-21 21:06:26.559999943,2017-06-21 21:29:33.946000099,139,0.0,0.0,0.0
5,0.0,0.45403288055773805,0.1018932463585606,0.15182506247500174,,2017-06-21 22:38:23.068000078,2017-06-21 23:45:01.170000076,24,0.0,0.0,0.0
6,0.0,0.2570152398650339,0.2560577956072733,0.22363292598332996,,2017-06-22 13:18:43.381000042,2017-06-22 13:41:49.775000095,138,0.0,0.0,0.0
7,0.0,0.017296779482460327,0.017005482984994144,0.017296779482460327,,2017-06-22 13:48:00.875999928,2017-06-22 17:25:44.417999983,2,0.0,0.0,0.0
8,0.0,0.18976014689771376,0.17127430757732354,0.1395045263493532,,2017-06-22 17:27:55.453000069,2017-06-22 17:39:02.633000135,67,0.0,0.0,0.0
9,0.0,0.4216184814840402,0.06820772985050975,0.09673713447850509,,2017-06-22 17:39:10.635999918,2017-06-22 19:10:20.117000103,26,0.0,0.0,0.0
10,0.0,0.23020891070902536,0.2161866815178489,0.18338700681259684,,2017-06-22 20:10:13.112999916,2017-06-22 20:33:20.495000124,139,0.0,0.0,0.0
11,0.0,0.49789442255716615,0.14590605952476127,0.19742522266512563,,2017-06-22 20:37:55.571000099,2017-06-22 21:59:14.911999941,29,0.0,0.0,0.0
12,0.0,0.35991513825930305,0.287780911082406,0.24513511388810985,,2017-06-22 22:38:34.554000139,2017-06-22 23:01:41.940000057,139,0.0,0.0,0.0
13,0.0,0.5493219683380571,0.1606757882826835,0.24774174730937848,,2017-06-22 23:18:46.214999914,2017-06-23 00:13:54.128000020,23,0.0,0.0,0.0
14,0.0,0.2830224982131686,0.26775015666157387,0.23549648165508238,,2017-06-23 01:00:40.884000063,2017-06-23 01:23:47.275000095,139,0.0,0.0,0.0
15,0.0,0.2356849640355553,0.07434597383096483,0.09482039523433046,,2017-06-23 01:46:10.644999981,2017-06-23 02:40:46.525000095,28,0.0,0.0,0.0
16,0.0,0.18692914171338212,0.16577292091181708,0.13407476345622327,,2017-06-23 09:45:44.416000128,2017-06-23 09:56:51.598999977,67,0.0,0.0,0.0
17,0.0,0.1055096313095664,0.04306576283379919,0.041232299416979284,,2017-06-23 10:25:18.069000006,2017-06-23 12:49:20.414999962,45,0.0,0.0,0.0
18,0.0,0.27129722256090777,0.24070135839379114,0.2093799500050615,,2017-06-23 19:51:43.319000006,2017-06-23 20:14:49.703000069,139,0.0,0.0,0.0
19,0.0,0.18848443855419197,0.16955739579061388,0.14080029264179125,,2017-06-23 22:21:30.779000044,2017-06-23 22:32:37.957999945,67,0.0,0.0,0.0
20,0.0,0.329346422312131,0.09280085876852175,0.13874320984006414,,2017-06-23 22:37:23.036999941,2017-06-23 23:55:59.341000080,24,0.0,0.0,0.0
21,0.0,0.20859095249274429,0.19299726024800432,0.1609687721144118,,2017-06-24 10:40:29.848000050,2017-06-24 11:03:37.240000010,139,0.0,0.0,0.0
22,0.0,0.2429309288376555,0.20739908204220153,0.1657743679473843,,2017-06-24 15:02:34.148000002,2017-06-24 15:25:40.542000055,139,0.0,0.0,0.0
23,0.0,1.0,0.2424262476493137,0.2424262476493137,,2017-06-24 15:25:54.545000076,2017-06-24 18:55:52.009000063,39,0.0,0.0,0.0
24,0.0,0.207338156347604,0.1923257009549863,0.1596129397223669,,2017-06-24 21:48:03.838999987,2017-06-24 22:11:10.232000113,139,0.0,0.0,0.0
25,0.0,0.06795560543906905,0.03197798413204725,0.03487999356178174,,2017-06-24 22:28:56.523000001,2017-06-25 00:01:28.031000137,28,0.0,0.0,0.0
26,0.0,0.1919621598329635,0.17781999226252665,0.14530439249094715,,2017-06-25 01:21:11.339999914,2017-06-25 01:44:18.726000071,139,0.0,0.0,0.0
27,0.0,0.4714323437404945,0.2824285199515681,0.3572471340839151,,2017-06-25 01:44:26.727999926,2017-06-25 02:36:24.582999945,24,0.0,0.0,0.0
28,0.0,0.4446765630310896,0.35767219254358124,0.2551241528904805,,2017-06-25 03:32:17.500000,2017-06-25 03:55:24.893000126,139,0.0,0.0,0.0
29,0.0,0.0679561606037947,0.03232535467450116,0.038110690379833854,,2017-06-25 03:59:13.957999945,2017-06-25 04:49:28.782000065,20,0.0,0.0,0.0
30,0.0,0.22837377291172398,0.21509735962864657,0.18183619640425935,,2017-06-25 22:16:40.838000059,2017-06-25 22:39:48.222000122,139,0.0,0.0,0.0
31,0.0,0.5579381097630475,0.16463847614971922,0.30033149372343887,,2017-06-25 22:42:23.259000063,2017-06-25 23:35:01.114000082,21,0.0,0.0,0.0
32,0.0,0.2823928502845505,0.2683635780796359,0.23651907883889944,,2017-06-26 10:56:01.186000109,2017-06-26 11:19:07.572000027,139,0.0,0.0,0.0
33,0.0,0.18906141196611914,0.16804703109723487,0.13757992366337854,,2017-06-26 12:45:28.957000017,2017-06-26 12:56:36.143000126,67,0.0,0.0,0.0
34,0.0,0.6032568735467875,0.5244078713143001,0.4598535737843863,,2017-06-26 14:22:53.538000107,2017-06-26 14:34:00.717999935,67,0.0,0.0,0.0
35,0.0,0.36589477372510987,0.07343337856088367,0.15694865269181238,,2017-06-26 14:41:57.841000080,2017-06-26 17:02:52.121000051,15,0.0,0.0,0.0
36,0.0,0.25283665089187,0.156576759156365,0.13617438678972327,,2017-06-26 19:08:39.147000074,2017-06-26 19:19:46.332000017,67,0.0,0.0,0.0
37,0.0,0.45436931747816073,0.21981838882992238,0.29065956937220705,,2017-06-26 19:36:41.608000040,2017-06-26 22:37:13.542000055,29,0.0,0.0,0.0
38,0.0,0.4165672931533413,0.379797373964807,0.3270617823791585,,2017-06-27 10:27:34.091000080,2017-06-27 10:50:40.486000061,139,0.0,0.0,0.0
39,0.0,0.40480469732988666,0.30942323228835433,0.2891885146951985,,2017-06-27 11:48:00.421999931,2017-06-27 11:59:07.598000050,67,0.0,0.0,0.0
40,0.0,0.5789023058620015,0.139708371496501,0.18831045395184492,,2017-06-27 11:59:20.601000071,2017-06-27 14:12:29.771000147,28,0.0,0.0,0.0
