,y_true,y_pred,y_pred_top_k,y_pred_top_percentage,label_id,timestamp_min,timestamp_max,nb,freq_temp,max_freq_pressure,min_freq_pressure
0,0.0,0.037785206242846966,0.037776762949946384,0.03776753926219696,,2018-09-28 04:13:13.671999931,2018-09-28 04:32:49.998000145,117,1.1505363370877448,-1.150536337087745,-1.150536337087745
1,0.0,0.03846611617443098,0.03801191105541276,0.037971708514729315,,2018-09-28 05:02:13.480000019,2018-09-28 08:24:14.727999926,47,1.1505363370877448,-1.150536337087745,-1.150536337087745
2,0.0,0.0373568644283052,0.0373197200055164,0.03728772887882324,,2018-09-28 09:24:52.703999996,2018-09-28 09:44:29.023000002,118,1.1505363370877448,-1.150536337087745,-1.150536337087745
3,0.0,0.037811576099884565,0.037797537348357405,0.037788299799531154,,2018-09-28 23:27:48.180000067,2018-09-28 23:38:14.348999977,63,1.1505363370877448,-1.150536337087745,-1.150536337087745
4,0.0,0.03830717375039712,0.037900050535087035,0.03802261439686736,,2018-09-28 23:54:33.611999989,2018-09-29 00:59:13.657000065,21,1.1505363370877448,-1.150536337087745,-1.150536337087745
5,0.0,0.03811730202619111,0.03760308821376464,0.037417822063628495,,2018-09-29 14:24:23.577000141,2018-09-29 14:43:59.904000044,117,1.1505363370877448,-1.150536337087745,-1.150536337087745
6,0.0,0.03787879117315542,0.037675143928911733,0.037772288219792456,,2018-09-29 14:48:43.976999998,2018-09-29 15:31:30.664999962,23,1.1505363370877448,-1.150536337087745,-1.150536337087745
7,0.0,0.03810302801223462,0.03797793210028896,0.03776335459931674,,2018-09-29 16:23:50.512000083,2018-09-29 16:43:26.838999987,117,1.1505363370877448,-1.150536337087745,-1.150536337087745
8,0.0,0.03790527290759606,0.03769529149966987,0.03780766424083261,,2018-09-29 16:55:18.022000074,2018-09-29 17:52:46.950999975,21,1.1505363370877448,-1.150536337087745,-1.150536337087745
9,0.0,0.037316875125587796,0.037294051061276465,0.03727782244983611,,2018-09-30 04:05:32.763999939,2018-09-30 04:25:09.078000069,118,1.1505363370877448,-1.150536337087745,-1.150536337087745
10,0.0,0.037372387291533755,0.037364925333430186,0.037358649064735114,,2018-09-30 08:04:04.589999914,2018-09-30 08:14:31.759999990,63,1.1505363370877448,-1.150536337087745,-1.150536337087745
11,0.0,0.037734460880954744,0.03758399530896168,0.0376254637184105,,2018-09-30 08:19:06.835000038,2018-09-30 10:30:26.960999966,29,1.1505363370877448,-1.150536337087745,-1.150536337087745
12,0.0,0.03815807756588277,0.03812407045337934,0.03806893565905279,,2018-09-30 17:34:03.743999958,2018-09-30 17:53:40.068000078,118,1.1505363370877448,-1.150536337087745,-1.150536337087745
13,0.0,0.03869820423408455,0.03800982214788519,0.03810595377915481,,2018-09-30 18:12:36.378000021,2018-09-30 19:05:31.220000029,32,1.1505363370877448,-1.150536337087745,-1.150536337087745
14,0.0,2.6617685168028572e-05,1.4910461891418044e-05,1.0768583265170963e-05,,2018-10-01 05:20:29.065000057,2018-10-01 05:40:05.388000011,118,-0.8691598585501568,0.869159858550157,0.869159858550157
15,0.0,0.0008700742525524462,0.0005693888842002103,0.0007025392429143803,,2018-10-01 05:42:35.427999973,2018-10-01 06:45:50.431999922,22,-0.8691598585501568,0.869159858550157,0.869159858550157
16,0.0,0.0010158199373589225,0.0008909991779537686,0.0008278214778105857,,2018-10-01 14:08:25.506000042,2018-10-01 14:28:01.825999975,117,-0.8691598585501568,0.869159858550157,0.869159858550157
17,0.0,0.00012965613102170913,0.00011992213417022591,0.00011528971068925317,,2018-10-01 20:42:05.805000067,2018-10-01 20:52:31.973999977,62,-0.8691598585501568,0.869159858550157,0.869159858550157
18,0.0,0.0008029037880986033,0.0005091233395085655,0.0005816389178331002,,2018-10-01 21:04:04.157999992,2018-10-01 22:44:10.763000011,32,-0.8691598585501568,0.869159858550157,0.869159858550157
19,0.0,0.001846785366946292,0.001702852768420575,0.0014398424088666658,,2018-10-02 05:09:23.937999964,2018-10-02 05:29:00.260999918,118,-0.8691598585501568,0.869159858550157,0.869159858550157
20,0.0,9.582105518362986e-05,7.383198021435294e-05,7.574286038123412e-05,,2018-10-02 05:50:51.614000082,2018-10-02 11:53:26.411999941,37,-0.8691598585501568,0.869159858550157,0.869159858550157
21,0.0,0.0001866102658225215,0.00017794264157261122,0.0001707201403547742,,2018-10-02 12:16:37.789999962,2018-10-02 12:27:04.957999945,63,-0.8691598585501568,0.869159858550157,0.869159858550157
22,0.0,0.00016741189754307506,0.00016190024515915077,0.0001673668021000134,,2018-10-02 12:27:17.962000132,2018-10-02 13:13:48.720999956,7,-0.8691598585501568,0.869159858550157,0.869159858550157
23,0.0,0.0002288433247676671,0.00022287744689566754,0.00021975637282511875,,2018-10-02 14:37:20.055000067,2018-10-02 14:47:47.223000050,63,-0.8691598585501568,0.869159858550157,0.869159858550157
24,0.0,0.00019064816931288345,0.0001701617513718008,0.00019062220848589,,2018-10-02 14:48:13.229000092,2018-10-02 15:07:05.535000086,7,-0.8691598585501568,0.869159858550157,0.869159858550157
25,0.0,0.0002806387523936428,0.00027887530974004344,0.00027705481075840355,,2018-10-02 18:44:09.032999992,2018-10-02 18:54:35.203000069,63,-0.8691598585501568,0.869159858550157,0.869159858550157
26,0.0,0.00030943296292180984,0.00024677667384134783,0.0002763812009242618,,2018-10-02 19:02:47.335000038,2018-10-02 19:31:10.786000013,6,-0.8691598585501568,0.869159858550157,0.869159858550157
27,0.0,0.00030778323838192363,0.00029924978395106587,0.000297170709475609,,2018-10-02 22:02:32.207999945,2018-10-02 22:12:58.375999928,63,-0.8691598585501568,0.869159858550157,0.869159858550157
28,0.0,0.0010599757276026972,0.000655277164035419,0.0007340997292711327,,2018-10-02 22:43:46.871000051,2018-10-03 00:26:37.516999960,27,-0.8691598585501568,0.869159858550157,0.869159858550157
29,0.0,0.0003484265681887135,0.0003339661686227819,0.0003040361361521604,,2018-10-03 11:52:44.495000124,2018-10-03 12:12:20.819999933,117,-0.8691598585501568,0.869159858550157,0.869159858550157
30,0.0,0.0010658714110287136,0.0007195000533313414,0.0008732999392154291,,2018-10-03 12:23:59.008000135,2018-10-03 13:14:33.812999964,22,-0.8691598585501568,0.869159858550157,0.869159858550157
31,0.0,0.0005466289890062993,0.000473394040061752,0.0004306888521328688,,2018-10-03 21:27:31.725000143,2018-10-03 21:47:08.046000004,118,-0.8691598585501568,0.869159858550157,0.869159858550157
32,1.0,1.0,0.10534095990785844,0.052918598798055425,2671762,2018-10-03 23:17:08.480999947,2018-10-04 21:31:07.881999969,268,-0.8691598585501568,0.869159858550157,0.869159858550157
