%!PS-Adobe-3.0 EPSF-3.0
%%Creator: (MATLAB, The Mathworks, Inc. Version 9.4.0.813654 \(R2018a\). Operating System: Mac OS X)
%%Title: /Users/thiebout/master/anomaly-detection-mki-2019/text-2019/img/results/fs/iforest/progress.eps
%%CreationDate: 2019-06-02T13:44:09
%%Pages: (atend)
%%BoundingBox: 0 0 800 400
%%LanguageLevel: 3
%%EndComments
%%BeginProlog
%%BeginResource: procset (Apache XML Graphics Std ProcSet) 1.2 0
%%Version: 1.2 0
%%Copyright: (Copyright 2001-2003,2010 The Apache Software Foundation. License terms: http://www.apache.org/licenses/LICENSE-2.0)
/bd{bind def}bind def
/ld{load def}bd
/GR/grestore ld
/GS/gsave ld
/RM/rmoveto ld
/C/curveto ld
/t/show ld
/L/lineto ld
/ML/setmiterlimit ld
/CT/concat ld
/f/fill ld
/N/newpath ld
/S/stroke ld
/CC/setcmykcolor ld
/A/ashow ld
/cp/closepath ld
/RC/setrgbcolor ld
/LJ/setlinejoin ld
/GC/setgray ld
/LW/setlinewidth ld
/M/moveto ld
/re {4 2 roll M
1 index 0 rlineto
0 exch rlineto
neg 0 rlineto
cp } bd
/_ctm matrix def
/_tm matrix def
/BT { _ctm currentmatrix pop matrix _tm copy pop 0 0 moveto } bd
/ET { _ctm setmatrix } bd
/iTm { _ctm setmatrix _tm concat } bd
/Tm { _tm astore pop iTm 0 0 moveto } bd
/ux 0.0 def
/uy 0.0 def
/F {
  /Tp exch def
  /Tf exch def
  Tf findfont Tp scalefont setfont
  /cf Tf def  /cs Tp def
} bd
/ULS {currentpoint /uy exch def /ux exch def} bd
/ULE {
  /Tcx currentpoint pop def
  gsave
  newpath
  cf findfont cs scalefont dup
  /FontMatrix get 0 get /Ts exch def /FontInfo get dup
  /UnderlinePosition get Ts mul /To exch def
  /UnderlineThickness get Ts mul /Tt exch def
  ux uy To add moveto  Tcx uy To add lineto
  Tt setlinewidth stroke
  grestore
} bd
/OLE {
  /Tcx currentpoint pop def
  gsave
  newpath
  cf findfont cs scalefont dup
  /FontMatrix get 0 get /Ts exch def /FontInfo get dup
  /UnderlinePosition get Ts mul /To exch def
  /UnderlineThickness get Ts mul /Tt exch def
  ux uy To add cs add moveto Tcx uy To add cs add lineto
  Tt setlinewidth stroke
  grestore
} bd
/SOE {
  /Tcx currentpoint pop def
  gsave
  newpath
  cf findfont cs scalefont dup
  /FontMatrix get 0 get /Ts exch def /FontInfo get dup
  /UnderlinePosition get Ts mul /To exch def
  /UnderlineThickness get Ts mul /Tt exch def
  ux uy To add cs 10 mul 26 idiv add moveto Tcx uy To add cs 10 mul 26 idiv add lineto
  Tt setlinewidth stroke
  grestore
} bd
/QT {
/Y22 exch store
/X22 exch store
/Y21 exch store
/X21 exch store
currentpoint
/Y21 load 2 mul add 3 div exch
/X21 load 2 mul add 3 div exch
/X21 load 2 mul /X22 load add 3 div
/Y21 load 2 mul /Y22 load add 3 div
/X22 load /Y22 load curveto
} bd
/SSPD {
dup length /d exch dict def
{
/v exch def
/k exch def
currentpagedevice k known {
/cpdv currentpagedevice k get def
v cpdv ne {
/upd false def
/nullv v type /nulltype eq def
/nullcpdv cpdv type /nulltype eq def
nullv nullcpdv or
{
/upd true def
} {
/sametype v type cpdv type eq def
sametype {
v type /arraytype eq {
/vlen v length def
/cpdvlen cpdv length def
vlen cpdvlen eq {
0 1 vlen 1 sub {
/i exch def
/obj v i get def
/cpdobj cpdv i get def
obj cpdobj ne {
/upd true def
exit
} if
} for
} {
/upd true def
} ifelse
} {
v type /dicttype eq {
v {
/dv exch def
/dk exch def
/cpddv cpdv dk get def
dv cpddv ne {
/upd true def
exit
} if
} forall
} {
/upd true def
} ifelse
} ifelse
} if
} ifelse
upd true eq {
d k v put
} if
} if
} if
} forall
d length 0 gt {
d setpagedevice
} if
} bd
/RE { % /NewFontName [NewEncodingArray] /FontName RE -
  findfont dup length dict begin
  {
    1 index /FID ne
    {def} {pop pop} ifelse
  } forall
  /Encoding exch def
  /FontName 1 index def
  currentdict definefont pop
  end
} bind def
%%EndResource
%%BeginResource: procset (Apache XML Graphics EPS ProcSet) 1.0 0
%%Version: 1.0 0
%%Copyright: (Copyright 2002-2003 The Apache Software Foundation. License terms: http://www.apache.org/licenses/LICENSE-2.0)
/BeginEPSF { %def
/b4_Inc_state save def         % Save state for cleanup
/dict_count countdictstack def % Count objects on dict stack
/op_count count 1 sub def      % Count objects on operand stack
userdict begin                 % Push userdict on dict stack
/showpage { } def              % Redefine showpage, { } = null proc
0 setgray 0 setlinecap         % Prepare graphics state
1 setlinewidth 0 setlinejoin
10 setmiterlimit [ ] 0 setdash newpath
/languagelevel where           % If level not equal to 1 then
{pop languagelevel             % set strokeadjust and
1 ne                           % overprint to their defaults.
{false setstrokeadjust false setoverprint
} if
} if
} bd
/EndEPSF { %def
count op_count sub {pop} repeat            % Clean up stacks
countdictstack dict_count sub {end} repeat
b4_Inc_state restore
} bd
%%EndResource
%FOPBeginFontDict
%%IncludeResource: font Courier-Oblique
%%IncludeResource: font Courier-BoldOblique
%%IncludeResource: font Courier-Bold
%%IncludeResource: font ZapfDingbats
%%IncludeResource: font Symbol
%%IncludeResource: font Helvetica
%%IncludeResource: font Helvetica-Oblique
%%IncludeResource: font Helvetica-Bold
%%IncludeResource: font Helvetica-BoldOblique
%%IncludeResource: font Times-Roman
%%IncludeResource: font Times-Italic
%%IncludeResource: font Times-Bold
%%IncludeResource: font Times-BoldItalic
%%IncludeResource: font Courier
%FOPEndFontDict
%%BeginResource: encoding WinAnsiEncoding
/WinAnsiEncoding [
/.notdef /.notdef /.notdef /.notdef /.notdef
/.notdef /.notdef /.notdef /.notdef /.notdef
/.notdef /.notdef /.notdef /.notdef /.notdef
/.notdef /.notdef /.notdef /.notdef /.notdef
/.notdef /.notdef /.notdef /.notdef /.notdef
/.notdef /.notdef /.notdef /.notdef /.notdef
/.notdef /.notdef /space /exclam /quotedbl
/numbersign /dollar /percent /ampersand /quotesingle
/parenleft /parenright /asterisk /plus /comma
/hyphen /period /slash /zero /one
/two /three /four /five /six
/seven /eight /nine /colon /semicolon
/less /equal /greater /question /at
/A /B /C /D /E
/F /G /H /I /J
/K /L /M /N /O
/P /Q /R /S /T
/U /V /W /X /Y
/Z /bracketleft /backslash /bracketright /asciicircum
/underscore /quoteleft /a /b /c
/d /e /f /g /h
/i /j /k /l /m
/n /o /p /q /r
/s /t /u /v /w
/x /y /z /braceleft /bar
/braceright /asciitilde /bullet /Euro /bullet
/quotesinglbase /florin /quotedblbase /ellipsis /dagger
/daggerdbl /circumflex /perthousand /Scaron /guilsinglleft
/OE /bullet /Zcaron /bullet /bullet
/quoteleft /quoteright /quotedblleft /quotedblright /bullet
/endash /emdash /asciitilde /trademark /scaron
/guilsinglright /oe /bullet /zcaron /Ydieresis
/space /exclamdown /cent /sterling /currency
/yen /brokenbar /section /dieresis /copyright
/ordfeminine /guillemotleft /logicalnot /sfthyphen /registered
/macron /degree /plusminus /twosuperior /threesuperior
/acute /mu /paragraph /middot /cedilla
/onesuperior /ordmasculine /guillemotright /onequarter /onehalf
/threequarters /questiondown /Agrave /Aacute /Acircumflex
/Atilde /Adieresis /Aring /AE /Ccedilla
/Egrave /Eacute /Ecircumflex /Edieresis /Igrave
/Iacute /Icircumflex /Idieresis /Eth /Ntilde
/Ograve /Oacute /Ocircumflex /Otilde /Odieresis
/multiply /Oslash /Ugrave /Uacute /Ucircumflex
/Udieresis /Yacute /Thorn /germandbls /agrave
/aacute /acircumflex /atilde /adieresis /aring
/ae /ccedilla /egrave /eacute /ecircumflex
/edieresis /igrave /iacute /icircumflex /idieresis
/eth /ntilde /ograve /oacute /ocircumflex
/otilde /odieresis /divide /oslash /ugrave
/uacute /ucircumflex /udieresis /yacute /thorn
/ydieresis
] def
%%EndResource
%FOPBeginFontReencode
/Courier-Oblique findfont
dup length dict begin
  {1 index /FID ne {def} {pop pop} ifelse} forall
  /Encoding WinAnsiEncoding def
  currentdict
end
/Courier-Oblique exch definefont pop
/Courier-BoldOblique findfont
dup length dict begin
  {1 index /FID ne {def} {pop pop} ifelse} forall
  /Encoding WinAnsiEncoding def
  currentdict
end
/Courier-BoldOblique exch definefont pop
/Courier-Bold findfont
dup length dict begin
  {1 index /FID ne {def} {pop pop} ifelse} forall
  /Encoding WinAnsiEncoding def
  currentdict
end
/Courier-Bold exch definefont pop
/Helvetica findfont
dup length dict begin
  {1 index /FID ne {def} {pop pop} ifelse} forall
  /Encoding WinAnsiEncoding def
  currentdict
end
/Helvetica exch definefont pop
/Helvetica-Oblique findfont
dup length dict begin
  {1 index /FID ne {def} {pop pop} ifelse} forall
  /Encoding WinAnsiEncoding def
  currentdict
end
/Helvetica-Oblique exch definefont pop
/Helvetica-Bold findfont
dup length dict begin
  {1 index /FID ne {def} {pop pop} ifelse} forall
  /Encoding WinAnsiEncoding def
  currentdict
end
/Helvetica-Bold exch definefont pop
/Helvetica-BoldOblique findfont
dup length dict begin
  {1 index /FID ne {def} {pop pop} ifelse} forall
  /Encoding WinAnsiEncoding def
  currentdict
end
/Helvetica-BoldOblique exch definefont pop
/Times-Roman findfont
dup length dict begin
  {1 index /FID ne {def} {pop pop} ifelse} forall
  /Encoding WinAnsiEncoding def
  currentdict
end
/Times-Roman exch definefont pop
/Times-Italic findfont
dup length dict begin
  {1 index /FID ne {def} {pop pop} ifelse} forall
  /Encoding WinAnsiEncoding def
  currentdict
end
/Times-Italic exch definefont pop
/Times-Bold findfont
dup length dict begin
  {1 index /FID ne {def} {pop pop} ifelse} forall
  /Encoding WinAnsiEncoding def
  currentdict
end
/Times-Bold exch definefont pop
/Times-BoldItalic findfont
dup length dict begin
  {1 index /FID ne {def} {pop pop} ifelse} forall
  /Encoding WinAnsiEncoding def
  currentdict
end
/Times-BoldItalic exch definefont pop
/Courier findfont
dup length dict begin
  {1 index /FID ne {def} {pop pop} ifelse} forall
  /Encoding WinAnsiEncoding def
  currentdict
end
/Courier exch definefont pop
%FOPEndFontReencode
%%EndProlog
%%Page: 1 1
%%PageBoundingBox: 0 0 800 400
%%BeginPageSetup
[1 0 0 -1 0 400] CT
%%EndPageSetup
GS
1 GC
N
0 0 800 400 re
f
GR
GS
1 GC
N
0 0 800 400 re
f
GR
GS
1 GC
N
104 356 M
724 356 L
724 34 L
104 34 L
cp
f
GR
GS
0.149 GC
2 setlinecap
1 LJ
0.5 LW
N
104 356 M
724 356 L
S
GR
GS
0.149 GC
2 setlinecap
1 LJ
0.5 LW
N
104 34 M
724 34 L
S
GR
GS
0.149 GC
2 setlinecap
1 LJ
0.5 LW
N
136.632 356 M
136.632 349.8 L
S
GR
GS
0.149 GC
2 setlinecap
1 LJ
0.5 LW
N
201.895 356 M
201.895 349.8 L
S
GR
GS
0.149 GC
2 setlinecap
1 LJ
0.5 LW
N
267.158 356 M
267.158 349.8 L
S
GR
GS
0.149 GC
2 setlinecap
1 LJ
0.5 LW
N
332.421 356 M
332.421 349.8 L
S
GR
GS
0.149 GC
2 setlinecap
1 LJ
0.5 LW
N
397.684 356 M
397.684 349.8 L
S
GR
GS
0.149 GC
2 setlinecap
1 LJ
0.5 LW
N
462.947 356 M
462.947 349.8 L
S
GR
GS
0.149 GC
2 setlinecap
1 LJ
0.5 LW
N
528.211 356 M
528.211 349.8 L
S
GR
GS
0.149 GC
2 setlinecap
1 LJ
0.5 LW
N
593.474 356 M
593.474 349.8 L
S
GR
GS
0.149 GC
2 setlinecap
1 LJ
0.5 LW
N
658.737 356 M
658.737 349.8 L
S
GR
GS
0.149 GC
2 setlinecap
1 LJ
0.5 LW
N
724 356 M
724 349.8 L
S
GR
GS
0.149 GC
2 setlinecap
1 LJ
0.5 LW
N
136.632 34 M
136.632 40.2 L
S
GR
GS
0.149 GC
2 setlinecap
1 LJ
0.5 LW
N
201.895 34 M
201.895 40.2 L
S
GR
GS
0.149 GC
2 setlinecap
1 LJ
0.5 LW
N
267.158 34 M
267.158 40.2 L
S
GR
GS
0.149 GC
2 setlinecap
1 LJ
0.5 LW
N
332.421 34 M
332.421 40.2 L
S
GR
GS
0.149 GC
2 setlinecap
1 LJ
0.5 LW
N
397.684 34 M
397.684 40.2 L
S
GR
GS
0.149 GC
2 setlinecap
1 LJ
0.5 LW
N
462.947 34 M
462.947 40.2 L
S
GR
GS
0.149 GC
2 setlinecap
1 LJ
0.5 LW
N
528.211 34 M
528.211 40.2 L
S
GR
GS
0.149 GC
2 setlinecap
1 LJ
0.5 LW
N
593.474 34 M
593.474 40.2 L
S
GR
GS
0.149 GC
2 setlinecap
1 LJ
0.5 LW
N
658.737 34 M
658.737 40.2 L
S
GR
GS
0.149 GC
2 setlinecap
1 LJ
0.5 LW
N
724 34 M
724 40.2 L
S
GR
GS
[1 0 0 1 136.63158 361] CT
0.149 GC
/Helvetica 15 F
GS
[1 0 0 1 0 0] CT
-4.5 15 moveto 
1 -1 scale
(2) t 
GR
GR
GS
[1 0 0 1 201.89473 361] CT
0.149 GC
/Helvetica 15 F
GS
[1 0 0 1 0 0] CT
-4.5 15 moveto 
1 -1 scale
(4) t 
GR
GR
GS
[1 0 0 1 267.1579 361] CT
0.149 GC
/Helvetica 15 F
GS
[1 0 0 1 0 0] CT
-4.5 15 moveto 
1 -1 scale
(6) t 
GR
GR
GS
[1 0 0 1 332.42105 361] CT
0.149 GC
/Helvetica 15 F
GS
[1 0 0 1 0 0] CT
-4.5 15 moveto 
1 -1 scale
(8) t 
GR
GR
GS
[1 0 0 1 397.6842 361] CT
0.149 GC
/Helvetica 15 F
GS
[1 0 0 1 0 0] CT
-8.5 15 moveto 
1 -1 scale
(10) t 
GR
GR
GS
[1 0 0 1 462.94736 361] CT
0.149 GC
/Helvetica 15 F
GS
[1 0 0 1 0 0] CT
-8.5 15 moveto 
1 -1 scale
(12) t 
GR
GR
GS
[1 0 0 1 528.21051 361] CT
0.149 GC
/Helvetica 15 F
GS
[1 0 0 1 0 0] CT
-8.5 15 moveto 
1 -1 scale
(14) t 
GR
GR
GS
[1 0 0 1 593.47369 361] CT
0.149 GC
/Helvetica 15 F
GS
[1 0 0 1 0 0] CT
-8.5 15 moveto 
1 -1 scale
(16) t 
GR
GR
GS
[1 0 0 1 658.73682 361] CT
0.149 GC
/Helvetica 15 F
GS
[1 0 0 1 0 0] CT
-8.5 15 moveto 
1 -1 scale
(18) t 
GR
GR
GS
[1 0 0 1 724 361] CT
0.149 GC
/Helvetica 15 F
GS
[1 0 0 1 0 0] CT
-8.5 15 moveto 
1 -1 scale
(20) t 
GR
GR
GS
[1 0 0 1 414.00031 380] CT
0.149 GC
/Helvetica 16.5 F
GS
[1 0 0 1 0 0] CT
-30.5 16 moveto 
1 -1 scale
(Iteration) t 
GR
GR
GS
0.149 GC
2 setlinecap
1 LJ
0.5 LW
N
104 356 M
104 34 L
S
GR
GS
0.149 GC
2 setlinecap
1 LJ
0.5 LW
N
724 356 M
724 34 L
S
GR
GS
0.149 GC
2 setlinecap
1 LJ
0.5 LW
N
104 356 M
110.2 356 L
S
GR
GS
0.149 GC
2 setlinecap
1 LJ
0.5 LW
N
104 302.333 M
110.2 302.333 L
S
GR
GS
0.149 GC
2 setlinecap
1 LJ
0.5 LW
N
104 248.667 M
110.2 248.667 L
S
GR
GS
0.149 GC
2 setlinecap
1 LJ
0.5 LW
N
104 195 M
110.2 195 L
S
GR
GS
0.149 GC
2 setlinecap
1 LJ
0.5 LW
N
104 141.333 M
110.2 141.333 L
S
GR
GS
0.149 GC
2 setlinecap
1 LJ
0.5 LW
N
104 87.667 M
110.2 87.667 L
S
GR
GS
0.149 GC
2 setlinecap
1 LJ
0.5 LW
N
104 34 M
110.2 34 L
S
GR
GS
0.149 GC
2 setlinecap
1 LJ
0.5 LW
N
724 356 M
717.8 356 L
S
GR
GS
0.149 GC
2 setlinecap
1 LJ
0.5 LW
N
724 302.333 M
717.8 302.333 L
S
GR
GS
0.149 GC
2 setlinecap
1 LJ
0.5 LW
N
724 248.667 M
717.8 248.667 L
S
GR
GS
0.149 GC
2 setlinecap
1 LJ
0.5 LW
N
724 195 M
717.8 195 L
S
GR
GS
0.149 GC
2 setlinecap
1 LJ
0.5 LW
N
724 141.333 M
717.8 141.333 L
S
GR
GS
0.149 GC
2 setlinecap
1 LJ
0.5 LW
N
724 87.667 M
717.8 87.667 L
S
GR
GS
0.149 GC
2 setlinecap
1 LJ
0.5 LW
N
724 34 M
717.8 34 L
S
GR
GS
[1 0 0 1 99 356] CT
0.149 GC
/Helvetica 15 F
GS
[1 0 0 1 0 0] CT
-9 5.5 moveto 
1 -1 scale
(0) t 
GR
GR
GS
[1 0 0 1 99 302.33334] CT
0.149 GC
/Helvetica 15 F
GS
[1 0 0 1 0 0] CT
-17 5.5 moveto 
1 -1 scale
(50) t 
GR
GR
GS
[1 0 0 1 99 248.66667] CT
0.149 GC
/Helvetica 15 F
GS
[1 0 0 1 0 0] CT
-26 5.5 moveto 
1 -1 scale
(100) t 
GR
GR
GS
[1 0 0 1 99 195] CT
0.149 GC
/Helvetica 15 F
GS
[1 0 0 1 0 0] CT
-26 5.5 moveto 
1 -1 scale
(150) t 
GR
GR
GS
[1 0 0 1 99 141.33333] CT
0.149 GC
/Helvetica 15 F
GS
[1 0 0 1 0 0] CT
-26 5.5 moveto 
1 -1 scale
(200) t 
GR
GR
GS
[1 0 0 1 99 87.66666] CT
0.149 GC
/Helvetica 15 F
GS
[1 0 0 1 0 0] CT
-26 5.5 moveto 
1 -1 scale
(250) t 
GR
GR
GS
[1 0 0 1 99 34] CT
0.149 GC
/Helvetica 15 F
GS
[1 0 0 1 0 0] CT
-26 5.5 moveto 
1 -1 scale
(300) t 
GR
GR
GS
[0 -1 1 0 70.5 194.99985] CT
0.149 GC
/Helvetica 16.5 F
GS
[1 0 0 1 0 0] CT
-35.5 -4 moveto 
1 -1 scale
(Best rank) t 
GR
GR
GS
[1 0 0 1 255 26] CT
/Helvetica-Bold 25 F
GS
[1 0 0 1 0 0] CT
0 0 moveto 
1 -1 scale
( Feature selection \(iForest\)) t 
GR
GR
GS
0 0.447 0.741 RC
1 LJ
0.5 LW
N
104 54.866 M
136.632 105.978 L
169.263 128.754 L
201.895 153.258 L
234.526 175.744 L
267.158 188.088 L
299.789 211.873 L
332.421 217.54 L
365.053 244.491 L
397.684 255.225 L
430.316 264.348 L
462.947 266.795 L
495.579 268.223 L
528.211 256.652 L
560.842 270.67 L
593.474 263.575 L
626.105 271.861 L
658.737 259.518 L
691.368 272.752 L
724 268.996 L
S
GR
GS
[1 0 0 1 104 54.8656] CT
0 0.447 0.741 RC
10.0 ML
N
3 0 M
3 -1.657 1.657 -3 0 -3 C
-1.657 -3 -3 -1.657 -3 0 C
-3 1.657 -1.657 3 0 3 C
1.657 3 3 1.657 3 0 C
cp
S
GR
GS
[1 0 0 1 136.63158 105.97773] CT
0 0.447 0.741 RC
10.0 ML
N
3 0 M
3 -1.657 1.657 -3 0 -3 C
-1.657 -3 -3 -1.657 -3 0 C
-3 1.657 -1.657 3 0 3 C
1.657 3 3 1.657 3 0 C
cp
S
GR
GS
[1 0 0 1 169.26315 128.75386] CT
0 0.447 0.741 RC
10.0 ML
N
3 0 M
3 -1.657 1.657 -3 0 -3 C
-1.657 -3 -3 -1.657 -3 0 C
-3 1.657 -1.657 3 0 3 C
1.657 3 3 1.657 3 0 C
cp
S
GR
GS
[1 0 0 1 201.89473 153.25807] CT
0 0.447 0.741 RC
10.0 ML
N
3 0 M
3 -1.657 1.657 -3 0 -3 C
-1.657 -3 -3 -1.657 -3 0 C
-3 1.657 -1.657 3 0 3 C
1.657 3 3 1.657 3 0 C
cp
S
GR
GS
[1 0 0 1 234.52632 175.7444] CT
0 0.447 0.741 RC
10.0 ML
N
3 0 M
3 -1.657 1.657 -3 0 -3 C
-1.657 -3 -3 -1.657 -3 0 C
-3 1.657 -1.657 3 0 3 C
1.657 3 3 1.657 3 0 C
cp
S
GR
GS
[1 0 0 1 267.1579 188.08774] CT
0 0.447 0.741 RC
10.0 ML
N
3 0 M
3 -1.657 1.657 -3 0 -3 C
-1.657 -3 -3 -1.657 -3 0 C
-3 1.657 -1.657 3 0 3 C
1.657 3 3 1.657 3 0 C
cp
S
GR
GS
[1 0 0 1 299.78946 211.8728] CT
0 0.447 0.741 RC
10.0 ML
N
3 0 M
3 -1.657 1.657 -3 0 -3 C
-1.657 -3 -3 -1.657 -3 0 C
-3 1.657 -1.657 3 0 3 C
1.657 3 3 1.657 3 0 C
cp
S
GR
GS
[1 0 0 1 332.42105 217.53999] CT
0 0.447 0.741 RC
10.0 ML
N
3 0 M
3 -1.657 1.657 -3 0 -3 C
-1.657 -3 -3 -1.657 -3 0 C
-3 1.657 -1.657 3 0 3 C
1.657 3 3 1.657 3 0 C
cp
S
GR
GS
[1 0 0 1 365.05264 244.49139] CT
0 0.447 0.741 RC
10.0 ML
N
3 0 M
3 -1.657 1.657 -3 0 -3 C
-1.657 -3 -3 -1.657 -3 0 C
-3 1.657 -1.657 3 0 3 C
1.657 3 3 1.657 3 0 C
cp
S
GR
GS
[1 0 0 1 397.6842 255.22473] CT
0 0.447 0.741 RC
10.0 ML
N
3 0 M
3 -1.657 1.657 -3 0 -3 C
-1.657 -3 -3 -1.657 -3 0 C
-3 1.657 -1.657 3 0 3 C
1.657 3 3 1.657 3 0 C
cp
S
GR
GS
[1 0 0 1 430.3158 264.34805] CT
0 0.447 0.741 RC
10.0 ML
N
3 0 M
3 -1.657 1.657 -3 0 -3 C
-1.657 -3 -3 -1.657 -3 0 C
-3 1.657 -1.657 3 0 3 C
1.657 3 3 1.657 3 0 C
cp
S
GR
GS
[1 0 0 1 462.94736 266.79526] CT
0 0.447 0.741 RC
10.0 ML
N
3 0 M
3 -1.657 1.657 -3 0 -3 C
-1.657 -3 -3 -1.657 -3 0 C
-3 1.657 -1.657 3 0 3 C
1.657 3 3 1.657 3 0 C
cp
S
GR
GS
[1 0 0 1 495.57895 268.22281] CT
0 0.447 0.741 RC
10.0 ML
N
3 0 M
3 -1.657 1.657 -3 0 -3 C
-1.657 -3 -3 -1.657 -3 0 C
-3 1.657 -1.657 3 0 3 C
1.657 3 3 1.657 3 0 C
cp
S
GR
GS
[1 0 0 1 528.21051 256.65228] CT
0 0.447 0.741 RC
10.0 ML
N
3 0 M
3 -1.657 1.657 -3 0 -3 C
-1.657 -3 -3 -1.657 -3 0 C
-3 1.657 -1.657 3 0 3 C
1.657 3 3 1.657 3 0 C
cp
S
GR
GS
[1 0 0 1 560.8421 270.67001] CT
0 0.447 0.741 RC
10.0 ML
N
3 0 M
3 -1.657 1.657 -3 0 -3 C
-1.657 -3 -3 -1.657 -3 0 C
-3 1.657 -1.657 3 0 3 C
1.657 3 3 1.657 3 0 C
cp
S
GR
GS
[1 0 0 1 593.47369 263.57526] CT
0 0.447 0.741 RC
10.0 ML
N
3 0 M
3 -1.657 1.657 -3 0 -3 C
-1.657 -3 -3 -1.657 -3 0 C
-3 1.657 -1.657 3 0 3 C
1.657 3 3 1.657 3 0 C
cp
S
GR
GS
[1 0 0 1 626.10529 271.86139] CT
0 0.447 0.741 RC
10.0 ML
N
3 0 M
3 -1.657 1.657 -3 0 -3 C
-1.657 -3 -3 -1.657 -3 0 C
-3 1.657 -1.657 3 0 3 C
1.657 3 3 1.657 3 0 C
cp
S
GR
GS
[1 0 0 1 658.73682 259.51807] CT
0 0.447 0.741 RC
10.0 ML
N
3 0 M
3 -1.657 1.657 -3 0 -3 C
-1.657 -3 -3 -1.657 -3 0 C
-3 1.657 -1.657 3 0 3 C
1.657 3 3 1.657 3 0 C
cp
S
GR
GS
[1 0 0 1 691.36841 272.75226] CT
0 0.447 0.741 RC
10.0 ML
N
3 0 M
3 -1.657 1.657 -3 0 -3 C
-1.657 -3 -3 -1.657 -3 0 C
-3 1.657 -1.657 3 0 3 C
1.657 3 3 1.657 3 0 C
cp
S
GR
GS
[1 0 0 1 724 268.99561] CT
0 0.447 0.741 RC
10.0 ML
N
3 0 M
3 -1.657 1.657 -3 0 -3 C
-1.657 -3 -3 -1.657 -3 0 C
-3 1.657 -1.657 3 0 3 C
1.657 3 3 1.657 3 0 C
cp
S
GR
GS
0.851 0.325 0.098 RC
1 LJ
0.5 LW
N
104 225.59 M
136.632 237.525 L
169.263 257.522 L
201.895 257.125 L
234.526 277.915 L
267.158 279.385 L
299.789 277.647 L
332.421 283.958 L
365.053 295.625 L
397.684 304.351 L
430.316 311.457 L
462.947 302.333 L
495.579 302.602 L
528.211 308.902 L
560.842 307.035 L
593.474 314.548 L
626.105 310.383 L
658.737 313.067 L
691.368 302.87 L
724 309.847 L
S
GR
GS
[1 0 0 1 104 225.59] CT
0.851 0.325 0.098 RC
10.0 ML
N
3 0 M
3 -1.657 1.657 -3 0 -3 C
-1.657 -3 -3 -1.657 -3 0 C
-3 1.657 -1.657 3 0 3 C
1.657 3 3 1.657 3 0 C
cp
S
GR
GS
[1 0 0 1 136.63158 237.52547] CT
0.851 0.325 0.098 RC
10.0 ML
N
3 0 M
3 -1.657 1.657 -3 0 -3 C
-1.657 -3 -3 -1.657 -3 0 C
-3 1.657 -1.657 3 0 3 C
1.657 3 3 1.657 3 0 C
cp
S
GR
GS
[1 0 0 1 169.26315 257.52167] CT
0.851 0.325 0.098 RC
10.0 ML
N
3 0 M
3 -1.657 1.657 -3 0 -3 C
-1.657 -3 -3 -1.657 -3 0 C
-3 1.657 -1.657 3 0 3 C
1.657 3 3 1.657 3 0 C
cp
S
GR
GS
[1 0 0 1 201.89473 257.12454] CT
0.851 0.325 0.098 RC
10.0 ML
N
3 0 M
3 -1.657 1.657 -3 0 -3 C
-1.657 -3 -3 -1.657 -3 0 C
-3 1.657 -1.657 3 0 3 C
1.657 3 3 1.657 3 0 C
cp
S
GR
GS
[1 0 0 1 234.52632 277.91501] CT
0.851 0.325 0.098 RC
10.0 ML
N
3 0 M
3 -1.657 1.657 -3 0 -3 C
-1.657 -3 -3 -1.657 -3 0 C
-3 1.657 -1.657 3 0 3 C
1.657 3 3 1.657 3 0 C
cp
S
GR
GS
[1 0 0 1 267.1579 279.38547] CT
0.851 0.325 0.098 RC
10.0 ML
N
3 0 M
3 -1.657 1.657 -3 0 -3 C
-1.657 -3 -3 -1.657 -3 0 C
-3 1.657 -1.657 3 0 3 C
1.657 3 3 1.657 3 0 C
cp
S
GR
GS
[1 0 0 1 299.78946 277.64667] CT
0.851 0.325 0.098 RC
10.0 ML
N
3 0 M
3 -1.657 1.657 -3 0 -3 C
-1.657 -3 -3 -1.657 -3 0 C
-3 1.657 -1.657 3 0 3 C
1.657 3 3 1.657 3 0 C
cp
S
GR
GS
[1 0 0 1 332.42105 283.95786] CT
0.851 0.325 0.098 RC
10.0 ML
N
3 0 M
3 -1.657 1.657 -3 0 -3 C
-1.657 -3 -3 -1.657 -3 0 C
-3 1.657 -1.657 3 0 3 C
1.657 3 3 1.657 3 0 C
cp
S
GR
GS
[1 0 0 1 365.05264 295.625] CT
0.851 0.325 0.098 RC
10.0 ML
N
3 0 M
3 -1.657 1.657 -3 0 -3 C
-1.657 -3 -3 -1.657 -3 0 C
-3 1.657 -1.657 3 0 3 C
1.657 3 3 1.657 3 0 C
cp
S
GR
GS
[1 0 0 1 397.6842 304.3512] CT
0.851 0.325 0.098 RC
10.0 ML
N
3 0 M
3 -1.657 1.657 -3 0 -3 C
-1.657 -3 -3 -1.657 -3 0 C
-3 1.657 -1.657 3 0 3 C
1.657 3 3 1.657 3 0 C
cp
S
GR
GS
[1 0 0 1 430.3158 311.45667] CT
0.851 0.325 0.098 RC
10.0 ML
N
3 0 M
3 -1.657 1.657 -3 0 -3 C
-1.657 -3 -3 -1.657 -3 0 C
-3 1.657 -1.657 3 0 3 C
1.657 3 3 1.657 3 0 C
cp
S
GR
GS
[1 0 0 1 462.94736 302.33334] CT
0.851 0.325 0.098 RC
10.0 ML
N
3 0 M
3 -1.657 1.657 -3 0 -3 C
-1.657 -3 -3 -1.657 -3 0 C
-3 1.657 -1.657 3 0 3 C
1.657 3 3 1.657 3 0 C
cp
S
GR
GS
[1 0 0 1 495.57895 302.60165] CT
0.851 0.325 0.098 RC
10.0 ML
N
3 0 M
3 -1.657 1.657 -3 0 -3 C
-1.657 -3 -3 -1.657 -3 0 C
-3 1.657 -1.657 3 0 3 C
1.657 3 3 1.657 3 0 C
cp
S
GR
GS
[1 0 0 1 528.21051 308.90213] CT
0.851 0.325 0.098 RC
10.0 ML
N
3 0 M
3 -1.657 1.657 -3 0 -3 C
-1.657 -3 -3 -1.657 -3 0 C
-3 1.657 -1.657 3 0 3 C
1.657 3 3 1.657 3 0 C
cp
S
GR
GS
[1 0 0 1 560.8421 307.03455] CT
0.851 0.325 0.098 RC
10.0 ML
N
3 0 M
3 -1.657 1.657 -3 0 -3 C
-1.657 -3 -3 -1.657 -3 0 C
-3 1.657 -1.657 3 0 3 C
1.657 3 3 1.657 3 0 C
cp
S
GR
GS
[1 0 0 1 593.47369 314.54788] CT
0.851 0.325 0.098 RC
10.0 ML
N
3 0 M
3 -1.657 1.657 -3 0 -3 C
-1.657 -3 -3 -1.657 -3 0 C
-3 1.657 -1.657 3 0 3 C
1.657 3 3 1.657 3 0 C
cp
S
GR
GS
[1 0 0 1 626.10529 310.38333] CT
0.851 0.325 0.098 RC
10.0 ML
N
3 0 M
3 -1.657 1.657 -3 0 -3 C
-1.657 -3 -3 -1.657 -3 0 C
-3 1.657 -1.657 3 0 3 C
1.657 3 3 1.657 3 0 C
cp
S
GR
GS
[1 0 0 1 658.73682 313.06668] CT
0.851 0.325 0.098 RC
10.0 ML
N
3 0 M
3 -1.657 1.657 -3 0 -3 C
-1.657 -3 -3 -1.657 -3 0 C
-3 1.657 -1.657 3 0 3 C
1.657 3 3 1.657 3 0 C
cp
S
GR
GS
[1 0 0 1 691.36841 302.87] CT
0.851 0.325 0.098 RC
10.0 ML
N
3 0 M
3 -1.657 1.657 -3 0 -3 C
-1.657 -3 -3 -1.657 -3 0 C
-3 1.657 -1.657 3 0 3 C
1.657 3 3 1.657 3 0 C
cp
S
GR
GS
[1 0 0 1 724 309.84668] CT
0.851 0.325 0.098 RC
10.0 ML
N
3 0 M
3 -1.657 1.657 -3 0 -3 C
-1.657 -3 -3 -1.657 -3 0 C
-3 1.657 -1.657 3 0 3 C
1.657 3 3 1.657 3 0 C
cp
S
GR
GS
0.929 0.694 0.125 RC
1 LJ
0.5 LW
N
104 130.6 M
136.632 167.244 L
169.263 193.004 L
201.895 206.656 L
234.526 210.95 L
267.158 229.808 L
299.789 239.93 L
332.421 246.209 L
365.053 248.978 L
397.684 263.382 L
430.316 264.455 L
462.947 260.935 L
495.579 267.064 L
528.211 264.616 L
560.842 264.616 L
593.474 271.818 L
626.105 268.137 L
658.737 267.525 L
691.368 274.276 L
724 268.137 L
S
GR
GS
[1 0 0 1 104 130.60001] CT
0.929 0.694 0.125 RC
10.0 ML
N
3 0 M
3 -1.657 1.657 -3 0 -3 C
-1.657 -3 -3 -1.657 -3 0 C
-3 1.657 -1.657 3 0 3 C
1.657 3 3 1.657 3 0 C
cp
S
GR
GS
[1 0 0 1 136.63158 167.24361] CT
0.929 0.694 0.125 RC
10.0 ML
N
3 0 M
3 -1.657 1.657 -3 0 -3 C
-1.657 -3 -3 -1.657 -3 0 C
-3 1.657 -1.657 3 0 3 C
1.657 3 3 1.657 3 0 C
cp
S
GR
GS
[1 0 0 1 169.26315 193.0036] CT
0.929 0.694 0.125 RC
10.0 ML
N
3 0 M
3 -1.657 1.657 -3 0 -3 C
-1.657 -3 -3 -1.657 -3 0 C
-3 1.657 -1.657 3 0 3 C
1.657 3 3 1.657 3 0 C
cp
S
GR
GS
[1 0 0 1 201.89473 206.6564] CT
0.929 0.694 0.125 RC
10.0 ML
N
3 0 M
3 -1.657 1.657 -3 0 -3 C
-1.657 -3 -3 -1.657 -3 0 C
-3 1.657 -1.657 3 0 3 C
1.657 3 3 1.657 3 0 C
cp
S
GR
GS
[1 0 0 1 234.52632 210.94974] CT
0.929 0.694 0.125 RC
10.0 ML
N
3 0 M
3 -1.657 1.657 -3 0 -3 C
-1.657 -3 -3 -1.657 -3 0 C
-3 1.657 -1.657 3 0 3 C
1.657 3 3 1.657 3 0 C
cp
S
GR
GS
[1 0 0 1 267.1579 229.8082] CT
0.929 0.694 0.125 RC
10.0 ML
N
3 0 M
3 -1.657 1.657 -3 0 -3 C
-1.657 -3 -3 -1.657 -3 0 C
-3 1.657 -1.657 3 0 3 C
1.657 3 3 1.657 3 0 C
cp
S
GR
GS
[1 0 0 1 299.78946 239.92973] CT
0.929 0.694 0.125 RC
10.0 ML
N
3 0 M
3 -1.657 1.657 -3 0 -3 C
-1.657 -3 -3 -1.657 -3 0 C
-3 1.657 -1.657 3 0 3 C
1.657 3 3 1.657 3 0 C
cp
S
GR
GS
[1 0 0 1 332.42105 246.20872] CT
0.929 0.694 0.125 RC
10.0 ML
N
3 0 M
3 -1.657 1.657 -3 0 -3 C
-1.657 -3 -3 -1.657 -3 0 C
-3 1.657 -1.657 3 0 3 C
1.657 3 3 1.657 3 0 C
cp
S
GR
GS
[1 0 0 1 365.05264 248.97794] CT
0.929 0.694 0.125 RC
10.0 ML
N
3 0 M
3 -1.657 1.657 -3 0 -3 C
-1.657 -3 -3 -1.657 -3 0 C
-3 1.657 -1.657 3 0 3 C
1.657 3 3 1.657 3 0 C
cp
S
GR
GS
[1 0 0 1 397.6842 263.38208] CT
0.929 0.694 0.125 RC
10.0 ML
N
3 0 M
3 -1.657 1.657 -3 0 -3 C
-1.657 -3 -3 -1.657 -3 0 C
-3 1.657 -1.657 3 0 3 C
1.657 3 3 1.657 3 0 C
cp
S
GR
GS
[1 0 0 1 430.3158 264.45541] CT
0.929 0.694 0.125 RC
10.0 ML
N
3 0 M
3 -1.657 1.657 -3 0 -3 C
-1.657 -3 -3 -1.657 -3 0 C
-3 1.657 -1.657 3 0 3 C
1.657 3 3 1.657 3 0 C
cp
S
GR
GS
[1 0 0 1 462.94736 260.93488] CT
0.929 0.694 0.125 RC
10.0 ML
N
3 0 M
3 -1.657 1.657 -3 0 -3 C
-1.657 -3 -3 -1.657 -3 0 C
-3 1.657 -1.657 3 0 3 C
1.657 3 3 1.657 3 0 C
cp
S
GR
GS
[1 0 0 1 495.57895 267.0636] CT
0.929 0.694 0.125 RC
10.0 ML
N
3 0 M
3 -1.657 1.657 -3 0 -3 C
-1.657 -3 -3 -1.657 -3 0 C
-3 1.657 -1.657 3 0 3 C
1.657 3 3 1.657 3 0 C
cp
S
GR
GS
[1 0 0 1 528.21051 264.61639] CT
0.929 0.694 0.125 RC
10.0 ML
N
3 0 M
3 -1.657 1.657 -3 0 -3 C
-1.657 -3 -3 -1.657 -3 0 C
-3 1.657 -1.657 3 0 3 C
1.657 3 3 1.657 3 0 C
cp
S
GR
GS
[1 0 0 1 560.8421 264.61639] CT
0.929 0.694 0.125 RC
10.0 ML
N
3 0 M
3 -1.657 1.657 -3 0 -3 C
-1.657 -3 -3 -1.657 -3 0 C
-3 1.657 -1.657 3 0 3 C
1.657 3 3 1.657 3 0 C
cp
S
GR
GS
[1 0 0 1 593.47369 271.81848] CT
0.929 0.694 0.125 RC
10.0 ML
N
3 0 M
3 -1.657 1.657 -3 0 -3 C
-1.657 -3 -3 -1.657 -3 0 C
-3 1.657 -1.657 3 0 3 C
1.657 3 3 1.657 3 0 C
cp
S
GR
GS
[1 0 0 1 626.10529 268.13693] CT
0.929 0.694 0.125 RC
10.0 ML
N
3 0 M
3 -1.657 1.657 -3 0 -3 C
-1.657 -3 -3 -1.657 -3 0 C
-3 1.657 -1.657 3 0 3 C
1.657 3 3 1.657 3 0 C
cp
S
GR
GS
[1 0 0 1 658.73682 267.52515] CT
0.929 0.694 0.125 RC
10.0 ML
N
3 0 M
3 -1.657 1.657 -3 0 -3 C
-1.657 -3 -3 -1.657 -3 0 C
-3 1.657 -1.657 3 0 3 C
1.657 3 3 1.657 3 0 C
cp
S
GR
GS
[1 0 0 1 691.36841 274.2764] CT
0.929 0.694 0.125 RC
10.0 ML
N
3 0 M
3 -1.657 1.657 -3 0 -3 C
-1.657 -3 -3 -1.657 -3 0 C
-3 1.657 -1.657 3 0 3 C
1.657 3 3 1.657 3 0 C
cp
S
GR
GS
[1 0 0 1 724 268.13693] CT
0.929 0.694 0.125 RC
10.0 ML
N
3 0 M
3 -1.657 1.657 -3 0 -3 C
-1.657 -3 -3 -1.657 -3 0 C
-3 1.657 -1.657 3 0 3 C
1.657 3 3 1.657 3 0 C
cp
S
GR
GS
1 GC
N
716 95 M
716 42 L
644.5 42 L
644.5 95 L
cp
f
GR
GS
[1 0 0 1 681.5 52] CT
/Helvetica 13.5 F
GS
[1 0 0 1 0 0] CT
0 5 moveto 
1 -1 scale
(2016) t 
GR
GR
GS
0 0.447 0.741 RC
1 LJ
0.5 LW
N
648.5 52 M
678.5 52 L
S
GR
GS
[1 0 0 1 663.5 52] CT
0 0.447 0.741 RC
10.0 ML
N
3 0 M
3 -1.657 1.657 -3 0 -3 C
-1.657 -3 -3 -1.657 -3 0 C
-3 1.657 -1.657 3 0 3 C
1.657 3 3 1.657 3 0 C
cp
S
GR
GS
[1 0 0 1 681.5 68.5] CT
/Helvetica 13.5 F
GS
[1 0 0 1 0 0] CT
0 5 moveto 
1 -1 scale
(2017) t 
GR
GR
GS
0.851 0.325 0.098 RC
1 LJ
0.5 LW
N
648.5 68.5 M
678.5 68.5 L
S
GR
GS
[1 0 0 1 663.5 68.5] CT
0.851 0.325 0.098 RC
10.0 ML
N
3 0 M
3 -1.657 1.657 -3 0 -3 C
-1.657 -3 -3 -1.657 -3 0 C
-3 1.657 -1.657 3 0 3 C
1.657 3 3 1.657 3 0 C
cp
S
GR
GS
[1 0 0 1 681.5 85] CT
/Helvetica 13.5 F
GS
[1 0 0 1 0 0] CT
0 5 moveto 
1 -1 scale
(2018) t 
GR
GR
GS
0.929 0.694 0.125 RC
1 LJ
0.5 LW
N
648.5 85 M
678.5 85 L
S
GR
GS
[1 0 0 1 663.5 85] CT
0.929 0.694 0.125 RC
10.0 ML
N
3 0 M
3 -1.657 1.657 -3 0 -3 C
-1.657 -3 -3 -1.657 -3 0 C
-3 1.657 -1.657 3 0 3 C
1.657 3 3 1.657 3 0 C
cp
S
GR
GS
0.149 GC
10.0 ML
0.5 LW
N
644.5 95 M
644.5 42 L
716 42 L
716 95 L
cp
S
GR
%%Trailer
%%Pages: 1
%%EOF
