,y_true,y_pred,y_pred_top_k,y_pred_top_percentage,label_id,timestamp_min,timestamp_max,nb,freq_temp,max_freq_pressure,min_freq_pressure
0,0.0,1.0,0.9999953954444519,0.9999951312339688,,2017-05-31 00:32:46.095999956,2017-05-31 00:43:53.282999992,67,-3.4022291808008474,0,0
1,0.0,0.9999995919527639,0.9999946454807519,0.9999944190281729,,2017-05-31 02:55:18.421000004,2017-05-31 03:06:25.601999998,67,-3.4022291808008474,0,0
2,0.0,0.999996732388843,0.9999965914923591,0.9999966469512728,,2017-05-31 03:09:50.656000137,2017-05-31 03:41:27.171999931,19,-3.4022291808008474,0,0
3,0.0,5.6213913922657415e-06,2.6848862688847345e-06,2.2955725482377774e-06,,2017-06-01 15:00:33.635999918,2017-06-01 15:11:40.812999964,67,0.2939249376976452,0,0
4,0.0,5.586090336500594e-06,6.067402980729353e-07,3.7873186215828593e-07,,2017-06-01 16:39:11.235000134,2017-06-01 16:50:17.420000076,67,0.2939249376976452,0,0
5,0.0,2.506494784295117e-06,2.4905937657323066e-06,2.506494784295117e-06,,2017-06-01 16:50:30.424000025,2017-06-01 19:59:53.503999949,5,0.2939249376976452,0,0
6,0.0,5.583428605579663e-06,6.009583552751151e-07,3.662840780236785e-07,,2017-06-01 20:02:04.541000128,2017-06-01 20:13:11.725000143,67,0.2939249376976452,0,0
7,0.0,2.449947333913276e-06,2.4477256973385292e-06,2.44913960289304e-06,,2017-06-01 20:13:24.729000092,2017-06-01 22:15:43.719000101,8,0.2939249376976452,0,0
8,0.0,5.595725491371656e-06,7.186826828632375e-07,4.795711759092221e-07,,2017-06-02 00:18:21.717000008,2017-06-02 00:29:28.904999971,67,0.2939249376976452,0,0
9,0.0,5.592720730614237e-06,5.920688580853468e-07,3.6307178281885845e-07,,2017-06-02 14:59:44.062999964,2017-06-02 15:10:51.245000124,67,0.2939249376976452,0,0
10,0.0,1.9952473987968977e-06,8.101459942971827e-07,6.599338288141729e-07,,2017-06-02 16:31:51.546000004,2017-06-02 16:42:58.726999998,67,0.2939249376976452,0,0
11,0.0,2.465673990602242e-06,2.4551228130682387e-06,2.465375976988033e-06,,2017-06-02 16:44:59.759999990,2017-06-02 21:00:06.930999994,9,0.2939249376976452,0,0
12,0.0,5.570479421668452e-06,5.843736672275206e-07,3.559987043155802e-07,,2017-06-02 21:49:29.723000050,2017-06-02 22:00:36.904000044,67,0.2939249376976452,0,0
13,0.0,2.463287610789993e-06,2.4615352928224455e-06,2.4628702178623588e-06,,2017-06-02 22:15:30.144000053,2017-06-02 23:01:07.880000114,7,0.2939249376976452,0,0
14,0.0,2.461498958209805e-06,2.4578124891990314e-06,2.461439348071985e-06,,2017-06-02 23:14:58.110000134,2017-06-02 23:30:40.368000031,10,0.2939249376976452,0,0
15,0.0,3.6575554008907636e-08,3.6333511336523383e-08,3.6284028991127795e-08,,2017-06-03 02:57:47.735000134,2017-06-03 03:08:54.914999962,67,0.2939249376976452,0,0
16,0.0,2.8870157621742354e-06,2.5437536480799545e-06,2.719990939667208e-06,,2017-06-03 03:24:55.177000046,2017-06-03 04:14:05.976000071,13,0.2939249376976452,0,0
17,0.0,9.875608759275401e-08,5.883464064904717e-08,5.06696991372193e-08,,2017-06-03 13:24:00.865000010,2017-06-03 13:35:08.041000128,67,0.2939249376976452,0,0
18,0.0,2.442919388528454e-06,2.431890718000363e-06,2.442919388528454e-06,,2017-06-03 14:19:04.756999969,2017-06-03 14:47:19.209000111,4,0.2939249376976452,0,0
19,0.0,5.526669897316657e-06,7.877250319453033e-07,5.377880601082606e-07,,2017-06-03 17:59:09.305999994,2017-06-03 18:10:16.486000061,67,0.2939249376976452,0,0
20,0.0,2.4245163662735435e-06,2.422212175437725e-06,2.4245163662735435e-06,,2017-06-03 18:17:35.605999947,2017-06-03 18:36:57.923000097,3,0.2939249376976452,0,0
21,0.0,5.629274438835016e-06,6.50935886558593e-07,4.1094544687614643e-07,,2017-06-03 21:14:00.477999926,2017-06-03 21:25:07.663000107,67,0.2939249376976452,0,0
22,0.0,2.4473672224924975e-06,2.4342177217070956e-06,2.4473672224924975e-06,,2017-06-03 21:38:18.880000114,2017-06-03 21:59:07.225000143,3,0.2939249376976452,0,0
23,0.0,1.7842578208966336e-06,1.4725110548414088e-06,1.2585928650659427e-06,,2017-06-04 00:33:57.743000031,2017-06-04 00:45:04.927999973,67,0.2939249376976452,0,0
24,0.0,6.028781101437615e-06,3.4321276614663132e-06,4.1109672463144086e-06,,2017-06-04 00:57:46.138000011,2017-06-04 02:40:30.806999922,19,0.2939249376976452,0,0
25,0.0,5.547112864214305e-06,5.609723227968578e-07,3.3275229157134353e-07,,2017-06-04 03:19:10.431999922,2017-06-04 03:30:17.617000103,67,0.2939249376976452,0,0
26,0.0,5.718495454723167e-06,3.12626909181068e-06,3.975100559809208e-06,,2017-06-04 03:53:35.999000072,2017-06-04 04:35:18.684999943,17,0.2939249376976452,0,0
27,0.0,5.562767070868456e-06,5.900221063623277e-07,3.623225125868979e-07,,2017-06-04 05:48:35.874000072,2017-06-04 05:59:43.059999943,67,0.2939249376976452,0,0
28,0.0,2.4210834035414946e-06,2.4183151911540714e-06,2.4210834035414946e-06,,2017-06-04 06:13:43.286999941,2017-06-04 07:29:22.529999970,2,0.2939249376976452,0,0
29,0.0,5.5823508537579586e-06,6.120498310273482e-07,3.8255885962949567e-07,,2017-06-04 17:36:33.324000120,2017-06-04 17:47:40.502000093,67,0.2939249376976452,0,0
30,0.0,4.5860686471355264e-06,3.241734140628803e-06,3.632854495813704e-06,,2017-06-04 17:57:18.656000137,2017-06-04 20:18:58.962000132,19,0.2939249376976452,0,0
31,0.0,5.548192100043638e-06,5.908411340602364e-07,3.638824250627967e-07,,2017-06-04 21:16:54.898000002,2017-06-04 21:28:02.077000141,67,0.2939249376976452,0,0
32,0.0,7.094132320831975e-06,3.9116467114345335e-06,5.20060398949303e-06,,2017-06-04 21:54:19.506999969,2017-06-04 22:59:09.549999952,16,0.2939249376976452,0,0
33,0.0,6.044884853546553e-06,1.7498327875708132e-06,1.3821014175051919e-06,,2017-06-05 10:37:25.900000095,2017-06-05 10:48:33.087000132,67,0.2939249376976452,0,0
34,0.0,3.1448236822287477e-06,2.9038990025157446e-06,2.9254157980215984e-06,,2017-06-05 11:11:25.453999996,2017-06-05 14:41:48.858999968,37,0.2939249376976452,0,0
35,0.0,5.5520472620526525e-06,7.846305514174076e-07,5.445392161396219e-07,,2017-06-05 17:56:52.033999920,2017-06-05 18:07:59.213000059,67,0.2939249376976452,0,0
36,0.0,3.4297596862341587e-06,2.7790140162911566e-06,3.0490236558313547e-06,,2017-06-05 18:23:36.467000008,2017-06-05 20:23:52.427000046,16,0.2939249376976452,0,0
37,0.0,5.5353810578392764e-06,5.805302600849426e-07,3.535851477596608e-07,,2017-06-05 22:09:32.141999960,2017-06-05 22:20:39.327000141,67,0.2939249376976452,0,0
38,0.0,2.7604725633389552e-06,2.6041999588467814e-06,2.6463723624720736e-06,,2017-06-05 22:22:34.358000040,2017-06-06 00:06:51.041000128,22,0.2939249376976452,0,0
39,0.0,6.362487109176391e-06,1.3697941371701992e-06,1.0618745216270443e-06,,2017-06-06 07:27:01.217999935,2017-06-06 07:38:08.404000044,67,0.2939249376976452,0,0
40,0.0,5.847156100078191e-06,8.633294311376218e-07,5.887421853072768e-07,,2017-06-06 09:40:51.375999928,2017-06-06 09:51:57.565000057,67,0.2939249376976452,0,0
41,0.0,3.684310344497039e-06,3.5852993997556235e-06,3.5741744486124028e-06,,2017-06-06 10:44:29.434000015,2017-06-06 19:36:03.036000013,48,0.2939249376976452,0,0
42,0.0,5.533777004468499e-06,5.61533263908189e-07,3.337347345850908e-07,,2017-06-06 19:38:14.071000099,2017-06-06 19:49:21.250999927,67,0.2939249376976452,0,0
43,0.0,3.2278201947513953e-06,2.646974069029424e-06,2.918335669533195e-06,,2017-06-06 20:22:15.782999992,2017-06-06 22:05:55.456000090,17,0.2939249376976452,0,0
44,0.0,1.3975756801282464e-05,1.0563860176173872e-05,1.1845964171826974e-05,,2017-06-06 22:22:40.736000061,2017-06-06 22:53:31.236000061,22,0.2939249376976452,0,0
