,y_true,y_pred,y_pred_top_k,y_pred_top_percentage,label_id,timestamp_min,timestamp_max,nb,freq_temp,max_freq_pressure,min_freq_pressure
0,0.0,0.0012422524765106184,0.001237909070924777,0.0012328994897435608,,2017-06-28 04:40:18.930999994,2017-06-28 05:03:25.315999985,139,-0.8354446507944107,0,0
1,0.0,0.0004172662193003125,0.00010412485896901035,9.745683473524032e-05,,2017-06-28 05:24:24.664000034,2017-06-28 09:23:25.577000141,44,-0.8354446507944107,0,0
2,0.0,0.03688934203682685,0.004782413094271963,0.0022290156224317333,,2017-06-28 12:13:02.332999945,2017-06-28 12:36:08.720000029,139,-0.8354446507944107,0,0
3,0.0,0.03681384836654833,0.004785270359327503,0.003317481586525114,,2017-06-28 14:05:42.161999941,2017-06-28 14:16:49.348999977,67,-0.8354446507944107,0,0
4,0.0,0.0007876359990026977,0.0001189453418586846,0.00012854724536922053,,2017-06-28 14:29:43.559999943,2017-06-28 16:43:01.733999968,36,-0.8354446507944107,0,0
5,0.0,0.03720491043561205,0.004863091431066495,0.002269165059110777,,2017-06-29 03:50:29.648999929,2017-06-29 04:13:57.048000097,141,-0.8354446507944107,0,0
6,0.0,0.0003758349935564933,0.00011627149265411817,0.00013058148929868808,,2017-06-29 04:30:09.311000109,2017-06-29 05:22:53.171000004,27,-0.8354446507944107,0,0
7,0.0,0.0013150419812254057,0.0012394634928751093,0.0012266385853869578,,2017-06-29 12:03:28.717999935,2017-06-29 12:28:15.128999949,149,-0.8354446507944107,0,0
8,0.0,0.0005075689697306225,0.00020102492018063482,0.0002524989583924239,,2017-06-29 12:48:52.467999935,2017-06-29 15:04:03.657000065,29,-0.8354446507944107,0,0
9,0.0,0.036921567960946755,0.004820048031799727,0.0022663741587266085,,2017-06-29 16:24:13.950999975,2017-06-29 16:47:21.342000008,139,-0.8354446507944107,0,0
10,0.0,0.03689061334991894,0.0048010433520386565,0.0033253145347908503,,2017-06-29 18:07:57.644999981,2017-06-29 18:19:04.825000048,67,-0.8354446507944107,0,0
11,0.0,0.0004831886347439109,0.00017737285763101378,0.00025171916350810546,,2017-06-29 18:32:19.039000034,2017-06-29 19:44:18.217999935,25,-0.8354446507944107,0,0
12,0.0,0.03721778333641472,0.00483412100404719,0.0033508682855311954,,2017-06-30 00:53:48.248000145,2017-06-30 01:04:55.434999943,67,-0.8354446507944107,0,0
13,0.0,0.03688366376704968,0.004795210493104824,0.003324997074503306,,2017-06-30 03:07:31.437999964,2017-06-30 03:18:38.618999958,67,-0.8354446507944107,0,0
14,0.0,3.0185668283566323e-05,2.2362527345735307e-05,3.0185668283566323e-05,,2017-06-30 03:18:51.621999979,2017-06-30 05:45:55.022000074,4,-0.8354446507944107,0,0
15,0.0,7.659467440535652e-05,7.659467440535652e-05,7.659467440535652e-05,,2017-06-30 05:55:46.183000088,2017-06-30 06:13:24.470000029,1,-0.8354446507944107,0,0
16,0.0,0.036806791543260955,0.004771450310452354,0.0033057695936198235,,2017-06-30 11:45:30.885999918,2017-06-30 11:56:38.069999933,67,-0.8354446507944107,0,0
17,0.0,7.622331147293986e-07,1.9082405341868237e-07,4.6969473113363176e-07,,2017-06-30 12:06:04.223000050,2017-06-30 12:32:23.650000095,6,-0.8354446507944107,0,0
18,0.0,0.036842800348655724,0.0047904356774052855,0.003317087491355477,,2017-06-30 13:07:36.233000040,2017-06-30 13:18:43.421999931,67,-0.8354446507944107,0,0
19,0.0,2.686895884802525e-07,2.686895884802525e-07,2.686895884802525e-07,,2017-06-30 13:29:29.600000143,2017-06-30 13:46:51.884999990,1,-0.8354446507944107,0,0
20,0.0,0.03695465251658741,0.004893686252820637,0.003402063172549173,,2017-06-30 16:19:47.357000113,2017-06-30 16:30:54.542999983,67,-0.8354446507944107,0,0
21,0.0,1.1904579729130368e-06,1.1904579729130368e-06,1.1904579729130368e-06,,2017-06-30 16:37:56.658999920,2017-06-30 17:11:34.210999966,1,-0.8354446507944107,0,0
22,0.0,0.03681965139707992,0.004771835442714031,0.0033055674642590493,,2017-06-30 19:24:11.351999998,2017-06-30 19:35:18.538000107,67,-0.8354446507944107,0,0
23,0.0,4.7725113581239704e-06,1.8421662072516309e-06,4.0574904668366556e-06,,2017-06-30 19:53:32.837000132,2017-06-30 21:37:43.521000146,10,-0.8354446507944107,0,0
24,0.0,0.9998816090538227,0.9677973738373687,0.9663294576413568,,2017-07-01 04:38:12.352999926,2017-07-01 04:49:19.539000034,67,1.1969673862285386,0,0
25,0.0,0.9632449567040644,0.9630548948108336,0.9630691795326675,,2017-07-01 05:03:02.766999960,2017-07-01 10:00:08.615999937,22,1.1969673862285386,0,0
26,0.0,0.9998842093755308,0.9677993736691392,0.9663314150563305,,2017-07-01 10:37:52.226000071,2017-07-01 10:48:59.411000013,67,1.1969673862285386,0,0
27,0.0,0.963035056089374,0.963034703161995,0.963035050413625,,2017-07-01 11:05:46.681999922,2017-07-01 12:17:28.847000122,8,1.1969673862285386,0,0
28,0.0,0.9999628878859494,0.9678093844095376,0.9652574933698753,,2017-07-01 12:49:36.373000145,2017-07-01 13:12:43.760999918,139,1.1969673862285386,0,0
29,0.0,0.9634881121930464,0.9631874809684603,0.9633997204916758,,2017-07-01 13:37:43.173000097,2017-07-01 14:10:32.707999945,6,1.1969673862285386,0,0
30,0.0,0.9642369741577829,0.9642366544505174,0.9642366229825854,,2017-07-01 22:30:26.850000143,2017-07-01 22:41:34.032999992,67,1.1969673862285386,0,0
31,0.0,1.0,0.9679080874058604,0.9664172141244542,,2017-07-02 00:20:38.664999962,2017-07-02 00:31:45.848000050,67,1.1969673862285386,0,0
32,0.0,0.999921600768579,0.9678093961728589,0.9663402030356262,,2017-07-02 05:01:07.235000134,2017-07-02 05:12:14.419000149,67,1.1969673862285386,0,0
33,0.0,0.9642769547463359,0.9642594035360483,0.9642525401917993,,2017-07-02 08:23:24.526999950,2017-07-02 08:34:31.713000059,67,1.1969673862285386,0,0
34,0.0,0.9633717861749362,0.9630945835915362,0.9631740260610755,,2017-07-02 09:14:27.360000134,2017-07-02 11:13:12.292000055,17,1.1969673862285386,0,0
35,0.0,0.9999630256418969,0.9678163681076988,0.9652649673129738,,2017-07-02 12:08:03.190999985,2017-07-02 12:31:09.574000120,139,1.1969673862285386,0,0
36,0.0,0.9634232229927351,0.9630877060781188,0.9631331638136297,,2017-07-02 12:43:14.766000032,2017-07-02 14:06:26.121000051,20,1.1969673862285386,0,0
37,0.0,0.9642450002061348,0.9642449780335998,0.9642449656756371,,2017-07-02 15:37:10.608999968,2017-07-02 15:48:17.795000076,67,1.1969673862285386,0,0
38,0.0,0.9630432547713462,0.9630430374889912,0.9630431743353847,,2017-07-02 16:09:32.141000032,2017-07-02 16:29:24.459000111,7,1.1969673862285386,0,0
39,0.0,0.9999437421931769,0.9678149976695363,0.9663450260197619,,2017-07-02 19:25:58.325999975,2017-07-02 19:37:05.509999989,67,1.1969673862285386,0,0
40,0.0,0.9633197662273797,0.963071071324263,0.9631125890280984,,2017-07-02 20:01:56.904999971,2017-07-03 00:09:12.924999952,14,1.1969673862285386,0,0
41,0.0,0.9642448801008168,0.9642448312591174,0.9642447995725351,,2017-07-03 00:11:23.963000059,2017-07-03 00:22:31.147000074,67,1.1969673862285386,0,0
42,0.0,0.9630499588818784,0.9630472392878986,0.9630488065490639,,2017-07-03 00:22:44.150000095,2017-07-03 01:23:53.141000032,21,1.1969673862285386,0,0
