,y_true,y_pred,y_pred_top_k,y_pred_top_percentage,label_id,timestamp_min,timestamp_max,nb,freq_temp,max_freq_pressure,min_freq_pressure
0,0.0,0.009166168126069718,0.009164645466109131,0.009164215827723105,,2017-05-03 00:05:22.187000036,2017-05-03 14:45:28.470000029,165,0.0,0,0
1,0.0,0.00208842416581468,0.0020883402873886786,0.002088241715022976,,2017-05-03 14:47:39.505000114,2017-05-03 14:58:46.690999985,67,0.0,0,0
2,0.0,0.009162280192539231,0.009162280192539231,0.009162280192539231,,2017-05-03 15:02:54.758000135,2017-05-03 17:18:56.957000017,1,0.0,0,0
3,0.0,0.0020936033504962777,0.002093024758846101,0.0020925602532304516,,2017-05-03 17:21:07.992000103,2017-05-03 17:32:14.174999952,67,0.0,0,0
4,0.0,0.009168717136563833,0.009164157797853886,0.009166324902769585,,2017-05-03 17:32:27.179000139,2017-05-03 21:31:11.072000027,6,0.0,0,0
5,0.0,0.002088738371834354,0.0020885974615107825,0.0020885102086806947,,2017-05-03 22:23:41.911000013,2017-05-03 22:34:49.092999935,67,0.0,0,0
6,0.0,0.009163958051374706,0.009163270519997713,0.00916384996674803,,2017-05-03 22:43:18.229000092,2017-05-04 00:56:01.384000063,6,0.0,0,0
7,0.0,0.00208891681233643,0.0020887239307476805,0.002088667295236827,,2017-05-04 00:58:12.420000076,2017-05-04 01:09:19.601000071,67,0.0,0,0
8,0.0,0.009165463975393912,0.009164511895341818,0.009165463975393912,,2017-05-04 01:09:32.605000019,2017-05-04 01:42:34.137000084,2,0.0,0,0
9,0.0,0.002093856809640329,0.0020929185553644003,0.0020923430890692554,,2017-05-04 04:55:57.260999918,2017-05-04 05:07:04.443000078,67,0.0,0,0
10,0.0,0.009166390454446859,0.009166390454446859,0.009166390454446859,,2017-05-04 05:10:42.502000093,2017-05-04 05:27:53.781000137,1,0.0,0,0
11,0.0,0.002093302112079958,0.002092471968397113,0.0020907233568307473,,2017-05-04 11:33:41.712000132,2017-05-04 11:56:48.092999935,139,0.0,0,0
12,0.0,0.009165043382523285,0.009164668854036865,0.009164696534602742,,2017-05-04 12:23:26.521000146,2017-05-04 21:29:56.385999918,37,0.0,0,0
13,0.0,0.002088626096166546,0.002088502625279197,0.002088422185182709,,2017-05-04 21:32:07.423000097,2017-05-04 21:43:14.605000019,67,0.0,0,0
14,0.0,0.009165166978407122,0.009162999827343745,0.0091641674589827,,2017-05-04 21:43:27.608999968,2017-05-05 01:44:00.509000063,10,0.0,0,0
15,0.0,0.0020887271930002645,0.002088660696616759,0.002088560501535664,,2017-05-05 01:46:11.545000076,2017-05-05 01:57:18.726999998,67,0.0,0,0
16,0.0,0.009165955410377593,0.009164075271433425,0.009164849724308475,,2017-05-05 01:57:31.729000092,2017-05-05 09:15:25.845000029,13,0.0,0,0
17,0.0,0.002088734380455644,0.002088682132501172,0.002088582585813951,,2017-05-05 09:17:36.881000042,2017-05-05 09:28:44.064000130,67,0.0,0,0
18,0.0,0.009164768681397381,0.009163676099955644,0.009164473520260525,,2017-05-05 10:38:20.194000006,2017-05-05 17:53:40.265000105,9,0.0,0,0
19,0.0,0.0020886419270949334,0.002088528874888582,0.002088459959014177,,2017-05-05 17:55:51.301000118,2017-05-05 18:06:58.489000082,67,0.0,0,0
20,0.0,0.009166301137396941,0.009165871132089349,0.009166301137396941,,2017-05-05 18:33:23.919000149,2017-05-05 20:34:08.881000042,4,0.0,0,0
21,0.0,0.009165920648923982,0.009165920648923982,0.009165920648923982,,2017-05-05 21:13:50.529000044,2017-05-05 21:38:00.913000107,1,0.0,0,0
22,0.0,0.002088734380455644,0.002088635728482825,0.0020885525462523316,,2017-05-06 02:15:32.423000097,2017-05-06 02:26:39.602999926,67,0.0,0,0
23,0.0,0.002088743026284403,0.0020886527829614408,0.002088551356878011,,2017-05-06 03:56:03.052000046,2017-05-06 04:07:10.233999968,67,0.0,0,0
24,0.0,0.009164848445078363,0.009164634087011167,0.009164848445078363,,2017-05-06 04:07:23.236999989,2017-05-06 05:40:56.753000021,2,0.0,0,0
25,0.0,0.0020889917492709614,0.0020889030614186523,0.0020888063771099404,,2017-05-06 05:43:07.789000034,2017-05-06 05:54:14.970999956,67,0.0,0,0
26,0.0,0.009165325739844963,0.0091648936482196,0.009165325739844963,,2017-05-06 06:46:19.822000027,2017-05-06 09:35:52.566999912,2,0.0,0,0
27,0.0,0.002089393820647736,0.0020893320422075545,0.0020892317008110225,,2017-05-06 09:38:03.604000092,2017-05-06 09:49:10.789000034,67,0.0,0,0
28,0.0,0.009166227797439622,0.009166227797439622,0.009166227797439622,,2017-05-06 10:05:15.052999973,2017-05-06 10:45:19.699000120,1,0.0,0,0
29,0.0,0.002089614349569952,0.002089549392858472,0.0020894643171725383,,2017-05-06 12:33:19.439000130,2017-05-06 12:44:26.618999958,67,0.0,0,0
30,0.0,0.002088929673627867,0.0020888092305919948,0.002088717004601299,,2017-05-06 15:54:05.687000036,2017-05-06 16:05:12.868999958,67,0.0,0,0
31,0.0,0.009166033883679325,0.009164979270465988,0.009166033883679325,,2017-05-06 16:05:25.873000145,2017-05-06 19:10:53.880000114,4,0.0,0,0
32,0.0,0.0020892987764532557,0.0020891483111050413,0.0020890546930615213,,2017-05-06 19:13:04.917000055,2017-05-06 19:24:12.098999977,67,0.0,0,0
33,0.0,0.010442615438294868,0.010017660442193224,0.009916147700953917,,2017-05-06 19:24:25.101999998,2017-05-07 02:06:58.666000128,57,0.0,0,0
34,0.0,0.0020886932606772146,0.002088609360398149,0.002088519139769279,,2017-05-07 02:09:09.700999975,2017-05-07 02:20:16.881999969,67,0.0,0,0
35,0.0,0.009165072033733018,0.009163339149642144,0.009165072033733018,,2017-05-07 02:20:28.884000063,2017-05-07 03:10:31.697999954,4,0.0,0,0
36,0.0,0.00208897434626695,0.0020888967450146782,0.0020887824580152425,,2017-05-07 04:11:16.677000046,2017-05-07 04:22:23.857000113,67,0.0,0,0
37,0.0,0.00916595414793066,0.00916354311063393,0.00916373022037811,,2017-05-07 04:50:11.312999964,2017-05-07 09:00:10.383000135,27,0.0,0,0
38,0.0,0.002088822196438534,0.0020886971122742516,0.0020885949588015677,,2017-05-07 09:02:21.417999983,2017-05-07 09:13:28.598000050,67,0.0,0,0
39,0.0,0.00916491113007781,0.00916398869451321,0.009164449819900763,,2017-05-07 09:13:41.601999998,2017-05-07 11:15:23.581000090,7,0.0,0,0
40,0.0,0.0020887113599650227,0.0020886511972685157,0.0020885614310166382,,2017-05-07 11:17:34.617000103,2017-05-07 11:28:41.801000118,67,0.0,0,0
41,0.0,0.009165462714484915,0.009163886157208541,0.00916466419014158,,2017-05-07 11:28:54.805000067,2017-05-07 11:47:59.112999916,6,0.0,0,0
42,0.0,0.0020888788292142127,0.0020886945164310575,0.00208861115055533,,2017-05-07 12:45:59.042999983,2017-05-07 12:57:06.222000122,67,0.0,0,0
43,0.0,0.009164779168767623,0.009163622666424497,0.009164280653059582,,2017-05-07 13:17:45.552000046,2017-05-07 14:02:32.276999950,7,0.0,0,0
44,0.0,0.0020890614235646704,0.002089001238051692,0.002088859619535935,,2017-05-07 18:56:37.042000055,2017-05-07 19:19:43.427000046,139,0.0,0,0
45,0.0,0.0020885716446318423,0.0020884563245222114,0.0020883714033348537,,2017-05-08 10:22:08.108999968,2017-05-08 10:33:15.289000034,67,0.0,0,0
46,0.0,0.009165155576670442,0.009164234228562204,0.009165155576670442,,2017-05-08 10:33:28.292999983,2017-05-08 10:56:31.671000004,2,0.0,0,0
47,0.0,0.8662067824620273,0.5585230324561024,0.3839448438414173,,2017-05-08 13:05:20.771000147,2017-05-08 13:16:27.954999924,67,0.0,0,0
48,0.0,0.002089084322100103,0.0020889402042786496,0.0020888640880848955,,2017-05-08 14:40:48.339999914,2017-05-08 14:51:55.523000001,67,0.0,0,0
49,0.0,0.002089743210779142,0.0020896323001863186,0.002089543737326055,,2017-05-08 16:12:47.829999924,2017-05-08 16:23:55.010999918,67,0.0,0,0
50,0.0,1.0,0.3083003707715638,0.4963090986879564,,2017-05-08 16:24:36.022000074,2017-05-08 18:23:11.960999966,22,0.0,0,0
51,1.0,0.9580439669880055,0.339361904094311,0.28432907487920783,2338567,2017-05-09 01:21:44.739000082,2017-05-09 20:34:44.510999918,409,0.0,0,0
