,y_true,y_pred,y_pred_top_k,y_pred_top_percentage,label_id,timestamp_min,timestamp_max,nb,freq_temp,max_freq_pressure,min_freq_pressure
0,0.0,0.9513455919146733,0.10992098666762802,0.038275684905330225,,2017-08-23 09:08:53.131000042,2017-08-23 09:32:00.519000052,139,0.0,0,0
1,0.0,0.44228153989818314,0.18273957702799629,0.21412831886039904,,2017-08-23 09:56:51.923000097,2017-08-23 11:41:15.627000093,25,0.0,0,0
2,0.0,0.980465422675302,0.2579328274616494,0.09353818679000511,,2017-08-23 18:31:16.273000002,2017-08-23 18:54:23.660000086,139,0.0,0,0
3,0.0,0.36486168078471903,0.26805589333170665,0.2875681066898794,,2017-08-23 19:19:45.084000111,2017-08-23 20:58:15.684000015,31,0.0,0,0
4,0.0,0.011845262150752293,0.010798732904541562,0.008645470930042915,,2017-08-23 21:45:25.447999954,2017-08-23 22:08:32.835000038,139,0.0,0,0
5,0.0,0.351482261640547,0.2463695554428774,0.2888239944013557,,2017-08-23 22:14:55.940999985,2017-08-23 23:20:20.013000011,25,0.0,0,0
6,0.0,0.011962049320630596,0.01196005737699613,0.011958158850208487,,2017-08-24 00:01:11.671999931,2017-08-24 00:24:18.052999973,139,0.0,0,0
7,0.0,0.014115260617121256,0.011150001591568695,0.009727119418018012,,2017-08-24 01:49:26.444999933,2017-08-24 02:00:33.625999928,67,0.0,0,0
8,0.0,0.37474435276022505,0.2711233357655551,0.3069731963807581,,2017-08-24 02:08:23.750000,2017-08-24 03:34:48.144999981,25,0.0,0,0
9,0.0,0.9525763794915035,0.10935507281581665,0.03936776821404288,,2017-08-24 10:13:32.575999975,2017-08-24 10:36:38.954999924,138,0.0,0,0
10,0.0,0.3760245368896226,0.26410565447089435,0.2946744664615081,,2017-08-24 10:44:53.088999987,2017-08-24 12:13:37.528000115,29,0.0,0,0
11,0.0,1.0,0.17140157385790428,0.0951321487959967,,2017-08-24 12:57:19.223999977,2017-08-24 13:20:25.605999947,139,0.0,0,0
12,0.0,0.4198871221438495,0.28743242242930167,0.33492696897944146,,2017-08-24 13:25:11.683000088,2017-08-24 14:17:28.542999983,25,0.0,0,0
13,0.0,0.9506264968118867,0.09978208984945565,0.03207450866833876,,2017-08-24 14:50:14.081000090,2017-08-24 15:13:21.463000059,139,0.0,0,0
14,0.0,0.9733573198054404,0.31287545900560276,0.2586604776623675,,2017-08-25 14:56:05.575999975,2017-08-25 15:07:12.763999939,67,0.0,0,0
15,0.0,0.9752045144891036,0.12638855810063138,0.0875528774218467,,2017-08-25 21:47:05.259999990,2017-08-25 21:58:12.443000078,67,0.0,0,0
16,0.0,0.973502107668172,0.1255119348838169,0.0867133619315621,,2017-08-25 22:44:09.200999975,2017-08-25 22:55:16.377000093,67,0.0,0,0
17,0.0,0.1445467858306147,0.1425630087438284,0.1435947759273941,,2017-08-25 23:23:54.838000059,2017-08-26 00:15:16.681999922,6,0.0,0,0
18,0.0,0.976116275986015,0.12734494938685184,0.08851125351956363,,2017-08-26 01:42:17.105999947,2017-08-26 01:53:24.296000004,67,0.0,0,0
19,0.0,0.1413937993098864,0.14128503134001053,0.1413937993098864,,2017-08-26 02:56:11.301000118,2017-08-26 03:13:02.572000027,4,0.0,0,0
20,0.0,0.03366731234571644,0.03341316059689209,0.03325645479723751,,2017-08-26 04:12:18.541000128,2017-08-26 04:23:25.729000092,67,0.0,0,0
21,0.0,0.4125300753646916,0.35614078689099016,0.3652547950272668,,2017-08-26 04:44:34.084000111,2017-08-26 06:09:08.457999945,33,0.0,0,0
22,0.0,0.9660987286304855,0.13241206615798512,0.06040626507903768,,2017-08-26 06:38:03.930999994,2017-08-26 07:01:10.315000057,139,0.0,0,0
23,0.0,0.3565915706290022,0.26234769018053794,0.27944012131054596,,2017-08-26 07:20:02.627000093,2017-08-26 08:53:22.148999929,30,0.0,0,0
24,0.0,0.9537808732293861,0.11653342993652223,0.048172833411249116,,2017-08-26 09:24:27.657999992,2017-08-26 09:47:35.042000055,139,0.0,0,0
25,0.0,0.9544705830209554,0.10363711273455237,0.06470934220917594,,2017-08-26 09:53:14.133000134,2017-08-26 10:04:21.315000057,67,0.0,0,0
26,0.0,0.3686538356839189,0.22750438244384275,0.3060333406469647,,2017-08-26 10:17:14.529000044,2017-08-26 11:02:36.279999971,18,0.0,0,0
27,0.0,0.9548160699065352,0.10845178551693022,0.038923052506642235,,2017-08-26 11:31:01.736000061,2017-08-26 11:54:09.123000145,139,0.0,0,0
28,0.0,0.1235872370095854,0.12091784038039781,0.12222537703600525,,2017-08-26 12:11:10.406000137,2017-08-26 13:00:31.213999987,16,0.0,0,0
29,0.0,0.9520986143846469,0.10211142864225795,0.033093600549409505,,2017-08-26 19:28:00.528000115,2017-08-26 19:51:06.921999931,138,0.0,0,0
30,0.0,0.034895796293488074,0.03389763846574144,0.03183602017004951,,2017-08-27 07:33:28.408999920,2017-08-27 07:56:34.796999931,138,0.0,0,0
31,0.0,0.1649698011795204,0.14979723091574526,0.15758204356671282,,2017-08-27 08:06:13.944999933,2017-08-27 08:47:25.612999916,16,0.0,0,0
32,0.0,0.948820782651828,0.3079871600299556,0.1736300517170285,,2017-08-27 13:51:19.578000069,2017-08-27 14:14:25.960000038,138,0.0,0,0
33,0.0,0.1503398045048517,0.12450332292408321,0.14459258414422504,,2017-08-27 14:14:42.964999914,2017-08-27 15:06:11.802999973,18,0.0,0,0
34,0.0,0.9517810708201206,0.10564259526199664,0.03670743849377687,,2017-08-27 15:44:56.429000139,2017-08-27 16:08:02.815000057,138,0.0,0,0
35,0.0,0.19258034634365928,0.14839464247448225,0.16751716488735224,,2017-08-27 16:58:06.648000002,2017-08-27 17:39:32.315999985,19,0.0,0,0
36,0.0,0.029509325768939172,0.026559358157861822,0.02362892250530258,,2017-08-28 08:05:13.429000139,2017-08-28 08:28:19.811000109,138,0.0,0,0
37,0.0,0.15710173629551638,0.13583470974858244,0.14729383318680683,,2017-08-28 08:35:36.930000067,2017-08-28 09:35:37.904999971,21,0.0,0,0
38,0.0,0.9601713182523949,0.11019088663674374,0.03886951374591121,,2017-08-28 11:53:35.181999922,2017-08-28 12:16:42.572000027,139,0.0,0,0
39,0.0,0.33061973770204994,0.23163906341656423,0.252194988239953,,2017-08-28 12:33:42.845000029,2017-08-28 13:31:15.805999994,28,0.0,0,0
40,0.0,0.032329743091909224,0.02961531799407391,0.026199039469357775,,2017-08-29 04:36:13.509999989,2017-08-29 04:59:19.885999918,138,0.0,0,0
41,0.0,0.17428819031584566,0.1341048805243273,0.149515359490958,,2017-08-29 05:05:55.993999958,2017-08-29 06:06:58.000999928,21,0.0,0,0
42,0.0,0.9774732952715826,0.13105745110862352,0.059028107133929135,,2017-08-29 20:51:42.404999971,2017-08-29 21:14:49.796999931,139,0.0,0,0
43,0.0,0.2026856006214947,0.15240849008330254,0.16748045979862655,,2017-08-29 21:22:00.914000034,2017-08-29 22:15:45.773000002,23,0.0,0,0
44,0.0,0.02114708873168463,0.0167910999799662,0.013758503642348728,,2017-08-29 22:57:58.460000038,2017-08-29 23:21:05.838000059,139,0.0,0,0
