,y_true,y_pred,y_pred_top_k,y_pred_top_percentage,label_id,timestamp_min,timestamp_max,nb,freq_temp,max_freq_pressure,min_freq_pressure
0,0.0,0.140752584082698,0.01687600549006588,0.010668608474311506,,2017-05-17 09:01:00.233999968,2017-05-17 09:12:07.419000149,67,0.0,0,0
1,0.0,0.07062017456741207,0.06901803709235356,0.06966132129503388,,2017-05-17 09:14:54.463999987,2017-05-17 09:52:46.068000078,6,0.0,0,0
2,0.0,0.14755066914528298,0.020088548833036478,0.01424761904640268,,2017-05-18 20:03:26.236000061,2017-05-18 20:14:33.416000128,67,0.0,0,0
3,0.0,0.0725936288628785,0.07198517462707796,0.0725936288628785,,2017-05-18 20:14:46.420000076,2017-05-19 01:00:16.033999920,3,0.0,0,0
4,0.0,0.1460431257183753,0.01903984849392202,0.01322457778959176,,2017-05-19 01:02:27.069999933,2017-05-19 01:13:34.250999927,67,0.0,0,0
5,0.0,0.07881370767506914,0.07687835131428405,0.07881004470215955,,2017-05-19 01:13:47.253999949,2017-05-19 02:08:19.143000126,9,0.0,0,0
6,0.0,0.0787624337381818,0.0758960327551075,0.0787624337381818,,2017-05-19 02:30:46.510999918,2017-05-19 03:24:57.381999969,3,0.0,0,0
7,0.0,0.14795700646720253,0.020139780568109254,0.014283392608668422,,2017-05-19 05:33:31.436000109,2017-05-19 05:44:38.618000031,67,0.0,0,0
8,0.0,0.07216864649428818,0.07213826202004375,0.07216864649428818,,2017-05-19 05:49:00.689000130,2017-05-19 06:20:32.204999924,2,0.0,0,0
9,0.0,0.1486675584264103,0.019546920940470176,0.013634795815592016,,2017-05-19 08:00:17.804000139,2017-05-19 08:11:24.986999989,67,0.0,0,0
10,0.0,0.07216621524846957,0.07212611109637368,0.07216621524846957,,2017-05-19 08:13:05.015000105,2017-05-19 08:58:37.753999949,2,0.0,0,0
11,0.0,0.07209572680498773,0.07209208182668658,0.07209572680498773,,2017-05-19 09:18:53.082999945,2017-05-19 10:10:24.914000034,2,0.0,0,0
12,0.0,0.15476307118057456,0.02147750513676069,0.015374864601670328,,2017-05-19 14:23:07.983000040,2017-05-19 14:34:15.164999962,67,0.0,0,0
13,0.0,0.48491411576542703,0.17690892504867453,0.39388156353972115,,2017-05-19 15:03:46.638000011,2017-05-19 19:53:01.316999912,6,0.0,0,0
14,0.0,0.13916737419668573,0.015557535989614495,0.009897091300585253,,2017-05-19 19:55:12.351999998,2017-05-19 20:06:19.532000064,67,0.0,0,0
15,0.0,0.06873891237143584,0.06855995608859296,0.06872919316021864,,2017-05-19 20:16:46.703000069,2017-05-19 21:51:46.236999989,11,0.0,0,0
16,0.0,0.13901095167987887,0.01566712255266867,0.01001497512240226,,2017-05-19 23:13:30.552999973,2017-05-19 23:24:37.732000113,67,0.0,0,0
17,0.0,0.06924877436148769,0.06922903359046714,0.06924389985257344,,2017-05-19 23:50:35.153000116,2017-05-20 00:25:22.722000122,10,0.0,0,0
18,0.0,0.0005431755171702058,0.000536904985562554,0.0005319153073537956,,2017-05-20 05:25:26.598999977,2017-05-20 05:36:33.782000065,67,0.0,0,0
19,0.0,0.0799491764350798,0.07511376528385447,0.07611914866075077,,2017-05-20 05:48:25.970000029,2017-05-20 12:38:37.562000036,25,0.0,0,0
20,0.0,0.1348381945760343,0.019670671446446932,0.014400115043311372,,2017-05-20 16:36:18.434999943,2017-05-20 16:47:25.618000031,67,0.0,0,0
21,0.0,0.07502092522592603,0.07158530402482063,0.0750136194763174,,2017-05-20 17:11:31.008000135,2017-05-20 19:10:10.924999952,8,0.0,0,0
22,0.0,0.0007569248150705328,0.0007510761347544394,0.0007020540194893235,,2017-05-20 22:49:12.500999928,2017-05-20 23:00:19.687999964,67,0.0,0,0
23,0.0,0.06921465564522233,0.06898970414272529,0.06921465564522233,,2017-05-20 23:11:52.875000,2017-05-20 23:51:35.523999929,5,0.0,0,0
24,0.0,0.0044292682045039364,0.004423859603163974,0.004419178728624331,,2017-05-21 02:59:35.584000111,2017-05-21 03:10:42.766000032,67,0.0,0,0
25,0.0,0.07184083049439041,0.07058476074841165,0.07127757268273745,,2017-05-21 03:20:59.927999973,2017-05-21 03:59:53.552000046,8,0.0,0,0
26,0.0,0.14003420013194615,0.017535380147752768,0.01192573295195282,,2017-05-21 05:47:08.294000149,2017-05-21 05:58:15.482000113,67,0.0,0,0
27,0.0,1.0,0.43925447646609805,0.3334006639557123,,2017-05-21 06:04:06.578000069,2017-05-21 10:11:27.588000059,66,0.0,0,0
28,0.0,0.13599793929258935,0.017550678877345564,0.012126049046469842,,2017-05-21 12:49:50.137000084,2017-05-21 13:00:57.328000069,67,0.0,0,0
29,0.0,0.07129376886677166,0.07114734968101193,0.07119294111941941,,2017-05-21 13:04:47.391999960,2017-05-21 14:09:14.429000139,11,0.0,0,0
30,0.0,0.13600552771256266,0.016802889849881656,0.010925832958886066,,2017-05-21 16:42:15.927999973,2017-05-21 16:53:23.111000061,67,0.0,0,0
31,0.0,0.07072161605470625,0.07008026584587883,0.07072039917045948,,2017-05-21 16:59:45.213999987,2017-05-21 17:37:37.835999966,10,0.0,0,0
32,0.0,0.13335909220958975,0.014016556625894138,0.008551597517489504,,2017-05-22 05:25:25.292999983,2017-05-22 05:36:32.473999977,67,0.0,0,0
33,0.0,0.06962878803868083,0.06891028065099813,0.06923973869165924,,2017-05-22 05:46:51.640000105,2017-05-22 06:53:39.714999914,10,0.0,0,0
34,0.0,0.146878206264572,0.02584279207672472,0.02030405624495432,,2017-05-22 11:06:11.816999912,2017-05-22 11:17:18.999000072,67,0.0,0,0
35,0.0,0.1410599482861517,0.019634452895140354,0.014074212566866903,,2017-05-22 11:20:46.055999994,2017-05-22 11:31:53.235000134,67,0.0,0,0
36,0.0,0.07374652791531613,0.07191682019244737,0.0730934095761138,,2017-05-22 11:56:07.621999979,2017-05-22 14:27:19.075000048,14,0.0,0,0
37,0.0,0.06953870190538905,0.06951612497201762,0.06953508309749452,,2017-05-22 15:12:53.796000004,2017-05-22 15:42:59.283999920,12,0.0,0,0
38,0.0,0.1348431764469551,0.01967571944852772,0.014191998196473899,,2017-05-22 20:52:54.325000048,2017-05-22 21:04:01.506999969,67,0.0,0,0
39,0.0,0.06883125574451956,0.06878014074415444,0.06882639783241684,,2017-05-22 21:32:04.950000048,2017-05-22 22:08:28.538000107,8,0.0,0,0
40,0.0,0.13484483739583308,0.014723735597794798,0.009223575380007785,,2017-05-22 23:49:41.190999985,2017-05-23 00:00:48.375000,67,0.0,0,0
41,0.0,0.06962878803868083,0.06954257413511215,0.06958805925092143,,2017-05-23 00:03:40.421999931,2017-05-23 00:38:55.996000051,9,0.0,0,0
42,0.0,0.0034204246715469873,0.0034145058882582894,0.003409736763073256,,2017-05-23 02:06:52.424000025,2017-05-23 02:17:59.611000061,67,0.0,0,0
43,0.0,0.07380222680399326,0.07341594472222268,0.07379859365793459,,2017-05-23 02:29:05.796000004,2017-05-23 03:05:34.403000116,8,0.0,0,0
44,0.0,0.1348850784169771,0.01557925315216111,0.010098185699291376,,2017-05-23 04:34:40.835999966,2017-05-23 04:45:48.018000126,67,0.0,0,0
45,0.0,0.0712092049606946,0.0702946532128235,0.07088036347568254,,2017-05-23 05:45:02.986000061,2017-05-23 10:06:36.253000021,16,0.0,0,0
46,0.0,0.1356120510967483,0.016280685328519423,0.010820106815668175,,2017-05-23 10:08:47.288000107,2017-05-23 10:19:54.467999935,67,0.0,0,0
47,0.0,0.0764688801565834,0.07412833714831103,0.07645839855376164,,2017-05-23 10:20:07.472000122,2017-05-23 11:40:41.781000137,11,0.0,0,0
48,0.0,0.1394201506512806,0.020152765462275977,0.014465094487375749,,2017-05-23 12:51:01.939000130,2017-05-23 13:02:09.124000072,67,0.0,0,0
49,0.0,0.0707772198753633,0.06976407803906881,0.0707772198753633,,2017-05-23 13:16:05.345999956,2017-05-23 13:40:54.746000051,4,0.0,0,0
50,0.0,0.1375077879479533,0.01945437679993302,0.012011447547447946,,2017-05-23 23:27:29.256999969,2017-05-23 23:38:36.443000078,67,0.0,0,0
