,y_true,y_pred,y_pred_top_k,y_pred_top_percentage,label_id,timestamp_min,timestamp_max,nb,freq_temp,max_freq_pressure,min_freq_pressure
0,0.0,0.14205433542391768,0.13916727450759092,0.13779813960989518,,2017-11-22 08:29:55.400000095,2017-11-22 08:41:02.578999996,67,0.0,0,0
1,0.0,0.7928327606795691,0.7845976489339924,0.791788209630565,,2017-11-22 09:29:33.375000,2017-11-22 11:15:39.100000143,12,0.0,0,0
2,0.0,0.7795260219598845,0.773999958743178,0.7790094323395529,,2017-11-22 12:06:41.931999922,2017-11-22 12:53:39.691999912,6,0.0,0,0
3,0.0,0.26697035118083284,0.042082318433749245,0.03179281892610724,,2017-11-22 18:44:55.401999950,2017-11-22 18:56:02.584000111,67,0.0,0,0
4,0.0,0.9305479198402841,0.8039709411038197,0.8237689904809818,,2017-11-22 18:56:15.588000059,2017-11-22 20:48:24.391999960,24,0.0,0,0
5,0.0,0.30154969021836814,0.07757688345043272,0.05711861837012757,,2017-11-23 17:04:53.015000105,2017-11-23 17:28:00.404000044,139,0.0,0,0
6,0.0,0.7911176996356443,0.7866131862401042,0.7889715242654791,,2017-11-23 18:00:18.921999931,2017-11-23 18:45:37.658999920,24,0.0,0,0
7,0.0,0.46232620792774176,0.23865554667934838,0.2172247851858421,,2017-11-25 02:08:57.019000053,2017-11-25 02:32:03.401000023,139,0.0,0,0
8,0.0,0.8633838179300051,0.8050656804965607,0.8180222590278824,,2017-11-25 02:58:19.827000141,2017-11-25 03:32:24.388999939,20,0.0,0,0
9,0.0,0.6447123433790072,0.40228465561319426,0.341124419229696,,2017-11-25 21:55:30.278000116,2017-11-25 22:18:37.667999983,139,0.0,0,0
10,0.0,0.08005993678453252,0.06939824056343909,0.06361904304067759,,2017-11-25 23:40:23.989000082,2017-11-25 23:51:31.174000025,67,0.0,0,0
11,0.0,0.8038008793439754,0.7946048226083893,0.7969656251912669,,2017-11-26 00:17:50.608000040,2017-11-26 01:03:01.345000029,23,0.0,0,0
12,0.0,0.37515639659640715,0.3696871191420112,0.1709691140526883,,2017-11-26 13:35:28.516000032,2017-11-26 14:02:54.960000038,164,0.0,0,0
13,0.0,0.29136099537423416,0.06721266723396893,0.056381572867834864,,2017-11-26 14:48:15.690000057,2017-11-26 14:59:22.871000051,67,0.0,0,0
14,0.0,0.9283297402683598,0.8093461298434137,0.8332744655081488,,2017-11-26 15:06:18.982000113,2017-11-26 16:43:46.587000132,24,0.0,0,0
15,0.0,0.2858434613327152,0.16759128714672006,0.14784530828404993,,2017-11-26 20:15:07.019999981,2017-11-26 20:38:13.403000116,139,0.0,0,0
16,0.0,0.7699426642740206,0.7656108514922555,0.7699426642740206,,2017-11-26 20:46:47.542000055,2017-11-26 21:13:30.970999956,4,0.0,0,0
17,0.0,0.3542001534028096,0.13003582065255787,0.1121596394429898,,2017-11-26 22:42:18.437999964,2017-11-26 23:05:24.819999933,138,0.0,0,0
18,0.0,1.0,0.8107701959052843,0.858442669247417,,2017-11-26 23:25:12.138000011,2017-11-27 05:08:24.671999931,21,0.0,0,0
19,0.0,0.40708116200948985,0.2052819588113925,0.15737505721471856,,2017-11-27 07:32:34,2017-11-27 07:43:41.184999943,67,0.0,0,0
20,0.0,0.7718257283042809,0.7645402858530236,0.76878255764785,,2017-11-27 08:01:50.483000040,2017-11-27 09:26:50.844000101,7,0.0,0,0
21,0.0,0.04434037157774465,0.043791157934018415,0.043423857557728096,,2017-11-27 14:33:00.798000097,2017-11-27 14:44:07.980000019,67,0.0,0,0
22,0.0,0.3422887275105237,0.10939796878315207,0.09232209974494472,,2017-11-27 14:56:45.184000015,2017-11-27 15:07:52.365999937,67,0.0,0,0
23,0.0,0.7666679645601279,0.7658660473075893,0.7666679645601279,,2017-11-27 15:10:56.411999941,2017-11-27 15:24:06.624000072,4,0.0,0,0
24,0.0,0.34312886983976565,0.1168509313708721,0.10649684388950417,,2017-11-27 18:23:35.532000064,2017-11-27 18:34:42.717000008,67,0.0,0,0
25,0.0,0.9251930194423124,0.8094400611814067,0.8029696765954532,,2017-11-27 19:03:21.186000109,2017-11-28 02:30:50.462000132,48,0.0,0,0
26,0.0,0.31328115999548156,0.12620823479344095,0.10710092213440632,,2017-11-28 05:59:41.851999998,2017-11-28 06:22:49.229000092,139,0.0,0,0
27,0.0,0.780277802335613,0.7722643662787804,0.7731949111006694,,2017-11-28 06:28:09.315999985,2017-11-28 12:44:39.384000063,27,0.0,0,0
28,0.0,0.09239246590411651,0.09198427044662234,0.09187165797444304,,2017-11-28 12:46:50.419000149,2017-11-28 12:57:57.600000143,67,0.0,0,0
29,0.0,0.7810575467377355,0.7685151637705788,0.7758455283474266,,2017-11-28 13:17:01.904000044,2017-11-28 14:54:45.490000010,10,0.0,0,0
30,0.0,0.47692687143737117,0.2532786265985532,0.24277485450415912,,2017-11-28 19:53:57.318000078,2017-11-28 20:05:04.499000072,67,0.0,0,0
31,0.0,0.7810476820784836,0.770087454998941,0.776299850244655,,2017-11-28 20:31:16.926000118,2017-11-28 21:05:24.490000010,17,0.0,0,0
